{
    "name": "Windy",
    "author_nickname": "AndyB",
    "notes": "There is a strong wind blowing!",
    "hint1": "Try to hook on to the ground blocks somehow.",
    "hint2": "Build all the way from the right, under the ground platform and around to the left-hand side.",
    "hint3": "",
    "discussion_id": "78",
    "discussion_slug": "78-windy",
    "highlight_notes": false,
    "effects": {
        "wind": 50
    },
    "zoom": {
        "x": 0,
        "y": 0,
        "w": 20
    },
    "shapes": [
        {
            "id": 0,
            "number": 2
        },
        {
            "id": 1,
            "number": -1
        },
        {
            "id": 2,
            "number": -1
        }
    ],
    "win_conditions": [
        {
            "greaterThan": [
                "time",
                5000
            ]
        }
    ],
    "lose_conditions": [
        {
            "bodyEnteredArea": [
                {
                    "RECT": [
                        {
                            "x": 15,
                            "y": 5
                        },
                        {
                            "x": 17,
                            "y": 16
                        }
                    ]
                },
                "main_car"
            ]
        }
    ],
    "blocks": [
        {
            "static_block": {
                "x": 3,
                "y": 16,
                "w": 14,
                "h": 2
            }
        },
        {
            "static_block": {
                "x": 3,
                "y": 11,
                "w": 2,
                "h": 5
            }
        },
        {
            "shape_block": {
                "x": 11,
                "y": 14,
                "id": 1,
                "rotation": 90,
                "reflected": false
            }
        },
        {
            "shape_block": {
                "x": 11,
                "y": 11,
                "id": 0,
                "rotation": 270,
                "reflected": false
            }
        },
        {
            "shape_block": {
                "x": 2,
                "y": 17,
                "id": 0,
                "rotation": 270,
                "reflected": true
            }
        },
        {
            "shape_block": {
                "x": 5,
                "y": 18,
                "id": 1,
                "rotation": 0,
                "reflected": false
            }
        },
        {
            "shape_block": {
                "x": 8,
                "y": 18,
                "id": 1,
                "rotation": 0,
                "reflected": false
            }
        },
        {
            "shape_block": {
                "x": 11,
                "y": 18,
                "id": 1,
                "rotation": 0,
                "reflected": false
            }
        },
        {
            "shape_block": {
                "x": 14,
                "y": 18,
                "id": 1,
                "rotation": 0,
                "reflected": false
            }
        },
        {
            "shape_block": {
                "x": 17,
                "y": 17,
                "id": 0,
                "rotation": 90,
                "reflected": false
            }
        },
        {
            "shape_block": {
                "x": 16,
                "y": 15,
                "id": 1,
                "rotation": 180,
                "reflected": false
            }
        },
        {
            "shape_block": {
                "x": 13,
                "y": 15,
                "id": 1,
                "rotation": 180,
                "reflected": false
            }
        },
        {
            "shape_block": {
                "x": 2,
                "y": 14,
                "id": 1,
                "rotation": 90,
                "reflected": false
            }
        },
        {
            "shape_block": {
                "x": 11,
                "y": 8,
                "id": 1,
                "rotation": 270,
                "reflected": false
            }
        }
    ],
    "dynamic_objects": [
        {
            "ball": {
                "x": 4,
                "y": 10,
                "id": "main_car"
            }
        }
    ]
}
