{
    "name": "Float",
    "author_nickname": "cf",
    "notes": "Gotta sail past that pesky wall!",
    "hint1": "Weigh down the platform so it guides the car.",
    "hint2": "Make the platform into a ramp.",
    "hint3": "Stick blocks under the platform on the left, so it tilts up to the right, and the car jumps off and over the wall.",
    "discussion_id": "278",
    "discussion_slug": "278-float",
    "effects": {},
    "zoom": {
        "w": 59.71967999999998,
        "x": -0.06320164948454687,
        "y": -0.14016000000000986
    },
    "shapes": [
        {
            "id": 0,
            "number": -1
        },
        {
            "id": 1,
            "number": -1
        },
        {
            "id": 2,
            "number": -1
        },
        {
            "id": 3,
            "number": -1
        },
        {
            "id": 4,
            "number": -1
        }
    ],
    "win_conditions": [
        {
            "bodyEnteredArea": [
                {
                    "RECT": [
                        {
                            "x": 14,
                            "y": 17
                        },
                        {
                            "x": 20,
                            "y": 27
                        }
                    ]
                },
                "main_car"
            ]
        }
    ],
    "lose_conditions": [],
    "blocks": [
        {
            "static_block": {
                "x": 13,
                "y": 13,
                "w": 1,
                "h": 14
            }
        }
    ],
    "dynamic_objects": [
        {
            "simple_car": {
                "x": -5,
                "y": 14.999999999999998,
                "id": "main_car"
            }
        },
        {
            "floating": {
                "x": -4,
                "y": 23,
                "id": "1"
            }
        },
        {
            "floating": {
                "x": 0,
                "y": 23,
                "id": "2"
            }
        },
        {
            "floating": {
                "x": 4,
                "y": 23,
                "id": "3"
            }
        },
        {
            "floating": {
                "x": 8,
                "y": 23,
                "id": "4"
            }
        }
    ]
}
