{
    "name": "Rally",
    "author_nickname": "AndyB",
    "notes": "Get both cars into the bucket.",
    "hint1": "Build ramps down and up again.",
    "hint2": "Hook onto ground blocks to support your ramps.",
    "hint3": "Keep tweaking your ramps until the cars flow smoothly.",
    "discussion_id": "126",
    "discussion_slug": "126-rally",
    "highlight_notes": false,
    "effects": {},
    "zoom": {
        "x": 3,
        "y": 0,
        "w": 55
    },
    "shapes": [
        {
            "id": 0,
            "number": 16
        },
        {
            "id": 1,
            "number": -1
        },
        {
            "id": 3,
            "number": 2
        },
        {
            "id": 4,
            "number": 18
        }
    ],
    "win_conditions": [
        {
            "and": [
                {
                    "bodyEnteredArea": [
                        {
                            "RECT": [
                                {
                                    "x": -14,
                                    "y": 16
                                },
                                {
                                    "x": -10,
                                    "y": 19
                                }
                            ]
                        },
                        "main_car"
                    ]
                },
                {
                    "bodyEnteredArea": [
                        {
                            "RECT": [
                                {
                                    "x": -14,
                                    "y": 16
                                },
                                {
                                    "x": -10,
                                    "y": 19
                                }
                            ]
                        },
                        "2"
                    ]
                }
            ]
        }
    ],
    "lose_conditions": [],
    "blocks": [
        {
            "static_block": {
                "x": 26,
                "y": 11,
                "w": 7,
                "h": 3
            }
        },
        {
            "static_block": {
                "x": 29,
                "y": 9,
                "w": 4,
                "h": 2
            }
        },
        {
            "shape_block": {
                "x": 25,
                "y": 11,
                "id": 4,
                "rotation": 270,
                "reflected": false
            }
        },
        {
            "shape_block": {
                "x": 24,
                "y": 12,
                "id": 4,
                "rotation": 270,
                "reflected": false
            }
        },
        {
            "shape_block": {
                "x": 23,
                "y": 13,
                "id": 4,
                "rotation": 270,
                "reflected": false
            }
        },
        {
            "shape_block": {
                "x": 25,
                "y": 13,
                "id": 0,
                "rotation": 270,
                "reflected": true
            }
        },
        {
            "shape_block": {
                "x": 24,
                "y": 14,
                "id": 0,
                "rotation": 270,
                "reflected": true
            }
        },
        {
            "shape_block": {
                "x": 23,
                "y": 15,
                "id": 0,
                "rotation": 270,
                "reflected": true
            }
        },
        {
            "shape_block": {
                "x": 22,
                "y": 14,
                "id": 4,
                "rotation": 270,
                "reflected": false
            }
        },
        {
            "shape_block": {
                "x": 21,
                "y": 15,
                "id": 4,
                "rotation": 270,
                "reflected": false
            }
        },
        {
            "shape_block": {
                "x": 20,
                "y": 16,
                "id": 4,
                "rotation": 270,
                "reflected": false
            }
        },
        {
            "shape_block": {
                "x": 19,
                "y": 17,
                "id": 4,
                "rotation": 270,
                "reflected": false
            }
        },
        {
            "shape_block": {
                "x": 18,
                "y": 18,
                "id": 4,
                "rotation": 270,
                "reflected": false
            }
        },
        {
            "shape_block": {
                "x": 17,
                "y": 19,
                "id": 4,
                "rotation": 270,
                "reflected": false
            }
        },
        {
            "shape_block": {
                "x": 22,
                "y": 16,
                "id": 0,
                "rotation": 270,
                "reflected": true
            }
        },
        {
            "shape_block": {
                "x": 21,
                "y": 17,
                "id": 0,
                "rotation": 270,
                "reflected": true
            }
        },
        {
            "shape_block": {
                "x": 20,
                "y": 18,
                "id": 0,
                "rotation": 270,
                "reflected": true
            }
        },
        {
            "shape_block": {
                "x": 19,
                "y": 19,
                "id": 0,
                "rotation": 270,
                "reflected": true
            }
        },
        {
            "shape_block": {
                "x": 18,
                "y": 20,
                "id": 0,
                "rotation": 270,
                "reflected": true
            }
        },
        {
            "shape_block": {
                "x": 17,
                "y": 21,
                "id": 0,
                "rotation": 270,
                "reflected": true
            }
        },
        {
            "static_block": {
                "x": 17,
                "y": 23,
                "w": 2,
                "h": 2
            }
        },
        {
            "static_block": {
                "x": 22,
                "y": 19,
                "w": 2,
                "h": 2
            }
        },
        {
            "static_block": {
                "x": 25,
                "y": 16,
                "w": 2,
                "h": 2
            }
        },
        {
            "static_block": {
                "x": 6,
                "y": 22,
                "w": 11,
                "h": 1
            }
        },
        {
            "shape_block": {
                "x": 6,
                "y": 21,
                "id": 4,
                "rotation": 0,
                "reflected": false
            }
        },
        {
            "shape_block": {
                "x": 5,
                "y": 22,
                "id": 0,
                "rotation": 270,
                "reflected": true
            }
        },
        {
            "static_block": {
                "x": -1,
                "y": 18,
                "w": 1,
                "h": 1
            }
        },
        {
            "static_block": {
                "x": -7,
                "y": 14,
                "w": 2,
                "h": 1
            }
        },
        {
            "shape_block": {
                "x": 4,
                "y": 20,
                "id": 4,
                "rotation": 0,
                "reflected": false
            }
        },
        {
            "shape_block": {
                "x": 2,
                "y": 19,
                "id": 4,
                "rotation": 0,
                "reflected": false
            }
        },
        {
            "shape_block": {
                "x": 0,
                "y": 18,
                "id": 4,
                "rotation": 0,
                "reflected": false
            }
        },
        {
            "shape_block": {
                "x": 3,
                "y": 21,
                "id": 0,
                "rotation": 0,
                "reflected": false
            }
        },
        {
            "shape_block": {
                "x": 1,
                "y": 20,
                "id": 0,
                "rotation": 180,
                "reflected": false
            }
        },
        {
            "shape_block": {
                "x": -2,
                "y": 19,
                "id": 0,
                "rotation": 270,
                "reflected": true
            }
        },
        {
            "shape_block": {
                "x": 1,
                "y": 19,
                "id": 4,
                "rotation": 0,
                "reflected": false
            }
        },
        {
            "shape_block": {
                "x": -1,
                "y": 17,
                "id": 4,
                "rotation": 0,
                "reflected": false
            }
        },
        {
            "shape_block": {
                "x": -2,
                "y": 16,
                "id": 4,
                "rotation": 0,
                "reflected": false
            }
        },
        {
            "shape_block": {
                "x": -3,
                "y": 15,
                "id": 4,
                "rotation": 0,
                "reflected": false
            }
        },
        {
            "shape_block": {
                "x": -4,
                "y": 14,
                "id": 4,
                "rotation": 0,
                "reflected": false
            }
        },
        {
            "shape_block": {
                "x": -3,
                "y": 17,
                "id": 3,
                "rotation": 0,
                "reflected": false
            }
        },
        {
            "shape_block": {
                "x": -4,
                "y": 16,
                "id": 3,
                "rotation": 0,
                "reflected": false
            }
        },
        {
            "shape_block": {
                "x": -5,
                "y": 15,
                "id": 0,
                "rotation": 0,
                "reflected": true
            }
        },
        {
            "shape_block": {
                "x": -8,
                "y": 14,
                "id": 0,
                "rotation": 270,
                "reflected": false
            }
        },
        {
            "shape_block": {
                "x": -7,
                "y": 16,
                "id": 0,
                "rotation": 90,
                "reflected": false
            }
        },
        {
            "static_block": {
                "x": -15,
                "y": 19,
                "w": 6,
                "h": 1
            }
        },
        {
            "static_block": {
                "x": -10,
                "y": 16,
                "w": 1,
                "h": 3
            }
        },
        {
            "static_block": {
                "x": -15,
                "y": 16,
                "w": 1,
                "h": 3
            }
        }
    ],
    "dynamic_objects": [
        {
            "left_car": {
                "x": 31,
                "y": 7,
                "id": "main_car"
            }
        },
        {
            "left_car": {
                "x": 25,
                "y": 8,
                "id": "2"
            }
        }
    ]
}
