{
    "name": "Sproing",
    "author_nickname": "AndyB",
    "notes": "Bonus points if you bounce the box off the ball!",
    "hint1": "Hook blocks around the central pillar and under the box so it topples right.",
    "hint2": "Place other blocks to perturb the ball into bouncing the block the right way.",
    "hint3": "If that doesn't work for you, drop some blocks onto the spikes that bounce the block left.",
    "discussion_id": "138",
    "discussion_slug": "138-sproing",
    "highlight_notes": false,
    "effects": {},
    "zoom": {
        "x": 0,
        "y": 0,
        "w": 20
    },
    "shapes": [
        {
            "id": 0,
            "number": -1
        },
        {
            "id": 1,
            "number": -1
        },
        {
            "id": 2,
            "number": -1
        },
        {
            "id": 3,
            "number": -1
        },
        {
            "id": 4,
            "number": -1
        }
    ],
    "win_conditions": [
        {
            "bodyEnteredArea": [
                {
                    "RECT": [
                        {
                            "x": 4,
                            "y": 12
                        },
                        {
                            "x": 8,
                            "y": 15
                        }
                    ]
                },
                "1"
            ]
        }
    ],
    "lose_conditions": [
        {
            "greaterThan": [
                "time",
                10000
            ]
        }
    ],
    "blocks": [
        {
            "static_block": {
                "x": 3,
                "y": 15,
                "w": 14,
                "h": 2
            }
        },
        {
            "static_block": {
                "x": 11,
                "y": 12,
                "w": 1,
                "h": 3
            }
        },
        {
            "static_block": {
                "x": 16,
                "y": 12,
                "w": 1,
                "h": 3
            }
        },
        {
            "static_block": {
                "x": 3,
                "y": 12,
                "w": 1,
                "h": 3
            }
        },
        {
            "static_block": {
                "x": 8,
                "y": 12,
                "w": 1,
                "h": 3
            }
        },
        {
            "static_block": {
                "x": 8,
                "y": 2,
                "w": 1,
                "h": 4
            }
        },
        {
            "shape_block": {
                "x": 8,
                "y": 11,
                "id": 4,
                "rotation": 0,
                "reflected": false
            }
        },
        {
            "shape_block": {
                "x": 11,
                "y": 11,
                "id": 4,
                "rotation": 0,
                "reflected": false
            }
        },
        {
            "shape_block": {
                "x": 9,
                "y": 14,
                "id": 4,
                "rotation": 0,
                "reflected": false
            }
        },
        {
            "shape_block": {
                "x": 10,
                "y": 14,
                "id": 4,
                "rotation": 0,
                "reflected": false
            }
        },
        {
            "shape_block": {
                "x": 7,
                "y": 14,
                "id": 4,
                "rotation": 0,
                "reflected": false
            }
        },
        {
            "shape_block": {
                "x": 6,
                "y": 14,
                "id": 4,
                "rotation": 0,
                "reflected": false
            }
        },
        {
            "shape_block": {
                "x": 5,
                "y": 14,
                "id": 4,
                "rotation": 0,
                "reflected": false
            }
        },
        {
            "shape_block": {
                "x": 4,
                "y": 14,
                "id": 4,
                "rotation": 0,
                "reflected": false
            }
        },
        {
            "shape_block": {
                "x": 3,
                "y": 11,
                "id": 4,
                "rotation": 0,
                "reflected": false
            }
        },
        {
            "shape_block": {
                "x": 16,
                "y": 11,
                "id": 4,
                "rotation": 0,
                "reflected": false
            }
        }
    ],
    "dynamic_objects": [
        {
            "bouncy": {
                "x": 14,
                "y": 13,
                "id": "main_car"
            }
        },
        {
            "box": {
                "x": 10,
                "y": 3,
                "id": "1"
            }
        }
    ]
}
