{
    "name": "Clock Shot",
    "author_nickname": "AndyB",
    "notes": "Whack the ball into the hole!",
    "hint1": "Build a ramp to get the ball to the hole.",
    "hint2": "Unbalance the clock so it swings and pushes the ball.",
    "hint3": "",
    "discussion_id": "149",
    "discussion_slug": "149-clock-shot",
    "highlight_notes": false,
    "effects": {},
    "zoom": {
        "x": 5,
        "y": 0,
        "w": 26
    },
    "shapes": [
        {
            "id": 0,
            "number": -1
        },
        {
            "id": 1,
            "number": -1
        },
        {
            "id": 2,
            "number": -1
        },
        {
            "id": 3,
            "number": -1
        },
        {
            "id": 4,
            "number": -1
        }
    ],
    "win_conditions": [
        {
            "bodyEnteredArea": [
                {
                    "RECT": [
                        {
                            "x": 20,
                            "y": 13
                        },
                        {
                            "x": 24,
                            "y": 17
                        }
                    ]
                },
                "main_car"
            ]
        }
    ],
    "lose_conditions": [
        {
            "greaterThan": [
                "time",
                10000
            ]
        }
    ],
    "blocks": [
        {
            "static_block": {
                "x": 9,
                "y": 9,
                "w": 2,
                "h": 2
            }
        },
        {
            "shape_block": {
                "x": 10,
                "y": 8,
                "id": 4,
                "rotation": 0,
                "reflected": false
            }
        },
        {
            "shape_block": {
                "x": 9,
                "y": 8,
                "id": 4,
                "rotation": 0,
                "reflected": true
            }
        },
        {
            "shape_block": {
                "x": 11,
                "y": 7,
                "id": 0,
                "rotation": 0,
                "reflected": false
            }
        },
        {
            "shape_block": {
                "x": 12,
                "y": 10,
                "id": 0,
                "rotation": 270,
                "reflected": false
            }
        },
        {
            "shape_block": {
                "x": 8,
                "y": 13,
                "id": 0,
                "rotation": 180,
                "reflected": false
            }
        },
        {
            "shape_block": {
                "x": 11,
                "y": 13,
                "id": 0,
                "rotation": 180,
                "reflected": true
            }
        },
        {
            "shape_block": {
                "x": 9,
                "y": 14,
                "id": 2,
                "rotation": 270,
                "reflected": true
            }
        },
        {
            "shape_block": {
                "x": 9,
                "y": 16,
                "id": 2,
                "rotation": 270,
                "reflected": true
            }
        },
        {
            "shape_block": {
                "x": 9,
                "y": 18,
                "id": 2,
                "rotation": 270,
                "reflected": true
            }
        },
        {
            "static_block": {
                "x": 3,
                "y": 21,
                "w": 14,
                "h": 1
            }
        },
        {
            "shape_block": {
                "x": 8,
                "y": 7,
                "id": 0,
                "rotation": 0,
                "reflected": true
            }
        },
        {
            "shape_block": {
                "x": 7,
                "y": 10,
                "id": 0,
                "rotation": 90,
                "reflected": true
            }
        },
        {
            "static_block": {
                "x": 20,
                "y": 17,
                "w": 4,
                "h": 1
            }
        },
        {
            "static_block": {
                "x": 20,
                "y": 12,
                "w": 4,
                "h": 1
            }
        },
        {
            "static_block": {
                "x": 24,
                "y": 12,
                "w": 1,
                "h": 6
            }
        }
    ],
    "dynamic_objects": [
        {
            "ball": {
                "x": 12,
                "y": 20,
                "id": "main_car"
            }
        }
    ]
}