{
    "name": "Roof Rack",
    "author_nickname": "Tom",
    "notes": "Get the parcel to the green square.",
    "hint1": "Build something to keep the box on top of the car.",
    "hint2": "Just slowing the car a bit may be enough.",
    "hint3": "Place a blue block directly in front of the car.",
    "discussion_id": "151",
    "discussion_slug": "151-roof-rack",
    "highlight_notes": false,
    "effects": {},
    "zoom": {
        "x": 0,
        "y": 0,
        "w": 20
    },
    "shapes": [
        {
            "id": 0,
            "number": -1
        },
        {
            "id": 1,
            "number": -1
        },
        {
            "id": 2,
            "number": -1
        },
        {
            "id": 3,
            "number": -1
        },
        {
            "id": 4,
            "number": -1
        }
    ],
    "win_conditions": [
        {
            "bodyEnteredArea": [
                {
                    "RECT": [
                        {
                            "x": 15,
                            "y": 15
                        },
                        {
                            "x": 17,
                            "y": 17
                        }
                    ]
                },
                "1"
            ]
        }
    ],
    "lose_conditions": [
        {
            "greaterThan": [
                "time",
                20000
            ]
        }
    ],
    "blocks": [
        {
            "static_block": {
                "x": 2,
                "y": 18,
                "w": 16,
                "h": 2
            }
        }
    ],
    "dynamic_objects": [
        {
            "simple_car": {
                "x": 4,
                "y": 17,
                "id": "main_car"
            }
        },
        {
            "box": {
                "x": 4,
                "y": 14,
                "id": "1"
            }
        }
    ]
}
