{
    "name": "Trucking",
    "author_nickname": "AndyB",
    "notes": "Get all the crates into the green at the same time.",
    "hint1": "Try to use the cars to transport the blocks.",
    "hint2": "Build a truck using the cars as wheels.",
    "hint3": "",
    "discussion_id": "214",
    "discussion_slug": "214-trucking",
    "highlight_notes": false,
    "effects": {},
    "zoom": {
        "x": 4,
        "y": -4,
        "w": 34
    },
    "shapes": [
        {
            "id": 0,
            "number": -1
        },
        {
            "id": 1,
            "number": -1
        },
        {
            "id": 2,
            "number": -1
        },
        {
            "id": 3,
            "number": -1
        },
        {
            "id": 4,
            "number": -1
        }
    ],
    "win_conditions": [
        {
            "and": [
                {
                    "bodyEnteredArea": [
                        {
                            "RECT": [
                                {
                                    "x": 16,
                                    "y": 7
                                },
                                {
                                    "x": 25,
                                    "y": 16
                                }
                            ]
                        },
                        "1"
                    ]
                },
                {
                    "bodyEnteredArea": [
                        {
                            "RECT": [
                                {
                                    "x": 16,
                                    "y": 7
                                },
                                {
                                    "x": 25,
                                    "y": 16
                                }
                            ]
                        },
                        "2"
                    ]
                },
                {
                    "bodyEnteredArea": [
                        {
                            "RECT": [
                                {
                                    "x": 16,
                                    "y": 7
                                },
                                {
                                    "x": 25,
                                    "y": 16
                                }
                            ]
                        },
                        "3"
                    ]
                },
                {
                    "bodyEnteredArea": [
                        {
                            "RECT": [
                                {
                                    "x": 16,
                                    "y": 7
                                },
                                {
                                    "x": 25,
                                    "y": 16
                                }
                            ]
                        },
                        "4"
                    ]
                },
                {
                    "bodyEnteredArea": [
                        {
                            "RECT": [
                                {
                                    "x": 16,
                                    "y": 7
                                },
                                {
                                    "x": 25,
                                    "y": 16
                                }
                            ]
                        },
                        "5"
                    ]
                },
                {
                    "bodyEnteredArea": [
                        {
                            "RECT": [
                                {
                                    "x": 16,
                                    "y": 7
                                },
                                {
                                    "x": 25,
                                    "y": 16
                                }
                            ]
                        },
                        "6"
                    ]
                },
                {
                    "bodyEnteredArea": [
                        {
                            "RECT": [
                                {
                                    "x": 16,
                                    "y": 7
                                },
                                {
                                    "x": 25,
                                    "y": 16
                                }
                            ]
                        },
                        "7"
                    ]
                },
                {
                    "bodyEnteredArea": [
                        {
                            "RECT": [
                                {
                                    "x": 16,
                                    "y": 7
                                },
                                {
                                    "x": 25,
                                    "y": 16
                                }
                            ]
                        },
                        "8"
                    ]
                },
                {
                    "bodyEnteredArea": [
                        {
                            "RECT": [
                                {
                                    "x": 16,
                                    "y": 7
                                },
                                {
                                    "x": 25,
                                    "y": 16
                                }
                            ]
                        },
                        "9"
                    ]
                }
            ]
        }
    ],
    "lose_conditions": [
        {
            "greaterThan": [
                "time",
                10000
            ]
        }
    ],
    "blocks": [
        {
            "static_block": {
                "x": 3,
                "y": 16,
                "w": 22,
                "h": 1
            }
        },
        {
            "shape_block": {
                "x": 5,
                "y": 13,
                "id": 0,
                "rotation": 0,
                "reflected": false
            }
        },
        {
            "shape_block": {
                "x": 2,
                "y": 13,
                "id": 0,
                "rotation": 0,
                "reflected": true
            }
        },
        {
            "shape_block": {
                "x": 8,
                "y": 13,
                "id": 0,
                "rotation": 0,
                "reflected": true
            }
        },
        {
            "shape_block": {
                "x": 11,
                "y": 13,
                "id": 0,
                "rotation": 0,
                "reflected": false
            }
        },
        {
            "shape_block": {
                "x": 12,
                "y": 12,
                "id": 0,
                "rotation": 0,
                "reflected": false
            }
        },
        {
            "shape_block": {
                "x": 12,
                "y": 10,
                "id": 0,
                "rotation": 90,
                "reflected": false
            }
        },
        {
            "shape_block": {
                "x": 1,
                "y": 12,
                "id": 0,
                "rotation": 0,
                "reflected": true
            }
        },
        {
            "shape_block": {
                "x": 0,
                "y": 10,
                "id": 0,
                "rotation": 270,
                "reflected": true
            }
        },
        {
            "shape_block": {
                "x": 0,
                "y": 7,
                "id": 0,
                "rotation": 90,
                "reflected": false
            }
        }
    ],
    "dynamic_objects": [
        {
            "simple_car": {
                "x": 5,
                "y": 15,
                "id": "car1"
            }
        },
        {
            "simple_car": {
                "x": 10,
                "y": 15,
                "id": "car2"
            }
        },
        {
            "box": {
                "x": 4,
                "y": 10,
                "id": "1"
            }
        },
        {
            "box": {
                "x": 8,
                "y": 10,
                "id": "2"
            }
        },
        {
            "box": {
                "x": 5,
                "y": 5,
                "id": "4"
            }
        },
        {
            "box": {
                "x": 10,
                "y": 7,
                "id": "3"
            }
        },
        {
            "box": {
                "x": 3,
                "y": 1,
                "id": "5"
            }
        },
        {
            "box": {
                "x": 7,
                "y": 0,
                "id": "6"
            }
        },
        {
            "box": {
                "x": 10,
                "y": -3,
                "id": "8"
            }
        },
        {
            "box": {
                "x": 4,
                "y": -4,
                "id": "7"
            }
        },
        {
            "box": {
                "x": 7,
                "y": -5,
                "id": "9"
            }
        }
    ]
}
