{
    "name": "Headwind",
    "author_nickname": "cf",
    "notes": "The wind is blowing you towards the green!",
    "hint1": "Flip the car and it will blow to the exit.",
    "hint2": "Place a slope and tall wall in front of the car to flip it.",
    "hint3": "",
    "discussion_id": "261",
    "discussion_slug": "261-headwind",
    "highlight_notes": false,
    "effects": {
        "wind": -10
    },
    "zoom": {
        "w": 34.559999999999995,
        "x": -2.748464088397793,
        "y": -1.9756906077348058
    },
    "shapes": [
        {
            "id": 0,
            "number": -1
        },
        {
            "id": 1,
            "number": -1
        },
        {
            "id": 2,
            "number": -1
        },
        {
            "id": 3,
            "number": -1
        },
        {
            "id": 4,
            "number": -1
        }
    ],
    "win_conditions": [
        {
            "bodyEnteredArea": [
                {
                    "RECT": [
                        {
                            "x": -3,
                            "y": 7
                        },
                        {
                            "x": -1,
                            "y": 13
                        }
                    ]
                },
                "main_car"
            ]
        }
    ],
    "lose_conditions": [
        {
            "bodyEnteredArea": [
                {
                    "RECT": [
                        {
                            "x": 12,
                            "y": 7
                        },
                        {
                            "x": 14,
                            "y": 12
                        }
                    ]
                },
                "main_car"
            ]
        }
    ],
    "blocks": [
        {
            "static_block": {
                "x": -1,
                "y": 12,
                "w": 15,
                "h": 1
            }
        },
        {
            "shape_block": {
                "x": 1,
                "y": 10,
                "id": 2,
                "rotation": 270,
                "reflected": false
            }
        },
        {
            "shape_block": {
                "x": -1,
                "y": 10,
                "id": 2,
                "rotation": 270,
                "reflected": false
            }
        },
        {
            "shape_block": {
                "x": -1,
                "y": 8,
                "id": 2,
                "rotation": 270,
                "reflected": false
            }
        },
        {
            "shape_block": {
                "x": 1,
                "y": 8,
                "id": 2,
                "rotation": 270,
                "reflected": false
            }
        }
    ],
    "dynamic_objects": [
        {
            "simple_car": {
                "x": 5,
                "y": 11,
                "id": "main_car"
            }
        }
    ]
}
