{
    "name": "Big and Small",
    "author_nickname": "AndyB",
    "notes": "Get the big ball into the big green, and the small ball into the small green.",
    "hint1": "Build a tower under the balls.",
    "hint2": "Place at the top that nudges the big ball left.",
    "hint3": "Time it right, and the small ball will bounce right off the big one.",
    "discussion_id": "140",
    "discussion_slug": "140-big-and-small",
    "highlight_notes": false,
    "effects": {},
    "zoom": {
        "x": 0,
        "y": -9,
        "w": 32
    },
    "shapes": [
        {
            "id": 0,
            "number": -1
        },
        {
            "id": 1,
            "number": -1
        },
        {
            "id": 2,
            "number": -1
        },
        {
            "id": 3,
            "number": -1
        },
        {
            "id": 4,
            "number": -1
        }
    ],
    "win_conditions": [
        {
            "and": [
                {
                    "bodyEnteredArea": [
                        {
                            "RECT": [
                                {
                                    "x": 3,
                                    "y": 6
                                },
                                {
                                    "x": 7,
                                    "y": 10
                                }
                            ]
                        },
                        "big"
                    ]
                },
                {
                    "bodyEnteredArea": [
                        {
                            "RECT": [
                                {
                                    "x": 15,
                                    "y": 12
                                },
                                {
                                    "x": 17,
                                    "y": 14
                                }
                            ]
                        },
                        "small"
                    ]
                }
            ]
        }
    ],
    "lose_conditions": [
        {
            "greaterThan": [
                "time",
                20000
            ]
        }
    ],
    "blocks": [
        {
            "static_block": {
                "x": 11,
                "y": 15,
                "w": 2,
                "h": 2
            }
        },
        {
            "static_block": {
                "x": 3,
                "y": 10,
                "w": 4,
                "h": 1
            }
        },
        {
            "static_block": {
                "x": 15,
                "y": 14,
                "w": 2,
                "h": 1
            }
        },
        {
            "shape_block": {
                "x": 2,
                "y": 10,
                "id": 0,
                "rotation": 270,
                "reflected": false
            }
        },
        {
            "shape_block": {
                "x": 4,
                "y": 12,
                "id": 0,
                "rotation": 180,
                "reflected": false
            }
        },
        {
            "shape_block": {
                "x": 7,
                "y": 12,
                "id": 0,
                "rotation": 180,
                "reflected": false
            }
        },
        {
            "shape_block": {
                "x": 10,
                "y": 12,
                "id": 0,
                "rotation": 180,
                "reflected": false
            }
        },
        {
            "shape_block": {
                "x": 12,
                "y": 14,
                "id": 2,
                "rotation": 180,
                "reflected": false
            }
        },
        {
            "shape_block": {
                "x": 13,
                "y": 12,
                "id": 3,
                "rotation": 180,
                "reflected": false
            }
        },
        {
            "shape_block": {
                "x": 12,
                "y": 11,
                "id": 2,
                "rotation": 180,
                "reflected": false
            }
        },
        {
            "shape_block": {
                "x": 12,
                "y": 9,
                "id": 2,
                "rotation": 180,
                "reflected": false
            }
        },
        {
            "shape_block": {
                "x": 12,
                "y": 7,
                "id": 2,
                "rotation": 180,
                "reflected": false
            }
        },
        {
            "shape_block": {
                "x": 12,
                "y": 5,
                "id": 2,
                "rotation": 180,
                "reflected": false
            }
        },
        {
            "shape_block": {
                "x": 12,
                "y": 3,
                "id": 2,
                "rotation": 180,
                "reflected": false
            }
        },
        {
            "shape_block": {
                "x": 12,
                "y": 1,
                "id": 2,
                "rotation": 180,
                "reflected": false
            }
        },
        {
            "shape_block": {
                "x": 12,
                "y": -1,
                "id": 2,
                "rotation": 180,
                "reflected": false
            }
        },
        {
            "shape_block": {
                "x": 12,
                "y": -3,
                "id": 2,
                "rotation": 180,
                "reflected": false
            }
        },
        {
            "shape_block": {
                "x": 12,
                "y": -5,
                "id": 4,
                "rotation": 270,
                "reflected": false
            }
        },
        {
            "shape_block": {
                "x": 8,
                "y": 10,
                "id": 1,
                "rotation": 270,
                "reflected": false
            }
        },
        {
            "shape_block": {
                "x": 1,
                "y": 11,
                "id": 0,
                "rotation": 270,
                "reflected": true
            }
        },
        {
            "shape_block": {
                "x": 13,
                "y": 14,
                "id": 0,
                "rotation": 270,
                "reflected": false
            }
        },
        {
            "shape_block": {
                "x": 15,
                "y": 15,
                "id": 0,
                "rotation": 180,
                "reflected": false
            }
        },
        {
            "shape_block": {
                "x": 17,
                "y": 14,
                "id": 0,
                "rotation": 270,
                "reflected": false
            }
        },
        {
            "shape_block": {
                "x": 17,
                "y": 11,
                "id": 0,
                "rotation": 270,
                "reflected": false
            }
        },
        {
            "shape_block": {
                "x": 9,
                "y": 9,
                "id": 3,
                "rotation": 270,
                "reflected": false
            }
        }
    ],
    "dynamic_objects": [
        {
            "bouncy": {
                "x": 12,
                "y": -7,
                "id": "big"
            }
        },
        {
            "ball": {
                "x": 12,
                "y": -13,
                "id": "small"
            }
        }
    ]
}
