{
    "name": "bouce",
    "author_nickname": "JEP",
    "notes": "Get the ball up to the green.",
    "hint1": "Turn the diving board into a trampoline.",
    "hint2": "Build a tower supporting the right-hand side, and use the springyness to get up.",
    "hint3": "Drop the right weight of block onto the trampoline on the left, so it flexes and launches the ball up.",
    "discussion_id": "187",
    "discussion_slug": "187-bouce",
    "highlight_notes": false,
    "effects": {},
    "zoom": {
        "w": 34.559999999999995,
        "x": -0.5759999999999926,
        "y": -3.8045825242718396
    },
    "shapes": [
        {
            "id": 0,
            "number": -1
        },
        {
            "id": 1,
            "number": -1
        },
        {
            "id": 2,
            "number": -1
        },
        {
            "id": 3,
            "number": -1
        },
        {
            "id": 4,
            "number": -1
        }
    ],
    "win_conditions": [
        {
            "bodyEnteredArea": [
                {
                    "RECT": [
                        {
                            "x": 9,
                            "y": 0
                        },
                        {
                            "x": 11,
                            "y": 2
                        }
                    ]
                },
                "main_car"
            ]
        },
        {
            "bodyEnteredArea": [
                {
                    "RECT": [
                        {
                            "x": 15,
                            "y": -2
                        },
                        {
                            "x": 17,
                            "y": 2
                        }
                    ]
                },
                "main_car"
            ]
        },
        {
            "bodyEnteredArea": [
                {
                    "RECT": [
                        {
                            "x": 17,
                            "y": -2
                        },
                        {
                            "x": 19,
                            "y": 0
                        }
                    ]
                },
                "main_car"
            ]
        },
        {
            "bodyEnteredArea": [
                {
                    "RECT": [
                        {
                            "x": 9,
                            "y": -2
                        },
                        {
                            "x": 11,
                            "y": 0
                        }
                    ]
                },
                "main_car"
            ]
        },
        {
            "bodyEnteredArea": [
                {
                    "RECT": [
                        {
                            "x": 13,
                            "y": -2
                        },
                        {
                            "x": 15,
                            "y": 2
                        }
                    ]
                },
                "main_car"
            ]
        },
        {
            "bodyEnteredArea": [
                {
                    "RECT": [
                        {
                            "x": 11,
                            "y": -2
                        },
                        {
                            "x": 13,
                            "y": 2
                        }
                    ]
                },
                "main_car"
            ]
        },
        {
            "bodyEnteredArea": [
                {
                    "RECT": [
                        {
                            "x": 9,
                            "y": 2
                        },
                        {
                            "x": 11,
                            "y": 4
                        }
                    ]
                },
                "main_car"
            ]
        },
        {
            "bodyEnteredArea": [
                {
                    "RECT": [
                        {
                            "x": 11,
                            "y": 2
                        },
                        {
                            "x": 15,
                            "y": 4
                        }
                    ]
                },
                "main_car"
            ]
        },
        {
            "bodyEnteredArea": [
                {
                    "RECT": [
                        {
                            "x": 15,
                            "y": 2
                        },
                        {
                            "x": 17,
                            "y": 4
                        }
                    ]
                },
                "main_car"
            ]
        },
        {
            "bodyEnteredArea": [
                {
                    "RECT": [
                        {
                            "x": 17,
                            "y": 2
                        },
                        {
                            "x": 19,
                            "y": 4
                        }
                    ]
                },
                "main_car"
            ]
        },
        {
            "bodyEnteredArea": [
                {
                    "RECT": [
                        {
                            "x": 17,
                            "y": 0
                        },
                        {
                            "x": 19,
                            "y": 2
                        }
                    ]
                },
                "main_car"
            ]
        }
    ],
    "lose_conditions": [],
    "blocks": [
        {
            "static_block": {
                "x": 2,
                "y": 15,
                "w": 2,
                "h": 2
            }
        },
        {
            "static_block": {
                "x": 4,
                "y": 15,
                "w": 2,
                "h": 2
            }
        },
        {
            "static_block": {
                "x": 6,
                "y": 15,
                "w": 2,
                "h": 2
            }
        },
        {
            "static_block": {
                "x": 8,
                "y": 15,
                "w": 2,
                "h": 2
            }
        },
        {
            "static_block": {
                "x": 10,
                "y": 15,
                "w": 2,
                "h": 2
            }
        },
        {
            "static_block": {
                "x": 12,
                "y": 15,
                "w": 2,
                "h": 2
            }
        },
        {
            "static_block": {
                "x": 14,
                "y": 15,
                "w": 2,
                "h": 2
            }
        },
        {
            "static_block": {
                "x": 16,
                "y": 15,
                "w": 2,
                "h": 2
            }
        },
        {
            "static_block": {
                "x": 0,
                "y": 15,
                "w": 2,
                "h": 2
            }
        },
        {
            "static_block": {
                "x": -2,
                "y": 15,
                "w": 2,
                "h": 2
            }
        },
        {
            "static_block": {
                "x": -4,
                "y": 15,
                "w": 2,
                "h": 2
            }
        },
        {
            "static_block": {
                "x": 18,
                "y": 15,
                "w": 2,
                "h": 2
            }
        },
        {
            "static_block": {
                "x": 20,
                "y": 15,
                "w": 2,
                "h": 2
            }
        },
        {
            "shape_block": {
                "x": 12,
                "y": 7,
                "id": 2,
                "rotation": 0,
                "reflected": false
            }
        },
        {
            "shape_block": {
                "x": 10,
                "y": 7,
                "id": 3,
                "rotation": 0,
                "reflected": false
            }
        },
        {
            "shape_block": {
                "x": 8,
                "y": 7,
                "id": 3,
                "rotation": 0,
                "reflected": false
            }
        },
        {
            "shape_block": {
                "x": 6,
                "y": 7,
                "id": 3,
                "rotation": 0,
                "reflected": false
            }
        },
        {
            "shape_block": {
                "x": 4,
                "y": 7,
                "id": 3,
                "rotation": 0,
                "reflected": false
            }
        },
        {
            "shape_block": {
                "x": 14,
                "y": 7,
                "id": 3,
                "rotation": 0,
                "reflected": false
            }
        },
        {
            "shape_block": {
                "x": 16,
                "y": 7,
                "id": 3,
                "rotation": 0,
                "reflected": false
            }
        },
        {
            "shape_block": {
                "x": 18,
                "y": 7,
                "id": 3,
                "rotation": 0,
                "reflected": false
            }
        },
        {
            "shape_block": {
                "x": 20,
                "y": 7,
                "id": 3,
                "rotation": 0,
                "reflected": false
            }
        },
        {
            "shape_block": {
                "x": 4,
                "y": 13,
                "id": 2,
                "rotation": 0,
                "reflected": false
            }
        },
        {
            "shape_block": {
                "x": 4,
                "y": 11,
                "id": 2,
                "rotation": 0,
                "reflected": false
            }
        },
        {
            "shape_block": {
                "x": 4,
                "y": 9,
                "id": 2,
                "rotation": 0,
                "reflected": false
            }
        },
        {
            "shape_block": {
                "x": 4,
                "y": 8,
                "id": 3,
                "rotation": 0,
                "reflected": false
            }
        },
        {
            "shape_block": {
                "x": 20,
                "y": 13,
                "id": 2,
                "rotation": 0,
                "reflected": false
            }
        },
        {
            "shape_block": {
                "x": 20,
                "y": 11,
                "id": 2,
                "rotation": 0,
                "reflected": false
            }
        },
        {
            "shape_block": {
                "x": 20,
                "y": 9,
                "id": 2,
                "rotation": 0,
                "reflected": false
            }
        },
        {
            "shape_block": {
                "x": 18,
                "y": 8,
                "id": 2,
                "rotation": 0,
                "reflected": false
            }
        },
        {
            "shape_block": {
                "x": 18,
                "y": 10,
                "id": 2,
                "rotation": 0,
                "reflected": false
            }
        },
        {
            "shape_block": {
                "x": 18,
                "y": 12,
                "id": 2,
                "rotation": 0,
                "reflected": false
            }
        },
        {
            "shape_block": {
                "x": 18,
                "y": 14,
                "id": 3,
                "rotation": 0,
                "reflected": false
            }
        },
        {
            "shape_block": {
                "x": 20,
                "y": 8,
                "id": 3,
                "rotation": 0,
                "reflected": false
            }
        },
        {
            "shape_block": {
                "x": 7,
                "y": -2,
                "id": 2,
                "rotation": 0,
                "reflected": false
            }
        },
        {
            "shape_block": {
                "x": 7,
                "y": -4,
                "id": 2,
                "rotation": 0,
                "reflected": false
            }
        },
        {
            "shape_block": {
                "x": 7,
                "y": -6,
                "id": 2,
                "rotation": 0,
                "reflected": false
            }
        },
        {
            "shape_block": {
                "x": 7,
                "y": -8,
                "id": 2,
                "rotation": 0,
                "reflected": false
            }
        },
        {
            "shape_block": {
                "x": 7,
                "y": -10,
                "id": 2,
                "rotation": 0,
                "reflected": false
            }
        },
        {
            "shape_block": {
                "x": 7,
                "y": -12,
                "id": 2,
                "rotation": 0,
                "reflected": false
            }
        }
    ],
    "dynamic_objects": [
        {
            "ball": {
                "x": 13,
                "y": 6,
                "id": "main_car"
            }
        }
    ]
}
