{
    "name": "Backstairs",
    "author_nickname": "AndyB",
    "notes": "Go the other way!",
    "hint1": "Balance the red block on a slope just in front of the ball to knock it backwards.",
    "hint2": "",
    "hint3": "",
    "discussion_id": "163",
    "discussion_slug": "163-backstairs",
    "highlight_notes": false,
    "effects": {},
    "zoom": {
        "x": 0,
        "y": 0,
        "w": 20
    },
    "shapes": [
        {
            "id": 0,
            "number": 1
        },
        {
            "id": 4,
            "number": 4
        }
    ],
    "win_conditions": [
        {
            "bodyEnteredArea": [
                {
                    "RECT": [
                        {
                            "x": 3,
                            "y": 11
                        },
                        {
                            "x": 5,
                            "y": 13
                        }
                    ]
                },
                "main_car"
            ]
        }
    ],
    "lose_conditions": [
        {
            "greaterThan": [
                "time",
                10000
            ]
        }
    ],
    "blocks": [
        {
            "static_block": {
                "x": 5,
                "y": 11,
                "w": 2,
                "h": 2
            }
        },
        {
            "static_block": {
                "x": 11,
                "y": 17,
                "w": 2,
                "h": 2
            }
        },
        {
            "static_block": {
                "x": 13,
                "y": 19,
                "w": 4,
                "h": 1
            }
        },
        {
            "static_block": {
                "x": 9,
                "y": 15,
                "w": 2,
                "h": 2
            }
        },
        {
            "static_block": {
                "x": 7,
                "y": 13,
                "w": 2,
                "h": 2
            }
        },
        {
            "static_block": {
                "x": 3,
                "y": 7,
                "w": 14,
                "h": 1
            }
        },
        {
            "shape_block": {
                "x": 8,
                "y": 12,
                "id": 4,
                "rotation": 270,
                "reflected": false
            }
        },
        {
            "shape_block": {
                "x": 8,
                "y": 10,
                "id": 0,
                "rotation": 90,
                "reflected": false
            }
        }
    ],
    "dynamic_objects": [
        {
            "ball": {
                "x": 7,
                "y": 10,
                "id": "main_car"
            }
        }
    ]
}
