{
    "name": "dump right but harder",
    "author_nickname": "TBE",
    "notes": "Roll that ball rightwards!",
    "hint1": "Hang some blocks off the platform.",
    "hint2": "Get the platform to tilt slowly, rolling the ball to the right.",
    "hint3": "Hang blocks from below, but consider making them reach out to the right a bit.",
    "discussion_id": "185",
    "discussion_slug": "185-dump-right-but-harder",
    "highlight_notes": false,
    "effects": {},
    "zoom": {
        "x": 0,
        "y": 0,
        "w": 60
    },
    "shapes": [
        {
            "id": 0,
            "number": -1
        },
        {
            "id": 1,
            "number": -1
        },
        {
            "id": 2,
            "number": -1
        },
        {
            "id": 3,
            "number": -1
        },
        {
            "id": 4,
            "number": -1
        }
    ],
    "win_conditions": [
        {
            "bodyEnteredArea": [
                {
                    "RECT": [
                        {
                            "x": 15,
                            "y": 13
                        },
                        {
                            "x": 20,
                            "y": 17
                        }
                    ]
                },
                "1"
            ]
        },
        {
            "bodyEnteredArea": [
                {
                    "RECT": [
                        {
                            "x": 15,
                            "y": 12
                        },
                        {
                            "x": 20,
                            "y": 17
                        }
                    ]
                },
                "1"
            ]
        }
    ],
    "lose_conditions": [],
    "blocks": [
        {
            "shape_block": {
                "x": 10,
                "y": 8,
                "id": 2,
                "rotation": 0,
                "reflected": false
            }
        },
        {
            "shape_block": {
                "x": 10,
                "y": 10,
                "id": 2,
                "rotation": 0,
                "reflected": false
            }
        },
        {
            "shape_block": {
                "x": 10,
                "y": 12,
                "id": 2,
                "rotation": 0,
                "reflected": false
            }
        },
        {
            "shape_block": {
                "x": 12,
                "y": 12,
                "id": 2,
                "rotation": 0,
                "reflected": false
            }
        },
        {
            "shape_block": {
                "x": 12,
                "y": 14,
                "id": 2,
                "rotation": 0,
                "reflected": false
            }
        },
        {
            "shape_block": {
                "x": 12,
                "y": 16,
                "id": 2,
                "rotation": 0,
                "reflected": false
            }
        },
        {
            "shape_block": {
                "x": 12,
                "y": 18,
                "id": 2,
                "rotation": 0,
                "reflected": false
            }
        },
        {
            "shape_block": {
                "x": 14,
                "y": 18,
                "id": 2,
                "rotation": 0,
                "reflected": false
            }
        },
        {
            "shape_block": {
                "x": 14,
                "y": 20,
                "id": 2,
                "rotation": 0,
                "reflected": false
            }
        },
        {
            "shape_block": {
                "x": 14,
                "y": 22,
                "id": 2,
                "rotation": 0,
                "reflected": false
            }
        }
    ],
    "dynamic_objects": [
        {
            "floating": {
                "x": 9,
                "y": 7,
                "id": "main_car"
            }
        },
        {
            "bouncy": {
                "x": 9,
                "y": 4,
                "id": "1"
            }
        }
    ]
}
