{
    "name": "Fruit drop",
    "author_nickname": "AndyB",
    "notes": "It's falling from above!",
    "hint1": "Try to bounce the ball to the side and gather it back in.",
    "hint2": "Clamp on to the ground to allow you to bridge out sideways and catch the ball.",
    "hint3": "You may find a \"rope\" of diagonally-connected slope blocks helpful.",
    "discussion_id": "232",
    "discussion_slug": "232-fruit-drop",
    "highlight_notes": false,
    "effects": {},
    "zoom": {
        "w": 34.72222222222223,
        "x": 0.561465721040185,
        "y": -9.086879432624114
    },
    "shapes": [
        {
            "id": 0,
            "number": -1
        },
        {
            "id": 1,
            "number": -1
        },
        {
            "id": 2,
            "number": -1
        },
        {
            "id": 3,
            "number": -1
        },
        {
            "id": 4,
            "number": -1
        }
    ],
    "win_conditions": [
        {
            "bodyEnteredArea": [
                {
                    "RECT": [
                        {
                            "x": 7,
                            "y": 14
                        },
                        {
                            "x": 9,
                            "y": 16
                        }
                    ]
                },
                "main_car"
            ]
        }
    ],
    "lose_conditions": [
        {
            "greaterThan": [
                "time",
                10000
            ]
        }
    ],
    "blocks": [
        {
            "static_block": {
                "x": 3,
                "y": 16,
                "w": 14,
                "h": 1
            }
        },
        {
            "static_block": {
                "x": 9,
                "y": 11,
                "w": 1,
                "h": 5
            }
        },
        {
            "static_block": {
                "x": 7,
                "y": 11,
                "w": 2,
                "h": 1
            }
        },
        {
            "static_block": {
                "x": 9,
                "y": 10,
                "w": 4,
                "h": 1
            }
        },
        {
            "static_block": {
                "x": 9,
                "y": 8,
                "w": 1,
                "h": 2
            }
        },
        {
            "static_block": {
                "x": 10,
                "y": 8,
                "w": 4,
                "h": 1
            }
        },
        {
            "static_block": {
                "x": 6,
                "y": 8,
                "w": 3,
                "h": 1
            }
        },
        {
            "static_block": {
                "x": 5,
                "y": 9,
                "w": 1,
                "h": 1
            }
        },
        {
            "static_block": {
                "x": 14,
                "y": 9,
                "w": 2,
                "h": 1
            }
        },
        {
            "shape_block": {
                "x": 5,
                "y": 7,
                "id": 3,
                "rotation": 90,
                "reflected": false
            }
        },
        {
            "shape_block": {
                "x": 7,
                "y": 9,
                "id": 3,
                "rotation": 90,
                "reflected": false
            }
        },
        {
            "shape_block": {
                "x": 12,
                "y": 9,
                "id": 3,
                "rotation": 180,
                "reflected": false
            }
        },
        {
            "shape_block": {
                "x": 15,
                "y": 8,
                "id": 3,
                "rotation": 270,
                "reflected": false
            }
        },
        {
            "shape_block": {
                "x": 12,
                "y": 7,
                "id": 3,
                "rotation": 270,
                "reflected": false
            }
        },
        {
            "shape_block": {
                "x": 8,
                "y": 7,
                "id": 3,
                "rotation": 270,
                "reflected": false
            }
        },
        {
            "shape_block": {
                "x": 9,
                "y": 6,
                "id": 0,
                "rotation": 270,
                "reflected": false
            }
        },
        {
            "shape_block": {
                "x": 10,
                "y": 4,
                "id": 4,
                "rotation": 270,
                "reflected": false
            }
        },
        {
            "shape_block": {
                "x": 3,
                "y": 15,
                "id": 0,
                "rotation": 0,
                "reflected": true
            }
        },
        {
            "shape_block": {
                "x": 3,
                "y": 17,
                "id": 0,
                "rotation": 0,
                "reflected": false
            }
        },
        {
            "shape_block": {
                "x": 2,
                "y": 14,
                "id": 4,
                "rotation": 0,
                "reflected": false
            }
        },
        {
            "shape_block": {
                "x": 1,
                "y": 14,
                "id": 4,
                "rotation": 180,
                "reflected": false
            }
        },
        {
            "shape_block": {
                "x": 1,
                "y": 13,
                "id": 4,
                "rotation": 0,
                "reflected": false
            }
        },
        {
            "shape_block": {
                "x": 0,
                "y": 13,
                "id": 4,
                "rotation": 180,
                "reflected": false
            }
        },
        {
            "shape_block": {
                "x": 0,
                "y": 12,
                "id": 4,
                "rotation": 0,
                "reflected": false
            }
        },
        {
            "shape_block": {
                "x": -1,
                "y": 12,
                "id": 4,
                "rotation": 180,
                "reflected": false
            }
        },
        {
            "shape_block": {
                "x": -1,
                "y": 11,
                "id": 4,
                "rotation": 0,
                "reflected": false
            }
        },
        {
            "shape_block": {
                "x": -2,
                "y": 11,
                "id": 4,
                "rotation": 180,
                "reflected": false
            }
        },
        {
            "shape_block": {
                "x": -2,
                "y": 10,
                "id": 4,
                "rotation": 270,
                "reflected": false
            }
        }
    ],
    "dynamic_objects": [
        {
            "ball": {
                "x": 10,
                "y": -14,
                "id": "main_car"
            }
        }
    ]
}
