{
    "name": "Sky Tower",
    "author_nickname": "Ray 'BLJ' Duck",
    "notes": "Tap the top box into the green.",
    "hint1": "You need to give the box a little tap, and control its fall.",
    "hint2": "Drop a block with a slope block underneath to give the box a glancing blow. Place blocks to the side to stop it sliding too far sideways.",
    "discussion_id": "83",
    "discussion_slug": "83-sky-tower",
    "effects": {},
    "shapes": [
        {
            "id": 0,
            "number": -1
        },
        {
            "id": 1,
            "number": -1
        },
        {
            "id": 2,
            "number": -1
        },
        {
            "id": 3,
            "number": -1
        },
        {
            "id": 4,
            "number": -1
        }
    ],
    "win_conditions": [
        {
            "bodyEnteredArea": [
                {
                    "RECT": [
                        {
                            "x": 6,
                            "y": 14
                        },
                        {
                            "x": 14,
                            "y": 16
                        }
                    ]
                },
                "main_car"
            ]
        }
    ],
    "lose_conditions": [],
    "blocks": [
        {
            "static_block": {
                "x": 6,
                "y": 16,
                "w": 8,
                "h": 2
            }
        }
    ],
    "dynamic_objects": [
        {
            "box": {
                "x": 10,
                "y": 9,
                "id": "main_car"
            }
        },
        {
            "box": {
                "x": 10,
                "y": 15,
                "id": "3"
            }
        },
        {
            "box": {
                "x": 10,
                "y": 13,
                "id": "1"
            }
        },
        {
            "box": {
                "x": 10,
                "y": 11,
                "id": "2"
            }
        }
    ]
}
