{
    "name": "Basketball",
    "author_nickname": "AndyB",
    "notes": "Bounce the ball into the net!",
    "hint1": "Place blocks on the ground that deflect the ball as it bounces.",
    "hint2": "Drop one block onto another to fine-tune its position.",
    "hint3": "Basketball takes a lot of practice. Keep trying to find the right place to put the block, and how to adjust its position by dropping another.",
    "discussion_id": "86",
    "discussion_slug": "86-basketball",
    "effects": {},
    "shapes": [
        {
            "id": 0,
            "number": 2
        }
    ],
    "win_conditions": [
        {
            "bodyEnteredArea": [
                {
                    "RECT": [
                        {
                            "x": 1,
                            "y": 10
                        },
                        {
                            "x": 5,
                            "y": 13
                        }
                    ]
                },
                "main_car"
            ]
        }
    ],
    "lose_conditions": [],
    "blocks": [
        {
            "static_block": {
                "x": 0,
                "y": 18,
                "w": 20,
                "h": 2
            }
        },
        {
            "static_block": {
                "x": 5,
                "y": 10,
                "w": 3,
                "h": 1
            }
        },
        {
            "shape_block": {
                "x": 14,
                "y": 16,
                "id": 0,
                "rotation": 90,
                "reflected": false
            }
        },
        {
            "shape_block": {
                "x": 13,
                "y": 12,
                "id": 0,
                "rotation": 180,
                "reflected": false
            }
        },
        {
            "static_block": {
                "x": 1,
                "y": 13,
                "w": 5,
                "h": 1
            }
        },
        {
            "static_block": {
                "x": 0,
                "y": 10,
                "w": 1,
                "h": 4
            }
        },
        {
            "static_block": {
                "x": 5,
                "y": 11,
                "w": 1,
                "h": 2
            }
        }
    ],
    "dynamic_objects": [
        {
            "bouncy": {
                "x": 14,
                "y": 2,
                "id": "main_car"
            }
        }
    ]
}
