{
    "name": "Mountain Climber",
    "author_nickname": "AndyB",
    "notes": "Can you get back up at the end of the day?",
    "hint1": "Create a slope.",
    "hint2": "Find the right placement of yellow blocks to keep the integrity of your structure.",
    "hint3": "Miss out a slope from the very top.",
    "highlight_notes": false,
    "effects": {},
    "zoom": {
        "x": 0,
        "y": 0,
        "w": 20
    },
    "shapes": [
        {
            "id": 3,
            "number": 11
        },
        {
            "id": 4,
            "number": 15
        }
    ],
    "win_conditions": [
        {
            "bodyEnteredArea": [
                {
                    "RECT": [
                        {
                            "x": 0,
                            "y": 0
                        },
                        {
                            "x": 5,
                            "y": 4
                        }
                    ]
                },
                "main_car"
            ]
        }
    ],
    "lose_conditions": [
        {
            "greaterThan": [
                "time",
                7000
            ]
        }
    ],
    "blocks": [
        {
            "static_block": {
                "x": 0,
                "y": 19,
                "w": 20,
                "h": 1
            }
        },
        {
            "static_block": {
                "x": 0,
                "y": 4,
                "w": 1,
                "h": 16
            }
        },
        {
            "static_block": {
                "x": 14,
                "y": 13,
                "w": 6,
                "h": 1
            }
        },
        {
            "static_block": {
                "x": 13,
                "y": 12,
                "w": 2,
                "h": 1
            }
        },
        {
            "static_block": {
                "x": 12,
                "y": 9,
                "w": 2,
                "h": 3
            }
        },
        {
            "static_block": {
                "x": 11,
                "y": 0,
                "w": 3,
                "h": 9
            }
        },
        {
            "static_block": {
                "x": 14,
                "y": 0,
                "w": 2,
                "h": 13
            }
        },
        {
            "static_block": {
                "x": 16,
                "y": 0,
                "w": 4,
                "h": 14
            }
        },
        {
            "static_block": {
                "x": 1,
                "y": 7,
                "w": 2,
                "h": 12
            }
        },
        {
            "static_block": {
                "x": 3,
                "y": 8,
                "w": 2,
                "h": 11
            }
        },
        {
            "static_block": {
                "x": 5,
                "y": 13,
                "w": 2,
                "h": 6
            }
        },
        {
            "static_block": {
                "x": 5,
                "y": 11,
                "w": 1,
                "h": 2
            }
        },
        {
            "static_block": {
                "x": 7,
                "y": 15,
                "w": 1,
                "h": 4
            }
        },
        {
            "static_block": {
                "x": 8,
                "y": 18,
                "w": 4,
                "h": 1
            }
        },
        {
            "static_block": {
                "x": 8,
                "y": 17,
                "w": 2,
                "h": 1
            }
        },
        {
            "static_block": {
                "x": -4,
                "y": 4,
                "w": 4,
                "h": 2
            }
        },
        {
            "static_block": {
                "x": -2,
                "y": 6,
                "w": 2,
                "h": 2
            }
        },
        {
            "static_block": {
                "x": -1,
                "y": 8,
                "w": 1,
                "h": 4
            }
        },
        {
            "static_block": {
                "x": 1,
                "y": 5,
                "w": 1,
                "h": 1
            }
        },
        {
            "shape_block": {
                "x": 2,
                "y": 5,
                "id": 4,
                "rotation": 0,
                "reflected": false
            }
        },
        {
            "shape_block": {
                "x": 3,
                "y": 6,
                "id": 4,
                "rotation": 0,
                "reflected": false
            }
        },
        {
            "shape_block": {
                "x": 4,
                "y": 7,
                "id": 4,
                "rotation": 0,
                "reflected": false
            }
        },
        {
            "shape_block": {
                "x": 5,
                "y": 8,
                "id": 4,
                "rotation": 0,
                "reflected": false
            }
        },
        {
            "shape_block": {
                "x": 6,
                "y": 9,
                "id": 4,
                "rotation": 0,
                "reflected": false
            }
        },
        {
            "shape_block": {
                "x": 7,
                "y": 10,
                "id": 4,
                "rotation": 0,
                "reflected": false
            }
        },
        {
            "shape_block": {
                "x": 8,
                "y": 11,
                "id": 4,
                "rotation": 0,
                "reflected": false
            }
        },
        {
            "shape_block": {
                "x": 9,
                "y": 12,
                "id": 4,
                "rotation": 0,
                "reflected": false
            }
        },
        {
            "shape_block": {
                "x": 10,
                "y": 13,
                "id": 4,
                "rotation": 0,
                "reflected": false
            }
        },
        {
            "shape_block": {
                "x": 11,
                "y": 14,
                "id": 4,
                "rotation": 0,
                "reflected": false
            }
        },
        {
            "shape_block": {
                "x": 12,
                "y": 15,
                "id": 4,
                "rotation": 0,
                "reflected": false
            }
        },
        {
            "shape_block": {
                "x": 13,
                "y": 16,
                "id": 4,
                "rotation": 0,
                "reflected": false
            }
        },
        {
            "shape_block": {
                "x": 14,
                "y": 17,
                "id": 4,
                "rotation": 0,
                "reflected": false
            }
        },
        {
            "shape_block": {
                "x": 15,
                "y": 18,
                "id": 4,
                "rotation": 0,
                "reflected": false
            }
        },
        {
            "shape_block": {
                "x": 13,
                "y": 18,
                "id": 3,
                "rotation": 0,
                "reflected": false
            }
        },
        {
            "shape_block": {
                "x": 12,
                "y": 17,
                "id": 3,
                "rotation": 0,
                "reflected": false
            }
        },
        {
            "shape_block": {
                "x": 11,
                "y": 16,
                "id": 3,
                "rotation": 0,
                "reflected": false
            }
        },
        {
            "shape_block": {
                "x": 9,
                "y": 14,
                "id": 3,
                "rotation": 0,
                "reflected": false
            }
        },
        {
            "shape_block": {
                "x": 9,
                "y": 15,
                "id": 3,
                "rotation": 90,
                "reflected": false
            }
        },
        {
            "shape_block": {
                "x": 9,
                "y": 13,
                "id": 3,
                "rotation": 180,
                "reflected": false
            }
        },
        {
            "shape_block": {
                "x": 8,
                "y": 12,
                "id": 3,
                "rotation": 180,
                "reflected": false
            }
        },
        {
            "shape_block": {
                "x": 5,
                "y": 10,
                "id": 3,
                "rotation": 270,
                "reflected": false
            }
        },
        {
            "shape_block": {
                "x": 6,
                "y": 11,
                "id": 3,
                "rotation": 0,
                "reflected": false
            }
        },
        {
            "shape_block": {
                "x": 1,
                "y": 6,
                "id": 3,
                "rotation": 0,
                "reflected": false
            }
        },
        {
            "shape_block": {
                "x": 10,
                "y": 15,
                "id": 3,
                "rotation": 0,
                "reflected": false
            }
        }
    ],
    "dynamic_objects": [
        {
            "left_car": {
                "x": 18,
                "y": 18,
                "id": "main_car"
            }
        }
    ]
}
