{
    "name": "Block Around the Clock",
    "author_nickname": "AndyB",
    "notes": "Get the box into the green directly underneath the clock.",
    "hint1": "There's probably an easier way, but I like to solve this by rotating the clock all the way around.",
    "hint2": "Enclose the block in a cage.",
    "hint3": "Seriously unbalance the clock until it rotates all the way around. My solution is chaotic - double points if you can do it neatly.",
    "discussion_id": "146",
    "discussion_slug": "146-block-around-the-clock",
    "highlight_notes": false,
    "effects": {},
    "zoom": {
        "x": 0,
        "y": 0,
        "w": 26
    },
    "shapes": [
        {
            "id": 0,
            "number": -1
        },
        {
            "id": 1,
            "number": -1
        },
        {
            "id": 2,
            "number": -1
        },
        {
            "id": 3,
            "number": -1
        },
        {
            "id": 4,
            "number": -1
        }
    ],
    "win_conditions": [
        {
            "bodyEnteredArea": [
                {
                    "RECT": [
                        {
                            "x": 8,
                            "y": 15
                        },
                        {
                            "x": 12,
                            "y": 17
                        }
                    ]
                },
                "main_car"
            ]
        }
    ],
    "lose_conditions": [
        {
            "greaterThan": [
                "time",
                10000
            ]
        }
    ],
    "blocks": [
        {
            "static_block": {
                "x": 9,
                "y": 9,
                "w": 2,
                "h": 2
            }
        },
        {
            "shape_block": {
                "x": 10,
                "y": 8,
                "id": 4,
                "rotation": 0,
                "reflected": false
            }
        },
        {
            "shape_block": {
                "x": 9,
                "y": 8,
                "id": 4,
                "rotation": 0,
                "reflected": true
            }
        },
        {
            "shape_block": {
                "x": 11,
                "y": 7,
                "id": 0,
                "rotation": 0,
                "reflected": false
            }
        },
        {
            "shape_block": {
                "x": 12,
                "y": 10,
                "id": 0,
                "rotation": 270,
                "reflected": false
            }
        },
        {
            "shape_block": {
                "x": 8,
                "y": 13,
                "id": 0,
                "rotation": 180,
                "reflected": false
            }
        },
        {
            "shape_block": {
                "x": 11,
                "y": 13,
                "id": 0,
                "rotation": 180,
                "reflected": true
            }
        },
        {
            "shape_block": {
                "x": 9,
                "y": 14,
                "id": 2,
                "rotation": 270,
                "reflected": true
            }
        },
        {
            "shape_block": {
                "x": 9,
                "y": 16,
                "id": 2,
                "rotation": 270,
                "reflected": true
            }
        },
        {
            "shape_block": {
                "x": 9,
                "y": 18,
                "id": 2,
                "rotation": 270,
                "reflected": true
            }
        },
        {
            "static_block": {
                "x": 3,
                "y": 21,
                "w": 14,
                "h": 1
            }
        },
        {
            "shape_block": {
                "x": 2,
                "y": 3,
                "id": 2,
                "rotation": 0,
                "reflected": false
            }
        },
        {
            "shape_block": {
                "x": 5,
                "y": 1,
                "id": 2,
                "rotation": 0,
                "reflected": false
            }
        },
        {
            "shape_block": {
                "x": 7,
                "y": 1,
                "id": 2,
                "rotation": 0,
                "reflected": false
            }
        },
        {
            "shape_block": {
                "x": 9,
                "y": 1,
                "id": 2,
                "rotation": 0,
                "reflected": false
            }
        },
        {
            "shape_block": {
                "x": 11,
                "y": 1,
                "id": 2,
                "rotation": 0,
                "reflected": false
            }
        },
        {
            "shape_block": {
                "x": 13,
                "y": 1,
                "id": 2,
                "rotation": 0,
                "reflected": false
            }
        },
        {
            "shape_block": {
                "x": 15,
                "y": 1,
                "id": 2,
                "rotation": 0,
                "reflected": false
            }
        },
        {
            "shape_block": {
                "x": 17,
                "y": 1,
                "id": 2,
                "rotation": 0,
                "reflected": false
            }
        },
        {
            "shape_block": {
                "x": 19,
                "y": 1,
                "id": 2,
                "rotation": 0,
                "reflected": false
            }
        },
        {
            "shape_block": {
                "x": 19,
                "y": 5,
                "id": 2,
                "rotation": 0,
                "reflected": false
            }
        },
        {
            "shape_block": {
                "x": 19,
                "y": 7,
                "id": 2,
                "rotation": 0,
                "reflected": false
            }
        },
        {
            "shape_block": {
                "x": 19,
                "y": 9,
                "id": 2,
                "rotation": 0,
                "reflected": false
            }
        },
        {
            "shape_block": {
                "x": 21,
                "y": 7,
                "id": 2,
                "rotation": 0,
                "reflected": false
            }
        },
        {
            "shape_block": {
                "x": 22,
                "y": 9,
                "id": 2,
                "rotation": 0,
                "reflected": false
            }
        },
        {
            "shape_block": {
                "x": 11,
                "y": 5,
                "id": 0,
                "rotation": 90,
                "reflected": true
            }
        },
        {
            "shape_block": {
                "x": 8,
                "y": 5,
                "id": 0,
                "rotation": 270,
                "reflected": false
            }
        },
        {
            "shape_block": {
                "x": 19,
                "y": 4,
                "id": 3,
                "rotation": 270,
                "reflected": false
            }
        },
        {
            "shape_block": {
                "x": 3,
                "y": 1,
                "id": 2,
                "rotation": 0,
                "reflected": false
            }
        },
        {
            "shape_block": {
                "x": 7,
                "y": 14,
                "id": 0,
                "rotation": 0,
                "reflected": false
            }
        },
        {
            "shape_block": {
                "x": 12,
                "y": 14,
                "id": 0,
                "rotation": 0,
                "reflected": true
            }
        },
        {
            "shape_block": {
                "x": 13,
                "y": 11,
                "id": 0,
                "rotation": 270,
                "reflected": false
            }
        },
        {
            "shape_block": {
                "x": 6,
                "y": 4,
                "id": 3,
                "rotation": 0,
                "reflected": false
            }
        },
        {
            "shape_block": {
                "x": 4,
                "y": 4,
                "id": 3,
                "rotation": 0,
                "reflected": false
            }
        },
        {
            "shape_block": {
                "x": 8,
                "y": 7,
                "id": 0,
                "rotation": 0,
                "reflected": true
            }
        },
        {
            "shape_block": {
                "x": 7,
                "y": 10,
                "id": 0,
                "rotation": 90,
                "reflected": true
            }
        },
        {
            "shape_block": {
                "x": 6,
                "y": 11,
                "id": 0,
                "rotation": 90,
                "reflected": true
            }
        }
    ],
    "dynamic_objects": [
        {
            "box": {
                "x": 10,
                "y": 6,
                "id": "main_car"
            }
        }
    ]
}