{
    "name": "Spoiltsport",
    "author_nickname": "AndyB",
    "notes": "Get the car out of the way!",
    "hint1": "Try to jump the car out of the hole.",
    "hint2": "Drop blocks on the ball and the car.",
    "hint3": "Try to jump the car at the right time, so the ball can slip in under it.",
    "discussion_id": "237",
    "discussion_slug": "237-spoiltsport",
    "highlight_notes": false,
    "effects": {},
    "zoom": {
        "w": 24,
        "x": -2.042553191489363,
        "y": -2.859574468085105
    },
    "shapes": [
        {
            "id": 0,
            "number": -1
        },
        {
            "id": 1,
            "number": -1
        },
        {
            "id": 2,
            "number": -1
        },
        {
            "id": 3,
            "number": -1
        },
        {
            "id": 4,
            "number": -1
        }
    ],
    "win_conditions": [
        {
            "bodyEnteredArea": [
                {
                    "RECT": [
                        {
                            "x": 3,
                            "y": 14
                        },
                        {
                            "x": 7,
                            "y": 15
                        }
                    ]
                },
                "main_car"
            ]
        },
        {
            "bodyEnteredArea": [
                {
                    "RECT": [
                        {
                            "x": 4,
                            "y": 13
                        },
                        {
                            "x": 7,
                            "y": 14
                        }
                    ]
                },
                "main_car"
            ]
        }
    ],
    "lose_conditions": [
        {
            "greaterThan": [
                "time",
                10000
            ]
        }
    ],
    "blocks": [
        {
            "static_block": {
                "x": 0,
                "y": 15,
                "w": 16,
                "h": 1
            }
        },
        {
            "static_block": {
                "x": 7,
                "y": 14,
                "w": 1,
                "h": 1
            }
        },
        {
            "static_block": {
                "x": 2,
                "y": 14,
                "w": 1,
                "h": 1
            }
        }
    ],
    "dynamic_objects": [
        {
            "ball": {
                "x": 15,
                "y": 14,
                "id": "main_car"
            }
        },
        {
            "simple_car": {
                "x": 5,
                "y": 14,
                "id": "1"
            }
        }
    ]
}