{
    "name": "Jumpy",
    "author_nickname": "AndyB",
    "notes": "Some kind of leap must be possible. ",
    "hint1": "Stick out a red block from the side. ",
    "hint2": "Build a chain of slope blocks out from the red block. ",
    "hint3": "Catch the car on a yellow on the other side.  Place the last slope block so it's not attached. ",
    "discussion_id": "243",
    "discussion_slug": "243-jumpy",
    "highlight_notes": false,
    "effects": {},
    "zoom": {
        "w": 32.43639778151051,
        "x": -1.0062729247948818,
        "y": -5.053527758425681
    },
    "shapes": [
        {
            "id": 0,
            "number": 1
        },
        {
            "id": 3,
            "number": 1
        },
        {
            "id": 4,
            "number": 4
        }
    ],
    "win_conditions": [
        {
            "bodyEnteredArea": [
                {
                    "RECT": [
                        {
                            "x": 15,
                            "y": 10
                        },
                        {
                            "x": 20,
                            "y": 12
                        }
                    ]
                },
                "main_car"
            ]
        }
    ],
    "lose_conditions": [
        {
            "greaterThan": [
                "time",
                10000
            ]
        }
    ],
    "blocks": [
        {
            "static_block": {
                "x": 16,
                "y": 13,
                "w": 2,
                "h": 2
            }
        },
        {
            "static_block": {
                "x": 1,
                "y": 12,
                "w": 1,
                "h": 1
            }
        },
        {
            "static_block": {
                "x": 1,
                "y": 14,
                "w": 3,
                "h": 1
            }
        },
        {
            "static_block": {
                "x": 13,
                "y": 14,
                "w": 3,
                "h": 1
            }
        },
        {
            "static_block": {
                "x": 13,
                "y": 12,
                "w": 1,
                "h": 1
            }
        },
        {
            "static_block": {
                "x": 15,
                "y": 12,
                "w": 3,
                "h": 1
            }
        },
        {
            "static_block": {
                "x": -2,
                "y": 12,
                "w": 3,
                "h": 3
            }
        },
        {
            "static_block": {
                "x": 18,
                "y": 12,
                "w": 2,
                "h": 3
            }
        },
        {
            "shape_block": {
                "x": 2,
                "y": 13,
                "id": 1,
                "rotation": 180,
                "reflected": true
            }
        },
        {
            "static_block": {
                "x": 3,
                "y": 12,
                "w": 1,
                "h": 1
            }
        },
        {
            "shape_block": {
                "x": 14,
                "y": 13,
                "id": 1,
                "rotation": 180,
                "reflected": true
            }
        },
        {
            "shape_block": {
                "x": 5,
                "y": 12,
                "id": 0,
                "rotation": 0,
                "reflected": true
            }
        },
        {
            "shape_block": {
                "x": 7,
                "y": 12,
                "id": 4,
                "rotation": 180,
                "reflected": true
            }
        },
        {
            "shape_block": {
                "x": 7,
                "y": 11,
                "id": 4,
                "rotation": 0,
                "reflected": true
            }
        },
        {
            "shape_block": {
                "x": 8,
                "y": 11,
                "id": 4,
                "rotation": 180,
                "reflected": true
            }
        },
        {
            "shape_block": {
                "x": 8,
                "y": 10,
                "id": 4,
                "rotation": 270,
                "reflected": true
            }
        },
        {
            "shape_block": {
                "x": 12,
                "y": 12,
                "id": 3,
                "rotation": 270,
                "reflected": true
            }
        }
    ],
    "dynamic_objects": [
        {
            "simple_car": {
                "x": 0,
                "y": 11,
                "id": "main_car"
            }
        }
    ]
}