{
    "name": "Bus Stop",
    "author_nickname": "Tom",
    "notes": "Navigate through the early morning traffic and get to the bus stop on time!",
    "hint1": "Break the bus, and get the box over to the right.",
    "hint2": "Drop something heavy onto the bus to smash it.",
    "hint3": "Try to guide the destruction to make the box pop out to the right.",
    "discussion_id": "272",
    "discussion_slug": "272-bus-stop",
    "highlight_notes": false,
    "effects": {},
    "zoom": {
        "w": 60,
        "x": 0,
        "y": 0
    },
    "shapes": [
        {
            "id": 0,
            "number": -1
        },
        {
            "id": 1,
            "number": -1
        },
        {
            "id": 2,
            "number": -1
        },
        {
            "id": 3,
            "number": -1
        },
        {
            "id": 4,
            "number": -1
        }
    ],
    "win_conditions": [
        {
            "bodyEnteredArea": [
                {
                    "RECT": [
                        {
                            "x": 24,
                            "y": 27
                        },
                        {
                            "x": 26,
                            "y": 29
                        }
                    ]
                },
                "Bus"
            ]
        }
    ],
    "lose_conditions": [
        {
            "greaterThan": [
                "time",
                15000
            ]
        }
    ],
    "blocks": [
        {
            "static_block": {
                "x": -20,
                "y": 32,
                "w": 60,
                "h": 3
            }
        },
        {
            "shape_block": {
                "x": -2,
                "y": 30,
                "id": 4,
                "rotation": 180,
                "reflected": false
            }
        },
        {
            "shape_block": {
                "x": 4,
                "y": 30,
                "id": 4,
                "rotation": 180,
                "reflected": false
            }
        },
        {
            "shape_block": {
                "x": 2,
                "y": 30,
                "id": 4,
                "rotation": 180,
                "reflected": true
            }
        },
        {
            "shape_block": {
                "x": -4,
                "y": 30,
                "id": 4,
                "rotation": 180,
                "reflected": true
            }
        },
        {
            "shape_block": {
                "x": -4,
                "y": 29,
                "id": 3,
                "rotation": 180,
                "reflected": true
            }
        },
        {
            "shape_block": {
                "x": -2,
                "y": 29,
                "id": 3,
                "rotation": 180,
                "reflected": true
            }
        },
        {
            "shape_block": {
                "x": 0,
                "y": 29,
                "id": 3,
                "rotation": 180,
                "reflected": true
            }
        },
        {
            "shape_block": {
                "x": 2,
                "y": 29,
                "id": 3,
                "rotation": 180,
                "reflected": true
            }
        },
        {
            "shape_block": {
                "x": 4,
                "y": 28,
                "id": 3,
                "rotation": 270,
                "reflected": true
            }
        },
        {
            "shape_block": {
                "x": 4,
                "y": 26,
                "id": 3,
                "rotation": 270,
                "reflected": true
            }
        },
        {
            "shape_block": {
                "x": 3,
                "y": 26,
                "id": 3,
                "rotation": 0,
                "reflected": true
            }
        },
        {
            "shape_block": {
                "x": 1,
                "y": 26,
                "id": 3,
                "rotation": 0,
                "reflected": true
            }
        },
        {
            "shape_block": {
                "x": -1,
                "y": 26,
                "id": 3,
                "rotation": 0,
                "reflected": true
            }
        },
        {
            "shape_block": {
                "x": -3,
                "y": 26,
                "id": 3,
                "rotation": 0,
                "reflected": true
            }
        },
        {
            "shape_block": {
                "x": -4,
                "y": 28,
                "id": 3,
                "rotation": 90,
                "reflected": true
            }
        },
        {
            "shape_block": {
                "x": -3,
                "y": 28,
                "id": 3,
                "rotation": 180,
                "reflected": true
            }
        },
        {
            "shape_block": {
                "x": -1,
                "y": 28,
                "id": 3,
                "rotation": 180,
                "reflected": true
            }
        },
        {
            "shape_block": {
                "x": 1,
                "y": 27,
                "id": 3,
                "rotation": 270,
                "reflected": true
            }
        },
        {
            "shape_block": {
                "x": -1,
                "y": 27,
                "id": 3,
                "rotation": 0,
                "reflected": true
            }
        },
        {
            "shape_block": {
                "x": 5,
                "y": 29,
                "id": 3,
                "rotation": 90,
                "reflected": true
            }
        },
        {
            "shape_block": {
                "x": 29,
                "y": 30,
                "id": 0,
                "rotation": 90,
                "reflected": true
            }
        },
        {
            "shape_block": {
                "x": 0,
                "y": -6,
                "id": 1,
                "rotation": 90,
                "reflected": false
            }
        },
        {
            "shape_block": {
                "x": -2,
                "y": -8,
                "id": 1,
                "rotation": 90,
                "reflected": false
            }
        },
        {
            "shape_block": {
                "x": -1,
                "y": -8,
                "id": 1,
                "rotation": 270,
                "reflected": true
            }
        },
        {
            "shape_block": {
                "x": 1,
                "y": -6,
                "id": 1,
                "rotation": 270,
                "reflected": true
            }
        },
        {
            "shape_block": {
                "x": 2,
                "y": -8,
                "id": 1,
                "rotation": 90,
                "reflected": false
            }
        },
        {
            "shape_block": {
                "x": 0,
                "y": -10,
                "id": 1,
                "rotation": 90,
                "reflected": false
            }
        },
        {
            "shape_block": {
                "x": 1,
                "y": -10,
                "id": 1,
                "rotation": 270,
                "reflected": true
            }
        },
        {
            "shape_block": {
                "x": -3,
                "y": -10,
                "id": 1,
                "rotation": 270,
                "reflected": true
            }
        },
        {
            "shape_block": {
                "x": -1,
                "y": -12,
                "id": 1,
                "rotation": 270,
                "reflected": true
            }
        },
        {
            "shape_block": {
                "x": 2,
                "y": -12,
                "id": 1,
                "rotation": 90,
                "reflected": false
            }
        },
        {
            "shape_block": {
                "x": -2,
                "y": -12,
                "id": 1,
                "rotation": 90,
                "reflected": false
            }
        },
        {
            "shape_block": {
                "x": -4,
                "y": -10,
                "id": 1,
                "rotation": 90,
                "reflected": false
            }
        },
        {
            "shape_block": {
                "x": -5,
                "y": -12,
                "id": 1,
                "rotation": 270,
                "reflected": true
            }
        }
    ],
    "dynamic_objects": [
        {
            "ball": {
                "x": -2,
                "y": 31,
                "id": "1"
            }
        },
        {
            "ball": {
                "x": 4,
                "y": 31,
                "id": "2"
            }
        },
        {
            "simple_car": {
                "x": -12,
                "y": 31,
                "id": "3"
            }
        },
        {
            "simple_car": {
                "x": -15,
                "y": 31,
                "id": "4"
            }
        },
        {
            "simple_car": {
                "x": -18,
                "y": 31,
                "id": "5"
            }
        },
        {
            "box": {
                "x": 3,
                "y": 28,
                "id": "Bus"
            }
        }
    ]
}
