{
    "name": "Long Bridge",
    "author_nickname": "Ray 'BLJ' Duck",
    "notes": "Get the car up to the higher platform, and flip it round underneath.",
    "hint1": "The construction needs to be well balanced, or the car will slip off and fail.",
    "hint2": "Try making the car fall onto slopes to move backwards: the anchors in the ground should help.",
    "hint3": "Build a slope over the second platform, connected to the first. Curve around and build a counterweight to prevent it from falling over.",
    "discussion_id": "93",
    "discussion_slug": "93-long-bridge",
    "highlight_notes": false,
    "effects": {},
    "zoom": {
        "w": 48,
        "x": 2.2588996763754086,
        "y": 1.3721682847896408
    },
    "shapes": [
        {
            "id": 0,
            "number": -1
        },
        {
            "id": 1,
            "number": -1
        },
        {
            "id": 2,
            "number": -1
        },
        {
            "id": 3,
            "number": -1
        },
        {
            "id": 4,
            "number": -1
        }
    ],
    "win_conditions": [
        {
            "bodyEnteredArea": [
                {
                    "RECT": [
                        {
                            "x": 13,
                            "y": 0
                        },
                        {
                            "x": 17,
                            "y": 4
                        }
                    ]
                },
                "main_car"
            ]
        }
    ],
    "lose_conditions": [
        {
            "greaterThan": [
                "time",
                20000
            ]
        }
    ],
    "blocks": [
        {
            "static_block": {
                "x": -6,
                "y": 18,
                "w": 5,
                "h": 2
            }
        },
        {
            "static_block": {
                "x": 22,
                "y": 4,
                "w": 4,
                "h": 2
            }
        },
        {
            "static_block": {
                "x": -1,
                "y": 19,
                "w": 2,
                "h": 1
            }
        },
        {
            "static_block": {
                "x": 26,
                "y": 5,
                "w": 2,
                "h": 1
            }
        },
        {
            "static_block": {
                "x": 28,
                "y": 4,
                "w": 1,
                "h": 2
            }
        },
        {
            "static_block": {
                "x": 1,
                "y": 18,
                "w": 1,
                "h": 2
            }
        },
        {
            "shape_block": {
                "x": -1,
                "y": 18,
                "id": 3,
                "rotation": 0,
                "reflected": false
            }
        },
        {
            "shape_block": {
                "x": 26,
                "y": 4,
                "id": 3,
                "rotation": 0,
                "reflected": false
            }
        },
        {
            "static_block": {
                "x": 22,
                "y": 0,
                "w": 1,
                "h": 4
            }
        },
        {
            "static_block": {
                "x": 22,
                "y": -1,
                "w": 7,
                "h": 1
            }
        }
    ],
    "dynamic_objects": [
        {
            "simple_car": {
                "x": -3,
                "y": 17,
                "id": "main_car"
            }
        }
    ]
}
