{
    "name": "Zorbing",
    "author_nickname": "Tom",
    "notes": "Get the car to big wheel over to the green square!",
    "hint1": "Place blocks to disrupt the system so the car makes it.",
    "hint2": "You don't need lots of blocks.",
    "hint3": "You could try dropping blocks onto the top or even below where the wheel will roll.",
    "discussion_id": "153",
    "discussion_slug": "153-zorbing",
    "highlight_notes": false,
    "effects": {},
    "zoom": {
        "x": 0,
        "y": 0,
        "w": 30
    },
    "shapes": [
        {
            "id": 0,
            "number": -1
        },
        {
            "id": 1,
            "number": -1
        },
        {
            "id": 2,
            "number": -1
        },
        {
            "id": 3,
            "number": -1
        },
        {
            "id": 4,
            "number": -1
        }
    ],
    "win_conditions": [
        {
            "bodyEnteredArea": [
                {
                    "RECT": [
                        {
                            "x": 20,
                            "y": 15
                        },
                        {
                            "x": 24,
                            "y": 19
                        }
                    ]
                },
                "main_car"
            ]
        }
    ],
    "lose_conditions": [],
    "blocks": [
        {
            "static_block": {
                "x": -20,
                "y": 20,
                "w": 60,
                "h": 2
            }
        },
        {
            "shape_block": {
                "x": 3,
                "y": 18,
                "id": 4,
                "rotation": 90,
                "reflected": false
            }
        },
        {
            "shape_block": {
                "x": 4,
                "y": 17,
                "id": 4,
                "rotation": 90,
                "reflected": false
            }
        },
        {
            "shape_block": {
                "x": 5,
                "y": 16,
                "id": 4,
                "rotation": 90,
                "reflected": false
            }
        },
        {
            "shape_block": {
                "x": 3,
                "y": 17,
                "id": 4,
                "rotation": 270,
                "reflected": false
            }
        },
        {
            "shape_block": {
                "x": 4,
                "y": 16,
                "id": 4,
                "rotation": 270,
                "reflected": false
            }
        },
        {
            "shape_block": {
                "x": 5,
                "y": 11,
                "id": 4,
                "rotation": 0,
                "reflected": false
            }
        },
        {
            "shape_block": {
                "x": 4,
                "y": 10,
                "id": 4,
                "rotation": 0,
                "reflected": false
            }
        },
        {
            "shape_block": {
                "x": 3,
                "y": 9,
                "id": 4,
                "rotation": 0,
                "reflected": false
            }
        },
        {
            "shape_block": {
                "x": -2,
                "y": 17,
                "id": 4,
                "rotation": 0,
                "reflected": false
            }
        },
        {
            "shape_block": {
                "x": -3,
                "y": 16,
                "id": 4,
                "rotation": 0,
                "reflected": false
            }
        },
        {
            "shape_block": {
                "x": 4,
                "y": 11,
                "id": 4,
                "rotation": 180,
                "reflected": false
            }
        },
        {
            "shape_block": {
                "x": 3,
                "y": 10,
                "id": 4,
                "rotation": 180,
                "reflected": false
            }
        },
        {
            "shape_block": {
                "x": -3,
                "y": 17,
                "id": 4,
                "rotation": 180,
                "reflected": false
            }
        },
        {
            "shape_block": {
                "x": -2,
                "y": 18,
                "id": 4,
                "rotation": 180,
                "reflected": false
            }
        },
        {
            "shape_block": {
                "x": -4,
                "y": 16,
                "id": 4,
                "rotation": 180,
                "reflected": false
            }
        },
        {
            "shape_block": {
                "x": -4,
                "y": 11,
                "id": 4,
                "rotation": 270,
                "reflected": false
            }
        },
        {
            "shape_block": {
                "x": -3,
                "y": 10,
                "id": 4,
                "rotation": 270,
                "reflected": false
            }
        },
        {
            "shape_block": {
                "x": -2,
                "y": 9,
                "id": 4,
                "rotation": 270,
                "reflected": false
            }
        },
        {
            "shape_block": {
                "x": -3,
                "y": 11,
                "id": 4,
                "rotation": 90,
                "reflected": false
            }
        },
        {
            "shape_block": {
                "x": -2,
                "y": 10,
                "id": 4,
                "rotation": 90,
                "reflected": false
            }
        },
        {
            "shape_block": {
                "x": 6,
                "y": 12,
                "id": 4,
                "rotation": 0,
                "reflected": false
            }
        },
        {
            "shape_block": {
                "x": 6,
                "y": 15,
                "id": 4,
                "rotation": 90,
                "reflected": false
            }
        },
        {
            "shape_block": {
                "x": 5,
                "y": 12,
                "id": 4,
                "rotation": 180,
                "reflected": false
            }
        },
        {
            "shape_block": {
                "x": 5,
                "y": 15,
                "id": 4,
                "rotation": 270,
                "reflected": false
            }
        },
        {
            "shape_block": {
                "x": -5,
                "y": 12,
                "id": 4,
                "rotation": 270,
                "reflected": false
            }
        },
        {
            "shape_block": {
                "x": -4,
                "y": 15,
                "id": 4,
                "rotation": 0,
                "reflected": false
            }
        },
        {
            "shape_block": {
                "x": -4,
                "y": 12,
                "id": 4,
                "rotation": 90,
                "reflected": false
            }
        },
        {
            "shape_block": {
                "x": -5,
                "y": 15,
                "id": 4,
                "rotation": 180,
                "reflected": false
            }
        },
        {
            "shape_block": {
                "x": -1,
                "y": 18,
                "id": 4,
                "rotation": 0,
                "reflected": false
            }
        },
        {
            "shape_block": {
                "x": 2,
                "y": 19,
                "id": 4,
                "rotation": 90,
                "reflected": false
            }
        },
        {
            "shape_block": {
                "x": -1,
                "y": 19,
                "id": 4,
                "rotation": 180,
                "reflected": false
            }
        },
        {
            "shape_block": {
                "x": 2,
                "y": 18,
                "id": 4,
                "rotation": 270,
                "reflected": false
            }
        },
        {
            "shape_block": {
                "x": -1,
                "y": 8,
                "id": 4,
                "rotation": 270,
                "reflected": false
            }
        },
        {
            "shape_block": {
                "x": 2,
                "y": 8,
                "id": 4,
                "rotation": 0,
                "reflected": false
            }
        },
        {
            "shape_block": {
                "x": -1,
                "y": 9,
                "id": 4,
                "rotation": 90,
                "reflected": false
            }
        },
        {
            "shape_block": {
                "x": 2,
                "y": 9,
                "id": 4,
                "rotation": 180,
                "reflected": false
            }
        },
        {
            "shape_block": {
                "x": 6,
                "y": 13,
                "id": 3,
                "rotation": 90,
                "reflected": false
            }
        },
        {
            "shape_block": {
                "x": 1,
                "y": 8,
                "id": 3,
                "rotation": 180,
                "reflected": false
            }
        },
        {
            "shape_block": {
                "x": -5,
                "y": 14,
                "id": 3,
                "rotation": 270,
                "reflected": false
            }
        },
        {
            "shape_block": {
                "x": 0,
                "y": 19,
                "id": 3,
                "rotation": 0,
                "reflected": false
            }
        }
    ],
    "dynamic_objects": [
        {
            "simple_car": {
                "x": 1,
                "y": 17,
                "id": "main_car"
            }
        }
    ]
}
