{
    "name": "Upstairs",
    "author_nickname": "AndyB",
    "notes": "Clinmb up the other side.",
    "hint1": "Drop a carefully-shaped booster onto the ball at the start.",
    "hint2": "Place a platform to help bounce it to the right place.",
    "hint3": "",
    "discussion_id": "165",
    "discussion_slug": "165-upstairs",
    "highlight_notes": false,
    "effects": {},
    "zoom": {
        "x": 4,
        "y": 0,
        "w": 26
    },
    "shapes": [
        {
            "id": 2,
            "number": 2
        },
        {
            "id": 4,
            "number": 1
        }
    ],
    "win_conditions": [
        {
            "bodyEnteredArea": [
                {
                    "RECT": [
                        {
                            "x": 20,
                            "y": 13
                        },
                        {
                            "x": 22,
                            "y": 15
                        }
                    ]
                },
                "main_car"
            ]
        }
    ],
    "lose_conditions": [
        {
            "greaterThan": [
                "time",
                10000
            ]
        }
    ],
    "blocks": [
        {
            "static_block": {
                "x": 5,
                "y": 11,
                "w": 2,
                "h": 2
            }
        },
        {
            "static_block": {
                "x": 11,
                "y": 17,
                "w": 2,
                "h": 2
            }
        },
        {
            "static_block": {
                "x": 13,
                "y": 19,
                "w": 4,
                "h": 1
            }
        },
        {
            "static_block": {
                "x": 9,
                "y": 15,
                "w": 2,
                "h": 2
            }
        },
        {
            "static_block": {
                "x": 7,
                "y": 13,
                "w": 2,
                "h": 2
            }
        },
        {
            "static_block": {
                "x": 17,
                "y": 17,
                "w": 2,
                "h": 2
            }
        },
        {
            "static_block": {
                "x": 19,
                "y": 15,
                "w": 2,
                "h": 2
            }
        },
        {
            "shape_block": {
                "x": 5,
                "y": -3,
                "id": 2,
                "rotation": 0,
                "reflected": false
            }
        },
        {
            "shape_block": {
                "x": 6,
                "y": -1,
                "id": 4,
                "rotation": 90,
                "reflected": false
            }
        },
        {
            "shape_block": {
                "x": 15,
                "y": 17,
                "id": 2,
                "rotation": 90,
                "reflected": false
            }
        }
    ],
    "dynamic_objects": [
        {
            "ball": {
                "x": 7,
                "y": 10,
                "id": "main_car"
            }
        }
    ]
}