{
    "name": "Downpour",
    "author_nickname": "Tom",
    "notes": "Keep the beach ball safe in the rain!",
    "hint1": "Watch where the ball gets bounced, and drop blocks to stop it.",
    "hint2": "A small wall falling down to the left of the ball should be sufficient.",
    "hint3": "",
    "discussion_id": "169",
    "discussion_slug": "169-downpour",
    "highlight_notes": false,
    "effects": {},
    "zoom": {
        "x": 0,
        "y": 0,
        "w": 30
    },
    "shapes": [
        {
            "id": 0,
            "number": 1
        },
        {
            "id": 1,
            "number": 1
        },
        {
            "id": 2,
            "number": 1
        },
        {
            "id": 3,
            "number": 1
        },
        {
            "id": 4,
            "number": 1
        }
    ],
    "win_conditions": [
        {
            "greaterThan": [
                "time",
                10000
            ]
        }
    ],
    "lose_conditions": [
        {
            "bodyEnteredArea": [
                {
                    "RECT": [
                        {
                            "x": -3,
                            "y": 1
                        },
                        {
                            "x": -1,
                            "y": 20
                        }
                    ]
                },
                "main_car"
            ]
        },
        {
            "bodyEnteredArea": [
                {
                    "RECT": [
                        {
                            "x": 19,
                            "y": 1
                        },
                        {
                            "x": 21,
                            "y": 20
                        }
                    ]
                },
                "main_car"
            ]
        }
    ],
    "blocks": [
        {
            "static_block": {
                "x": -20,
                "y": 20,
                "w": 60,
                "h": 2
            }
        }
    ],
    "dynamic_objects": [
        {
            "ball": {
                "x": 9,
                "y": 6,
                "id": "main_car"
            }
        },
        {
            "bouncy": {
                "x": 11,
                "y": 3,
                "id": "1"
            }
        },
        {
            "bouncy": {
                "x": 3,
                "y": -14.999999999999998,
                "id": "2"
            }
        },
        {
            "bouncy": {
                "x": 9,
                "y": 9,
                "id": "3"
            }
        },
        {
            "bouncy": {
                "x": 16,
                "y": -14.999999999999998,
                "id": "4"
            }
        },
        {
            "bouncy": {
                "x": 16,
                "y": 2,
                "id": "6"
            }
        },
        {
            "anvil": {
                "x": 10,
                "y": -19,
                "id": "5"
            }
        }
    ]
}
