{
    "name": "Overtake",
    "author_nickname": "Tom",
    "notes": "Get the back car to the front!",
    "hint1": "Disable the first car in the first green zone.",
    "hint2": "Drive the second car over the top.",
    "hint3": "Use a ramp to get the first car off its wheels.",
    "discussion_id": "204",
    "discussion_slug": "204-overtake",
    "highlight_notes": false,
    "effects": {},
    "zoom": {
        "x": 0,
        "y": 0,
        "w": 30
    },
    "shapes": [
        {
            "id": 0,
            "number": 1
        },
        {
            "id": 1,
            "number": 1
        },
        {
            "id": 2,
            "number": 1
        },
        {
            "id": 3,
            "number": 1
        },
        {
            "id": 4,
            "number": 2
        }
    ],
    "win_conditions": [
        {
            "and": [
                {
                    "bodyEnteredArea": [
                        {
                            "RECT": [
                                {
                                    "x": 20,
                                    "y": 21
                                },
                                {
                                    "x": 23,
                                    "y": 23
                                }
                            ]
                        },
                        "main_car"
                    ]
                },
                {
                    "bodyEnteredArea": [
                        {
                            "RECT": [
                                {
                                    "x": 16,
                                    "y": 21
                                },
                                {
                                    "x": 19,
                                    "y": 23
                                }
                            ]
                        },
                        "1"
                    ]
                }
            ]
        }
    ],
    "lose_conditions": [],
    "blocks": [
        {
            "static_block": {
                "x": -5,
                "y": 23,
                "w": 30,
                "h": 3
            }
        }
    ],
    "dynamic_objects": [
        {
            "simple_car": {
                "x": -1,
                "y": 22,
                "id": "main_car"
            }
        },
        {
            "simple_car": {
                "x": 3,
                "y": 22,
                "id": "1"
            }
        }
    ]
}
