{
    "name": "Diamond ",
    "author_nickname": "Tom",
    "notes": "Use the slopes to direct the ball through the diamond.",
    "hint1": "Surprisingly, there are lots of solutions to this!",
    "hint2": "Several solutions use just one slope block.  Try placing one in different places.",
    "hint3": "Adapt your attempts to persuade the ball to bounce around in different ways. Keep experimenting!",
    "discussion_id": "213",
    "discussion_slug": "213-diamond",
    "highlight_notes": false,
    "effects": {},
    "zoom": {
        "x": 0,
        "y": 0,
        "w": 30
    },
    "shapes": [
        {
            "id": 4,
            "number": -1
        }
    ],
    "win_conditions": [
        {
            "bodyEnteredArea": [
                {
                    "RECT": [
                        {
                            "x": 9,
                            "y": 21
                        },
                        {
                            "x": 11,
                            "y": 23
                        }
                    ]
                },
                "main_car"
            ]
        }
    ],
    "lose_conditions": [],
    "blocks": [
        {
            "static_block": {
                "x": 9,
                "y": 23,
                "w": 2,
                "h": 2
            }
        },
        {
            "static_block": {
                "x": 4,
                "y": 18,
                "w": 2,
                "h": 2
            }
        },
        {
            "static_block": {
                "x": 14,
                "y": 18,
                "w": 2,
                "h": 2
            }
        },
        {
            "static_block": {
                "x": 9,
                "y": 13,
                "w": 2,
                "h": 2
            }
        },
        {
            "static_block": {
                "x": -1,
                "y": 13,
                "w": 2,
                "h": 2
            }
        },
        {
            "static_block": {
                "x": 19,
                "y": 13,
                "w": 2,
                "h": 2
            }
        },
        {
            "static_block": {
                "x": 4,
                "y": 8,
                "w": 2,
                "h": 2
            }
        },
        {
            "static_block": {
                "x": 14,
                "y": 8,
                "w": 2,
                "h": 2
            }
        },
        {
            "static_block": {
                "x": 9,
                "y": 3,
                "w": 2,
                "h": 2
            }
        },
        {
            "shape_block": {
                "x": 10,
                "y": 0,
                "id": 4,
                "rotation": 0,
                "reflected": false
            }
        }
    ],
    "dynamic_objects": [
        {
            "ball": {
                "x": 10,
                "y": -3,
                "id": "main_car"
            }
        }
    ]
}
