{
    "name": "Slowly Does It",
    "author_nickname": "Tom",
    "notes": "Don't get to the finish too soon! Both balls must be in the greensimultaneously.",
    "hint1": "Find a way to get the left ball into the green, but very slowly.",
    "hint2": "Build a platform of reds right under the left-hand ball so it rolls very slowly off and then bounces into the green.",
    "hint3": "We couldn't find a way to speed up the right-hand ball, but maybe there is a way. If you find it, upload it to the forum!",
    "discussion_id": "309",
    "discussion_slug": "309-slowly-does-it",
    "highlight_notes": false,
    "effects": {},
    "zoom": {
        "w": 27.28439341398141,
        "x": 4.045040327216177,
        "y": 1.6440156421104701
    },
    "shapes": [
        {
            "id": 0,
            "number": 6
        },
        {
            "id": 1,
            "number": 6
        },
        {
            "id": 2,
            "number": 6
        },
        {
            "id": 3,
            "number": 6
        }
    ],
    "win_conditions": [
        {
            "and": [
                {
                    "bodyEnteredArea": [
                        {
                            "RECT": [
                                {
                                    "x": 23,
                                    "y": 18
                                },
                                {
                                    "x": 25,
                                    "y": 20
                                }
                            ]
                        },
                        "main_car"
                    ]
                },
                {
                    "bodyEnteredArea": [
                        {
                            "RECT": [
                                {
                                    "x": 12,
                                    "y": 18
                                },
                                {
                                    "x": 14,
                                    "y": 20
                                }
                            ]
                        },
                        "1"
                    ]
                }
            ]
        }
    ],
    "lose_conditions": [
        {
            "bodyEnteredArea": [
                {
                    "RECT": [
                        {
                            "x": 12,
                            "y": 20
                        },
                        {
                            "x": 14,
                            "y": 21
                        }
                    ]
                },
                "1"
            ]
        }
    ],
    "blocks": [
        {
            "static_block": {
                "x": 14,
                "y": 5,
                "w": 1,
                "h": 15
            }
        },
        {
            "static_block": {
                "x": 14,
                "y": 20,
                "w": 11,
                "h": 1
            }
        },
        {
            "static_block": {
                "x": 25,
                "y": 5,
                "w": 1,
                "h": 16
            }
        },
        {
            "static_block": {
                "x": 15,
                "y": 10,
                "w": 7,
                "h": 1
            }
        },
        {
            "static_block": {
                "x": 18,
                "y": 15,
                "w": 8,
                "h": 1
            }
        },
        {
            "shape_block": {
                "x": 16,
                "y": 9,
                "id": 0,
                "rotation": 180,
                "reflected": false
            }
        },
        {
            "shape_block": {
                "x": 23,
                "y": 14,
                "id": 0,
                "rotation": 180,
                "reflected": true
            }
        },
        {
            "shape_block": {
                "x": 16,
                "y": 19,
                "id": 0,
                "rotation": 180,
                "reflected": false
            }
        },
        {
            "static_block": {
                "x": 14,
                "y": 4,
                "w": 12,
                "h": 1
            }
        },
        {
            "static_block": {
                "x": 3,
                "y": 4,
                "w": 11,
                "h": 1
            }
        },
        {
            "static_block": {
                "x": 2,
                "y": 4,
                "w": 1,
                "h": 17
            }
        },
        {
            "static_block": {
                "x": 3,
                "y": 20,
                "w": 9,
                "h": 1
            }
        },
        {
            "static_block": {
                "x": 10,
                "y": 19,
                "w": 1,
                "h": 1
            }
        },
        {
            "shape_block": {
                "x": 11,
                "y": 19,
                "id": 4,
                "rotation": 0,
                "reflected": false
            }
        },
        {
            "shape_block": {
                "x": 3,
                "y": 9,
                "id": 0,
                "rotation": 270,
                "reflected": false
            }
        },
        {
            "shape_block": {
                "x": 3,
                "y": 12,
                "id": 0,
                "rotation": 270,
                "reflected": false
            }
        },
        {
            "shape_block": {
                "x": 3,
                "y": 15,
                "id": 0,
                "rotation": 270,
                "reflected": false
            }
        },
        {
            "shape_block": {
                "x": 3,
                "y": 18,
                "id": 0,
                "rotation": 270,
                "reflected": false
            }
        },
        {
            "shape_block": {
                "x": 20,
                "y": 14,
                "id": 3,
                "rotation": 0,
                "reflected": false
            }
        }
    ],
    "dynamic_objects": [
        {
            "ball": {
                "x": 16,
                "y": 6,
                "id": "main_car"
            }
        },
        {
            "ball": {
                "x": 4,
                "y": 6,
                "id": "1"
            }
        }
    ]
}
