{
    "name": "Save the ball",
    "author_nickname": "cf",
    "notes": "The car is expendable. Push the ball into the green.",
    "hint1": "Use the car's torque to move something leftwards.",
    "hint2": "Place two yellow blocks under the car so they slide to the left when it drives.",
    "hint3": "",
    "discussion_id": "294",
    "discussion_slug": "294-save-the-ball",
    "highlight_notes": false,
    "effects": {},
    "zoom": {
        "w": 34.559999999999995,
        "x": -11.080000000000009,
        "y": -0.2880412371134038
    },
    "shapes": [
        {
            "id": 2,
            "number": -1
        },
        {
            "id": 3,
            "number": -1
        }
    ],
    "win_conditions": [
        {
            "bodyEnteredArea": [
                {
                    "RECT": [
                        {
                            "x": -13,
                            "y": 12
                        },
                        {
                            "x": -11,
                            "y": 14
                        }
                    ]
                },
                "1"
            ]
        }
    ],
    "lose_conditions": [],
    "blocks": [
        {
            "static_block": {
                "x": -11,
                "y": 13,
                "w": 14,
                "h": 1
            }
        },
        {
            "static_block": {
                "x": -1,
                "y": 10,
                "w": 1,
                "h": 1
            }
        },
        {
            "static_block": {
                "x": -8,
                "y": 11,
                "w": 1,
                "h": 1
            }
        },
        {
            "static_block": {
                "x": -13,
                "y": 10,
                "w": 6,
                "h": 1
            }
        }
    ],
    "dynamic_objects": [
        {
            "simple_car": {
                "x": -3,
                "y": 10,
                "id": "main_car"
            }
        },
        {
            "ball": {
                "x": -9,
                "y": 12,
                "id": "1"
            }
        }
    ]
}
