{
    "name": "Not quite first go",
    "author_nickname": "cf",
    "notes": "Gotta make that jump!",
    "hint1": "Build a straight platform of yellows out from the top notch.",
    "hint2": "Slow the car slightly so it bounces off the platform as it falls.",
    "hint3": "Place a single ramp at the very end of the entrance tunnel to slow the car.",
    "discussion_id": "297",
    "discussion_slug": "297-not-quite-first-go",
    "highlight_notes": false,
    "effects": {},
    "zoom": {
        "w": 49.76639999999998,
        "x": 3.5940450625869373,
        "y": -4.6322870653685735
    },
    "shapes": [
        {
            "id": 3,
            "number": 3
        },
        {
            "id": 4,
            "number": 1
        }
    ],
    "win_conditions": [
        {
            "bodyEnteredArea": [
                {
                    "RECT": [
                        {
                            "x": 15,
                            "y": 0
                        },
                        {
                            "x": 17,
                            "y": 2
                        }
                    ]
                },
                "main_car"
            ]
        }
    ],
    "lose_conditions": [
        {
            "greaterThan": [
                "time",
                5000
            ]
        }
    ],
    "blocks": [
        {
            "static_block": {
                "x": -3,
                "y": -4,
                "w": 8,
                "h": 8
            }
        },
        {
            "static_block": {
                "x": -3,
                "y": -7,
                "w": 9,
                "h": 1
            }
        },
        {
            "static_block": {
                "x": 5,
                "y": -4,
                "w": 1,
                "h": 3
            }
        },
        {
            "static_block": {
                "x": 5,
                "y": 0,
                "w": 1,
                "h": 1
            }
        },
        {
            "static_block": {
                "x": 5,
                "y": 2,
                "w": 1,
                "h": 1
            }
        },
        {
            "static_block": {
                "x": 15,
                "y": 2,
                "w": 6,
                "h": 2
            }
        },
        {
            "shape_block": {
                "x": 5,
                "y": -1,
                "id": 3,
                "rotation": 0,
                "reflected": false
            }
        },
        {
            "shape_block": {
                "x": 7,
                "y": -1,
                "id": 3,
                "rotation": 0,
                "reflected": false
            }
        },
        {
            "shape_block": {
                "x": 9,
                "y": -1,
                "id": 3,
                "rotation": 0,
                "reflected": false
            }
        },
        {
            "shape_block": {
                "x": 5,
                "y": -5,
                "id": 4,
                "rotation": 270,
                "reflected": false
            }
        }
    ],
    "dynamic_objects": [
        {
            "simple_car": {
                "x": -2,
                "y": -5,
                "id": "main_car"
            }
        }
    ]
}
