{
    "name": "Choices",
    "author_nickname": "Tom",
    "notes": "Find a way to one of the exits.",
    "hint1": "Block the ball from going too far right by placing a green block on the ground.",
    "hint2": "Drop a green block from high up to bash the ball into the bottom right green after it bounces off the first block you placed.",
    "hint3": "There are actually ways to get the ball into each exit - keep experimenting until you manage to guide it towards your chosen one.",
    "discussion_id": "307",
    "discussion_slug": "307-choices",
    "highlight_notes": false,
    "effects": {},
    "zoom": {
        "w": 26.44921344328407,
        "x": 3.6651338116341177,
        "y": -0.9866637219683962
    },
    "shapes": [
        {
            "id": 1,
            "number": -1
        },
        {
            "id": 4,
            "number": -1
        }
    ],
    "win_conditions": [
        {
            "bodyEnteredArea": [
                {
                    "RECT": [
                        {
                            "x": 10,
                            "y": 14
                        },
                        {
                            "x": 12,
                            "y": 16
                        }
                    ]
                },
                "main_car"
            ]
        },
        {
            "bodyEnteredArea": [
                {
                    "RECT": [
                        {
                            "x": 10,
                            "y": 2
                        },
                        {
                            "x": 12,
                            "y": 4
                        }
                    ]
                },
                "main_car"
            ]
        },
        {
            "bodyEnteredArea": [
                {
                    "RECT": [
                        {
                            "x": 17,
                            "y": 13
                        },
                        {
                            "x": 19,
                            "y": 15
                        }
                    ]
                },
                "main_car"
            ]
        }
    ],
    "lose_conditions": [
        {
            "bodyEnteredArea": [
                {
                    "RECT": [
                        {
                            "x": 12,
                            "y": 13
                        },
                        {
                            "x": 13,
                            "y": 18
                        }
                    ]
                },
                "main_car"
            ]
        },
        {
            "bodyEnteredArea": [
                {
                    "RECT": [
                        {
                            "x": 10,
                            "y": 12
                        },
                        {
                            "x": 13,
                            "y": 13
                        }
                    ]
                },
                "main_car"
            ]
        },
        {
            "bodyEnteredArea": [
                {
                    "RECT": [
                        {
                            "x": 5,
                            "y": 7
                        },
                        {
                            "x": 13,
                            "y": 8
                        }
                    ]
                },
                "main_car"
            ]
        },
        {
            "bodyEnteredArea": [
                {
                    "RECT": [
                        {
                            "x": 16,
                            "y": 12
                        },
                        {
                            "x": 20,
                            "y": 13
                        }
                    ]
                },
                "main_car"
            ]
        },
        {
            "bodyEnteredArea": [
                {
                    "RECT": [
                        {
                            "x": 12,
                            "y": 2
                        },
                        {
                            "x": 13,
                            "y": 7
                        }
                    ]
                },
                "main_car"
            ]
        },
        {
            "bodyEnteredArea": [
                {
                    "RECT": [
                        {
                            "x": 9,
                            "y": 1
                        },
                        {
                            "x": 13,
                            "y": 2
                        }
                    ]
                },
                "main_car"
            ]
        },
        {
            "bodyEnteredArea": [
                {
                    "RECT": [
                        {
                            "x": 16,
                            "y": 13
                        },
                        {
                            "x": 17,
                            "y": 16
                        }
                    ]
                },
                "main_car"
            ]
        }
    ],
    "blocks": [
        {
            "static_block": {
                "x": 3,
                "y": 1,
                "w": 2,
                "h": 17
            }
        },
        {
            "static_block": {
                "x": 3,
                "y": 18,
                "w": 17,
                "h": 2
            }
        },
        {
            "static_block": {
                "x": 20,
                "y": 10,
                "w": 2,
                "h": 10
            }
        },
        {
            "shape_block": {
                "x": 20,
                "y": 9,
                "id": 4,
                "rotation": 0,
                "reflected": true
            }
        },
        {
            "static_block": {
                "x": 21,
                "y": 9,
                "w": 1,
                "h": 1
            }
        }
    ],
    "dynamic_objects": [
        {
            "ball": {
                "x": 20,
                "y": 0,
                "id": "main_car"
            }
        }
    ]
}
