{
    "name": "Teapot",
    "author_nickname": "AndyB",
    "notes": "The tea all pours out and pushes us the wrong way.",
    "hint1": "Create something that swings down and knocks the ball to the left.",
    "hint2": "Lever off the top ground area, building out to the right around and back left towards the ball. The shover should push left as gravity pulls it down.",
    "hint3": "",
    "discussion_id": "121",
    "discussion_slug": "121-teapot",
    "highlight_notes": false,
    "effects": {},
    "zoom": {
        "x": 0,
        "y": 0,
        "w": 20
    },
    "shapes": [
        {
            "id": 0,
            "number": -1
        },
        {
            "id": 1,
            "number": -1
        },
        {
            "id": 2,
            "number": -1
        },
        {
            "id": 3,
            "number": -1
        },
        {
            "id": 4,
            "number": -1
        }
    ],
    "win_conditions": [
        {
            "bodyEnteredArea": [
                {
                    "RECT": [
                        {
                            "x": 3,
                            "y": 13
                        },
                        {
                            "x": 7,
                            "y": 15
                        }
                    ]
                },
                "1"
            ]
        }
    ],
    "lose_conditions": [
        {
            "bodyEnteredArea": [
                {
                    "RECT": [
                        {
                            "x": 17,
                            "y": 13
                        },
                        {
                            "x": 21,
                            "y": 17
                        }
                    ]
                },
                "1"
            ]
        },
        {
            "greaterThan": [
                "time",
                10000
            ]
        }
    ],
    "blocks": [
        {
            "shape_block": {
                "x": 3,
                "y": 10,
                "id": 3,
                "rotation": 90,
                "reflected": false
            }
        },
        {
            "shape_block": {
                "x": 8,
                "y": 10,
                "id": 3,
                "rotation": 90,
                "reflected": false
            }
        },
        {
            "shape_block": {
                "x": 5,
                "y": 8,
                "id": 4,
                "rotation": 90,
                "reflected": false
            }
        },
        {
            "shape_block": {
                "x": 5,
                "y": 9,
                "id": 4,
                "rotation": 90,
                "reflected": false
            }
        },
        {
            "shape_block": {
                "x": 6,
                "y": 9,
                "id": 4,
                "rotation": 90,
                "reflected": false
            }
        },
        {
            "shape_block": {
                "x": 6,
                "y": 8,
                "id": 4,
                "rotation": 90,
                "reflected": false
            }
        },
        {
            "shape_block": {
                "x": 4,
                "y": 10,
                "id": 4,
                "rotation": 90,
                "reflected": false
            }
        },
        {
            "shape_block": {
                "x": 5,
                "y": 10,
                "id": 4,
                "rotation": 90,
                "reflected": false
            }
        },
        {
            "shape_block": {
                "x": 6,
                "y": 10,
                "id": 4,
                "rotation": 90,
                "reflected": false
            }
        },
        {
            "shape_block": {
                "x": 7,
                "y": 10,
                "id": 4,
                "rotation": 90,
                "reflected": false
            }
        },
        {
            "shape_block": {
                "x": 8,
                "y": 13,
                "id": 4,
                "rotation": 0,
                "reflected": false
            }
        },
        {
            "shape_block": {
                "x": 9,
                "y": 14,
                "id": 4,
                "rotation": 0,
                "reflected": false
            }
        },
        {
            "shape_block": {
                "x": 10,
                "y": 15,
                "id": 4,
                "rotation": 0,
                "reflected": false
            }
        },
        {
            "shape_block": {
                "x": 8,
                "y": 15,
                "id": 1,
                "rotation": 180,
                "reflected": false
            }
        },
        {
            "shape_block": {
                "x": 9,
                "y": 16,
                "id": 1,
                "rotation": 0,
                "reflected": false
            }
        },
        {
            "shape_block": {
                "x": 12,
                "y": 16,
                "id": 1,
                "rotation": 0,
                "reflected": false
            }
        },
        {
            "shape_block": {
                "x": 15,
                "y": 16,
                "id": 1,
                "rotation": 0,
                "reflected": false
            }
        },
        {
            "static_block": {
                "x": 10,
                "y": 17,
                "w": 2,
                "h": 2
            }
        },
        {
            "static_block": {
                "x": 13,
                "y": 17,
                "w": 2,
                "h": 2
            }
        },
        {
            "static_block": {
                "x": 8,
                "y": 5,
                "w": 1,
                "h": 1
            }
        },
        {
            "shape_block": {
                "x": 7,
                "y": 12,
                "id": 4,
                "rotation": 0,
                "reflected": false
            }
        },
        {
            "shape_block": {
                "x": 7,
                "y": 13,
                "id": 3,
                "rotation": 90,
                "reflected": false
            }
        },
        {
            "static_block": {
                "x": 10,
                "y": 9,
                "w": 7,
                "h": 1
            }
        }
    ],
    "dynamic_objects": [
        {
            "floating": {
                "x": 6,
                "y": 11,
                "id": "main_car"
            }
        },
        {
            "ball": {
                "x": 13,
                "y": 15,
                "id": "1"
            }
        }
    ]
}
