{
    "name": "Toy box",
    "author_nickname": "AndyB",
    "notes": "Tidy up all the toys into the box.",
    "hint1": "Try to drop the balls onto blocks that bounce them sideways. ",
    "hint2": "Drop a heavy block onto the car to bounce it backwards.",
    "hint3": "",
    "discussion_id": "225",
    "discussion_slug": "225-toy-box",
    "highlight_notes": false,
    "effects": {},
    "zoom": {
        "w": 49.73900357429328,
        "x": -0.8453614084147109,
        "y": 4.699742669785221
    },
    "shapes": [
        {
            "id": 0,
            "number": -1
        },
        {
            "id": 1,
            "number": -1
        },
        {
            "id": 2,
            "number": -1
        },
        {
            "id": 3,
            "number": -1
        },
        {
            "id": 4,
            "number": -1
        }
    ],
    "win_conditions": [
        {
            "and": [
                {
                    "bodyEnteredArea": [
                        {
                            "RECT": [
                                {
                                    "x": -1,
                                    "y": 28
                                },
                                {
                                    "x": 8,
                                    "y": 37
                                }
                            ]
                        },
                        "main_car"
                    ]
                },
                {
                    "bodyEnteredArea": [
                        {
                            "RECT": [
                                {
                                    "x": -1,
                                    "y": 28
                                },
                                {
                                    "x": 8,
                                    "y": 37
                                }
                            ]
                        },
                        "1"
                    ]
                },
                {
                    "bodyEnteredArea": [
                        {
                            "RECT": [
                                {
                                    "x": -1,
                                    "y": 28
                                },
                                {
                                    "x": 8,
                                    "y": 37
                                }
                            ]
                        },
                        "2"
                    ]
                },
                {
                    "bodyEnteredArea": [
                        {
                            "RECT": [
                                {
                                    "x": -1,
                                    "y": 28
                                },
                                {
                                    "x": 8,
                                    "y": 37
                                }
                            ]
                        },
                        "3"
                    ]
                },
                {
                    "bodyEnteredArea": [
                        {
                            "RECT": [
                                {
                                    "x": -1,
                                    "y": 28
                                },
                                {
                                    "x": 8,
                                    "y": 37
                                }
                            ]
                        },
                        "4"
                    ]
                }
            ]
        }
    ],
    "lose_conditions": [
        {
            "greaterThan": [
                "time",
                10000
            ]
        }
    ],
    "blocks": [
        {
            "static_block": {
                "x": -2,
                "y": 28,
                "w": 1,
                "h": 10
            }
        },
        {
            "static_block": {
                "x": -1,
                "y": 37,
                "w": 9,
                "h": 1
            }
        },
        {
            "static_block": {
                "x": 8,
                "y": 28,
                "w": 1,
                "h": 10
            }
        },
        {
            "static_block": {
                "x": 13,
                "y": 20,
                "w": 8,
                "h": 1
            }
        },
        {
            "static_block": {
                "x": 21,
                "y": 13,
                "w": 2,
                "h": 8
            }
        },
        {
            "static_block": {
                "x": 23,
                "y": 13,
                "w": 3,
                "h": 1
            }
        },
        {
            "static_block": {
                "x": -6,
                "y": 14,
                "w": 2,
                "h": 2
            }
        },
        {
            "static_block": {
                "x": 3,
                "y": 0,
                "w": 3,
                "h": 2
            }
        },
        {
            "static_block": {
                "x": 10,
                "y": 9,
                "w": 2,
                "h": 2
            }
        }
    ],
    "dynamic_objects": [
        {
            "simple_car": {
                "x": 15,
                "y": 16,
                "id": "main_car"
            }
        },
        {
            "left_car": {
                "x": 24,
                "y": 10,
                "id": "1"
            }
        },
        {
            "ball": {
                "x": -5,
                "y": 9,
                "id": "2"
            }
        },
        {
            "bouncy": {
                "x": 4,
                "y": -6,
                "id": "3"
            }
        },
        {
            "box": {
                "x": 11,
                "y": 3,
                "id": "4"
            }
        }
    ]
}
