{
    "name": "Treefall",
    "author_nickname": "AndyB",
    "notes": "Persuade the ball to nestle under the tree.",
    "hint1": "You might be able to roll the ball over the edge and back.",
    "hint2": "If you can't roll it subtly, you can probably build a big structure sticking out to the right to guide the ball back down.",
    "hint3": "",
    "discussion_id": "230",
    "discussion_slug": "230-treefall",
    "highlight_notes": false,
    "effects": {},
    "zoom": {
        "w": 20,
        "x": -0.0425531914893611,
        "y": 0.10638297872340444
    },
    "shapes": [
        {
            "id": 0,
            "number": -1
        },
        {
            "id": 1,
            "number": -1
        },
        {
            "id": 2,
            "number": -1
        },
        {
            "id": 3,
            "number": -1
        },
        {
            "id": 4,
            "number": -1
        }
    ],
    "win_conditions": [
        {
            "bodyEnteredArea": [
                {
                    "RECT": [
                        {
                            "x": 10,
                            "y": 14
                        },
                        {
                            "x": 12,
                            "y": 16
                        }
                    ]
                },
                "main_car"
            ]
        }
    ],
    "lose_conditions": [
        {
            "greaterThan": [
                "time",
                10000
            ]
        }
    ],
    "blocks": [
        {
            "static_block": {
                "x": 3,
                "y": 16,
                "w": 14,
                "h": 1
            }
        },
        {
            "static_block": {
                "x": 9,
                "y": 11,
                "w": 1,
                "h": 5
            }
        },
        {
            "static_block": {
                "x": 7,
                "y": 11,
                "w": 2,
                "h": 1
            }
        },
        {
            "static_block": {
                "x": 9,
                "y": 10,
                "w": 4,
                "h": 1
            }
        },
        {
            "static_block": {
                "x": 9,
                "y": 8,
                "w": 1,
                "h": 2
            }
        },
        {
            "static_block": {
                "x": 10,
                "y": 8,
                "w": 4,
                "h": 1
            }
        },
        {
            "static_block": {
                "x": 6,
                "y": 8,
                "w": 3,
                "h": 1
            }
        },
        {
            "static_block": {
                "x": 5,
                "y": 9,
                "w": 1,
                "h": 1
            }
        },
        {
            "static_block": {
                "x": 14,
                "y": 9,
                "w": 2,
                "h": 1
            }
        },
        {
            "shape_block": {
                "x": 5,
                "y": 7,
                "id": 3,
                "rotation": 90,
                "reflected": false
            }
        },
        {
            "shape_block": {
                "x": 7,
                "y": 9,
                "id": 3,
                "rotation": 90,
                "reflected": false
            }
        },
        {
            "shape_block": {
                "x": 12,
                "y": 9,
                "id": 3,
                "rotation": 180,
                "reflected": false
            }
        },
        {
            "shape_block": {
                "x": 15,
                "y": 8,
                "id": 3,
                "rotation": 270,
                "reflected": false
            }
        },
        {
            "shape_block": {
                "x": 12,
                "y": 7,
                "id": 3,
                "rotation": 270,
                "reflected": false
            }
        },
        {
            "shape_block": {
                "x": 8,
                "y": 7,
                "id": 3,
                "rotation": 270,
                "reflected": false
            }
        }
    ],
    "dynamic_objects": [
        {
            "ball": {
                "x": 10,
                "y": 3,
                "id": "main_car"
            }
        }
    ]
}