{
    "name": "Motor on",
    "author_nickname": "JAB",
    "notes": "Get the right hand car into the green zone!",
    "hint1": "How could you use the other car and the green ball?",
    "hint2": "Look at circus level for a clue.",
    "hint3": "Use the upside down car to spin the ball and push the main car to the green zone.",
    "discussion_id": "256",
    "discussion_slug": "256-motor-on",
    "highlight_notes": false,
    "effects": {},
    "zoom": {
        "w": 60,
        "x": 0,
        "y": 0
    },
    "shapes": [
        {
            "id": 2,
            "number": 5
        },
        {
            "id": 3,
            "number": 1
        },
        {
            "id": 4,
            "number": 6
        }
    ],
    "win_conditions": [
        {
            "bodyEnteredArea": [
                {
                    "RECT": [
                        {
                            "x": -2,
                            "y": 9
                        },
                        {
                            "x": 2,
                            "y": 13
                        }
                    ]
                },
                "car_goal"
            ]
        }
    ],
    "lose_conditions": [
        {
            "greaterThan": [
                "time",
                8000
            ]
        }
    ],
    "blocks": [
        {
            "static_block": {
                "x": -3,
                "y": 13,
                "w": 28,
                "h": 1
            }
        },
        {
            "static_block": {
                "x": 2,
                "y": 9,
                "w": 1,
                "h": 4
            }
        },
        {
            "static_block": {
                "x": 11,
                "y": 12,
                "w": 2,
                "h": 1
            }
        },
        {
            "static_block": {
                "x": -3,
                "y": 9,
                "w": 1,
                "h": 4
            }
        }
    ],
    "dynamic_objects": [
        {
            "simple_car": {
                "x": 3,
                "y": 7,
                "id": "main_car"
            }
        },
        {
            "bouncy": {
                "x": 11,
                "y": 5,
                "id": "1"
            }
        },
        {
            "left_car": {
                "x": 23,
                "y": 11.999999999999998,
                "id": "car_goal"
            }
        }
    ]
}
