{
    "name": "Car tumble",
    "author_nickname": "cf",
    "notes": "How are we going to get back over there?",
    "hint1": "Build a tower up from the bottom bit of ground.",
    "hint2": "Make your tower topple to the left and bash the car into the green.",
    "hint3": "Try making your tower stick out to the left to catch the car early enough in its fall.",
    "discussion_id": "268",
    "discussion_slug": "268-car-tumble",
    "effects": {},
    "zoom": {
        "w": 59.71967999999998,
        "x": -0.14016000000000986,
        "y": -0.14016000000000986
    },
    "shapes": [
        {
            "id": 0,
            "number": -1
        },
        {
            "id": 1,
            "number": -1
        },
        {
            "id": 2,
            "number": -1
        },
        {
            "id": 3,
            "number": -1
        },
        {
            "id": 4,
            "number": -1
        }
    ],
    "win_conditions": [
        {
            "bodyEnteredArea": [
                {
                    "RECT": [
                        {
                            "x": -7,
                            "y": 17
                        },
                        {
                            "x": -5,
                            "y": 19
                        }
                    ]
                },
                "main_car"
            ]
        }
    ],
    "lose_conditions": [
        {
            "bodyEnteredArea": [
                {
                    "RECT": [
                        {
                            "x": -13,
                            "y": 26
                        },
                        {
                            "x": 25,
                            "y": 28
                        }
                    ]
                },
                "main_car"
            ]
        }
    ],
    "blocks": [
        {
            "static_block": {
                "x": -9,
                "y": 1,
                "w": 4,
                "h": 1
            }
        },
        {
            "static_block": {
                "x": -5,
                "y": 2,
                "w": 1,
                "h": 1
            }
        },
        {
            "static_block": {
                "x": -4,
                "y": 3,
                "w": 1,
                "h": 1
            }
        },
        {
            "static_block": {
                "x": -3,
                "y": 4,
                "w": 1,
                "h": 1
            }
        },
        {
            "shape_block": {
                "x": -5,
                "y": 1,
                "id": 4,
                "rotation": 0,
                "reflected": false
            }
        },
        {
            "shape_block": {
                "x": -4,
                "y": 2,
                "id": 4,
                "rotation": 0,
                "reflected": false
            }
        },
        {
            "shape_block": {
                "x": -3,
                "y": 3,
                "id": 4,
                "rotation": 0,
                "reflected": false
            }
        },
        {
            "static_block": {
                "x": -2,
                "y": 5,
                "w": 1,
                "h": 1
            }
        },
        {
            "static_block": {
                "x": -1,
                "y": 6,
                "w": 1,
                "h": 1
            }
        },
        {
            "shape_block": {
                "x": -2,
                "y": 4,
                "id": 4,
                "rotation": 0,
                "reflected": false
            }
        },
        {
            "shape_block": {
                "x": -1,
                "y": 5,
                "id": 4,
                "rotation": 0,
                "reflected": false
            }
        },
        {
            "static_block": {
                "x": 10,
                "y": 21,
                "w": 3,
                "h": 1
            }
        }
    ],
    "dynamic_objects": [
        {
            "simple_car": {
                "x": -7,
                "y": -3,
                "id": "main_car"
            }
        }
    ]
}
