{
    "name": "Switch",
    "author_nickname": "cf",
    "notes": "Get each block to the other side.",
    "hint1": "Build toppling towers so the cubes fall to the right place.",
    "hint2": "When your first tower topples it should knock the second, causing it to fall.",
    "hint3": "The second block can slide down the back of the first tower to the green!",
    "discussion_id": "328",
    "discussion_slug": "328-switch",
    "highlight_notes": false,
    "effects": {},
    "zoom": {
        "w": 20,
        "x": 1.1752136752136755,
        "y": 0.06410256410256351
    },
    "shapes": [
        {
            "id": 0,
            "number": 4
        },
        {
            "id": 4,
            "number": 2
        },
        {
            "id": 1,
            "number": -1
        },
        {
            "id": 2,
            "number": -1
        },
        {
            "id": 3,
            "number": 9
        }
    ],
    "win_conditions": [
        {
            "and": [
                {
                    "bodyEnteredArea": [
                        {
                            "RECT": [
                                {
                                    "x": 15,
                                    "y": 12
                                },
                                {
                                    "x": 18,
                                    "y": 15
                                }
                            ]
                        },
                        "main_car"
                    ]
                },
                {
                    "bodyEnteredArea": [
                        {
                            "RECT": [
                                {
                                    "x": 4,
                                    "y": 12
                                },
                                {
                                    "x": 7,
                                    "y": 15
                                }
                            ]
                        },
                        "1"
                    ]
                }
            ]
        }
    ],
    "lose_conditions": [
        {
            "bodyEnteredArea": [
                {
                    "RECT": [
                        {
                            "x": 9,
                            "y": 14
                        },
                        {
                            "x": 13,
                            "y": 16
                        }
                    ]
                },
                "main_car"
            ]
        },
        {
            "greaterThan": [
                "time",
                10000
            ]
        }
    ],
    "blocks": [
        {
            "static_block": {
                "x": 4,
                "y": 15,
                "w": 5,
                "h": 2
            }
        },
        {
            "static_block": {
                "x": 9,
                "y": 16,
                "w": 4,
                "h": 1
            }
        },
        {
            "static_block": {
                "x": 13,
                "y": 15,
                "w": 5,
                "h": 2
            }
        },
        {
            "shape_block": {
                "x": 4,
                "y": 13,
                "id": 3,
                "rotation": 90,
                "reflected": false
            }
        },
        {
            "shape_block": {
                "x": 4,
                "y": 11,
                "id": 3,
                "rotation": 90,
                "reflected": false
            }
        },
        {
            "shape_block": {
                "x": 4,
                "y": 9,
                "id": 3,
                "rotation": 90,
                "reflected": false
            }
        },
        {
            "shape_block": {
                "x": 4,
                "y": 7,
                "id": 3,
                "rotation": 90,
                "reflected": false
            }
        },
        {
            "shape_block": {
                "x": 6,
                "y": 7,
                "id": 3,
                "rotation": 180,
                "reflected": false
            }
        },
        {
            "shape_block": {
                "x": 3,
                "y": 7,
                "id": 4,
                "rotation": 180,
                "reflected": false
            }
        },
        {
            "shape_block": {
                "x": 17,
                "y": 13,
                "id": 0,
                "rotation": 90,
                "reflected": true
            }
        },
        {
            "shape_block": {
                "x": 17,
                "y": 10,
                "id": 0,
                "rotation": 90,
                "reflected": true
            }
        },
        {
            "shape_block": {
                "x": 16,
                "y": 7,
                "id": 0,
                "rotation": 0,
                "reflected": false
            }
        },
        {
            "shape_block": {
                "x": 13,
                "y": 7,
                "id": 3,
                "rotation": 0,
                "reflected": false
            }
        },
        {
            "shape_block": {
                "x": 18,
                "y": 6,
                "id": 3,
                "rotation": 90,
                "reflected": false
            }
        },
        {
            "shape_block": {
                "x": 18,
                "y": 4,
                "id": 3,
                "rotation": 90,
                "reflected": false
            }
        }
    ],
    "dynamic_objects": [
        {
            "box": {
                "x": 5,
                "y": 6,
                "id": "main_car"
            }
        },
        {
            "box": {
                "x": 17,
                "y": 6,
                "id": "1"
            }
        }
    ]
}
