{
    "name": "Bowl",
    "author_nickname": "AndyB",
    "notes": "Get to the underside!",
    "hint1": "Ramp out of the bowl.",
    "hint2": "Build a structure around the bowl that guides the car under.",
    "hint3": "Counter-balance your structure to stop it collapsing.",
    "discussion_id": "208",
    "discussion_slug": "208-bowl",
    "highlight_notes": false,
    "effects": {},
    "zoom": {
        "x": 0,
        "y": 0,
        "w": 20
    },
    "shapes": [
        {
            "id": 0,
            "number": -1
        },
        {
            "id": 1,
            "number": -1
        },
        {
            "id": 2,
            "number": -1
        },
        {
            "id": 3,
            "number": -1
        },
        {
            "id": 4,
            "number": -1
        }
    ],
    "win_conditions": [
        {
            "bodyEnteredArea": [
                {
                    "RECT": [
                        {
                            "x": 3,
                            "y": 16
                        },
                        {
                            "x": 15,
                            "y": 18
                        }
                    ]
                },
                "main_car"
            ]
        },
        {
            "bodyEnteredArea": [
                {
                    "RECT": [
                        {
                            "x": 11,
                            "y": 15
                        },
                        {
                            "x": 15,
                            "y": 16
                        }
                    ]
                },
                "main_car"
            ]
        },
        {
            "bodyEnteredArea": [
                {
                    "RECT": [
                        {
                            "x": 13,
                            "y": 14
                        },
                        {
                            "x": 15,
                            "y": 15
                        }
                    ]
                },
                "main_car"
            ]
        },
        {
            "bodyEnteredArea": [
                {
                    "RECT": [
                        {
                            "x": 14,
                            "y": 13
                        },
                        {
                            "x": 15,
                            "y": 14
                        }
                    ]
                },
                "main_car"
            ]
        },
        {
            "bodyEnteredArea": [
                {
                    "RECT": [
                        {
                            "x": 5,
                            "y": 15
                        },
                        {
                            "x": 7,
                            "y": 16
                        }
                    ]
                },
                "main_car"
            ]
        },
        {
            "bodyEnteredArea": [
                {
                    "RECT": [
                        {
                            "x": 3,
                            "y": 14
                        },
                        {
                            "x": 5,
                            "y": 16
                        }
                    ]
                },
                "main_car"
            ]
        },
        {
            "bodyEnteredArea": [
                {
                    "RECT": [
                        {
                            "x": 3,
                            "y": 13
                        },
                        {
                            "x": 4,
                            "y": 14
                        }
                    ]
                },
                "main_car"
            ]
        }
    ],
    "lose_conditions": [
        {
            "greaterThan": [
                "time",
                20000
            ]
        }
    ],
    "blocks": [
        {
            "static_block": {
                "x": 3,
                "y": 9,
                "w": 1,
                "h": 4
            }
        },
        {
            "static_block": {
                "x": 4,
                "y": 13,
                "w": 1,
                "h": 1
            }
        },
        {
            "static_block": {
                "x": 5,
                "y": 14,
                "w": 2,
                "h": 1
            }
        },
        {
            "static_block": {
                "x": 7,
                "y": 15,
                "w": 4,
                "h": 1
            }
        },
        {
            "static_block": {
                "x": 11,
                "y": 14,
                "w": 2,
                "h": 1
            }
        },
        {
            "static_block": {
                "x": 13,
                "y": 13,
                "w": 1,
                "h": 1
            }
        },
        {
            "static_block": {
                "x": 14,
                "y": 9,
                "w": 1,
                "h": 4
            }
        },
        {
            "shape_block": {
                "x": 13,
                "y": 9,
                "id": 4,
                "rotation": 270,
                "reflected": false
            }
        },
        {
            "shape_block": {
                "x": 12,
                "y": 10,
                "id": 4,
                "rotation": 270,
                "reflected": false
            }
        },
        {
            "shape_block": {
                "x": 11,
                "y": 11,
                "id": 4,
                "rotation": 270,
                "reflected": false
            }
        },
        {
            "shape_block": {
                "x": 10,
                "y": 12,
                "id": 4,
                "rotation": 270,
                "reflected": false
            }
        },
        {
            "shape_block": {
                "x": 9,
                "y": 13,
                "id": 4,
                "rotation": 270,
                "reflected": false
            }
        },
        {
            "shape_block": {
                "x": 6,
                "y": 13,
                "id": 3,
                "rotation": 0,
                "reflected": false
            }
        },
        {
            "shape_block": {
                "x": 8,
                "y": 13,
                "id": 3,
                "rotation": 90,
                "reflected": false
            }
        },
        {
            "shape_block": {
                "x": 10,
                "y": 14,
                "id": 3,
                "rotation": 180,
                "reflected": false
            }
        },
        {
            "shape_block": {
                "x": 11,
                "y": 13,
                "id": 3,
                "rotation": 180,
                "reflected": false
            }
        },
        {
            "shape_block": {
                "x": 13,
                "y": 11,
                "id": 1,
                "rotation": 90,
                "reflected": false
            }
        },
        {
            "shape_block": {
                "x": 12,
                "y": 12,
                "id": 3,
                "rotation": 180,
                "reflected": false
            }
        },
        {
            "shape_block": {
                "x": 3,
                "y": 7,
                "id": 0,
                "rotation": 270,
                "reflected": false
            }
        },
        {
            "shape_block": {
                "x": 3,
                "y": 4,
                "id": 0,
                "rotation": 270,
                "reflected": false
            }
        },
        {
            "shape_block": {
                "x": 6,
                "y": 3,
                "id": 0,
                "rotation": 0,
                "reflected": false
            }
        },
        {
            "shape_block": {
                "x": 1,
                "y": 3,
                "id": 0,
                "rotation": 0,
                "reflected": true
            }
        },
        {
            "shape_block": {
                "x": 9,
                "y": 3,
                "id": 0,
                "rotation": 0,
                "reflected": false
            }
        },
        {
            "shape_block": {
                "x": -2,
                "y": 3,
                "id": 0,
                "rotation": 0,
                "reflected": true
            }
        },
        {
            "shape_block": {
                "x": 12,
                "y": 3,
                "id": 0,
                "rotation": 0,
                "reflected": true
            }
        },
        {
            "shape_block": {
                "x": -5,
                "y": 3,
                "id": 0,
                "rotation": 0,
                "reflected": false
            }
        },
        {
            "shape_block": {
                "x": 15,
                "y": 3,
                "id": 0,
                "rotation": 0,
                "reflected": false
            }
        },
        {
            "shape_block": {
                "x": -8,
                "y": 3,
                "id": 0,
                "rotation": 0,
                "reflected": true
            }
        },
        {
            "shape_block": {
                "x": 18,
                "y": 5,
                "id": 0,
                "rotation": 90,
                "reflected": true
            }
        },
        {
            "shape_block": {
                "x": 2,
                "y": 8,
                "id": 0,
                "rotation": 90,
                "reflected": true
            }
        },
        {
            "shape_block": {
                "x": 2,
                "y": 11,
                "id": 0,
                "rotation": 90,
                "reflected": true
            }
        },
        {
            "shape_block": {
                "x": 2,
                "y": 14,
                "id": 0,
                "rotation": 90,
                "reflected": true
            }
        },
        {
            "shape_block": {
                "x": 2,
                "y": 17,
                "id": 0,
                "rotation": 270,
                "reflected": true
            }
        },
        {
            "shape_block": {
                "x": 5,
                "y": 18,
                "id": 0,
                "rotation": 0,
                "reflected": true
            }
        },
        {
            "shape_block": {
                "x": 8,
                "y": 18,
                "id": 0,
                "rotation": 0,
                "reflected": true
            }
        },
        {
            "shape_block": {
                "x": 11,
                "y": 18,
                "id": 0,
                "rotation": 0,
                "reflected": true
            }
        },
        {
            "shape_block": {
                "x": 14,
                "y": 18,
                "id": 0,
                "rotation": 0,
                "reflected": true
            }
        },
        {
            "shape_block": {
                "x": 17,
                "y": 18,
                "id": 0,
                "rotation": 0,
                "reflected": true
            }
        },
        {
            "shape_block": {
                "x": 18,
                "y": 16,
                "id": 0,
                "rotation": 270,
                "reflected": true
            }
        },
        {
            "shape_block": {
                "x": 18,
                "y": 13,
                "id": 0,
                "rotation": 270,
                "reflected": true
            }
        },
        {
            "shape_block": {
                "x": 18,
                "y": 10,
                "id": 0,
                "rotation": 270,
                "reflected": true
            }
        },
        {
            "shape_block": {
                "x": 18,
                "y": 8,
                "id": 3,
                "rotation": 90,
                "reflected": true
            }
        },
        {
            "shape_block": {
                "x": 1,
                "y": 9,
                "id": 2,
                "rotation": 90,
                "reflected": true
            }
        },
        {
            "shape_block": {
                "x": -1,
                "y": 9,
                "id": 2,
                "rotation": 90,
                "reflected": true
            }
        },
        {
            "shape_block": {
                "x": -3,
                "y": 9,
                "id": 2,
                "rotation": 90,
                "reflected": true
            }
        },
        {
            "shape_block": {
                "x": -5,
                "y": 9,
                "id": 2,
                "rotation": 90,
                "reflected": true
            }
        },
        {
            "shape_block": {
                "x": -7,
                "y": 9,
                "id": 2,
                "rotation": 90,
                "reflected": true
            }
        },
        {
            "shape_block": {
                "x": -9,
                "y": 9,
                "id": 2,
                "rotation": 90,
                "reflected": true
            }
        },
        {
            "shape_block": {
                "x": -9,
                "y": 6,
                "id": 2,
                "rotation": 90,
                "reflected": true
            }
        },
        {
            "shape_block": {
                "x": -7,
                "y": 7,
                "id": 2,
                "rotation": 90,
                "reflected": true
            }
        },
        {
            "shape_block": {
                "x": -5,
                "y": 7,
                "id": 2,
                "rotation": 90,
                "reflected": true
            }
        },
        {
            "shape_block": {
                "x": -9,
                "y": 11,
                "id": 2,
                "rotation": 90,
                "reflected": true
            }
        },
        {
            "shape_block": {
                "x": -9,
                "y": 13,
                "id": 2,
                "rotation": 90,
                "reflected": true
            }
        },
        {
            "shape_block": {
                "x": -9,
                "y": 15,
                "id": 2,
                "rotation": 90,
                "reflected": true
            }
        },
        {
            "shape_block": {
                "x": 14,
                "y": 8,
                "id": 4,
                "rotation": 0,
                "reflected": true
            }
        }
    ],
    "dynamic_objects": [
        {
            "simple_car": {
                "x": 7,
                "y": 12,
                "id": "main_car"
            }
        }
    ]
}