<?xml version="1.0" encoding="UTF-8" standalone="no"?>
<!-- Created with Inkscape (http://www.inkscape.org/) -->

<svg
   width="1200mm"
   height="300mm"
   viewBox="0 0 1200 300"
   version="1.1"
   id="svg5"
   inkscape:version="1.1.2 (0a00cf5339, 2022-02-04)"
   sodipodi:docname="dynamicfloating.svg"
   xmlns:inkscape="http://www.inkscape.org/namespaces/inkscape"
   xmlns:sodipodi="http://sodipodi.sourceforge.net/DTD/sodipodi-0.dtd"
   xmlns="http://www.w3.org/2000/svg"
   xmlns:svg="http://www.w3.org/2000/svg">
  <sodipodi:namedview
     id="namedview7"
     pagecolor="#505050"
     bordercolor="#eeeeee"
     borderopacity="1"
     inkscape:pageshadow="0"
     inkscape:pageopacity="0"
     inkscape:pagecheckerboard="true"
     inkscape:document-units="px"
     showgrid="false"
     units="mm"
     height="400mm"
     inkscape:zoom="0.11313709"
     inkscape:cx="3005.2038"
     inkscape:cy="667.33202"
     inkscape:window-width="1876"
     inkscape:window-height="1015"
     inkscape:window-x="44"
     inkscape:window-y="41"
     inkscape:window-maximized="1"
     inkscape:current-layer="layer2"
     width="300mm" />
  <defs
     id="defs2" />
  <g
     inkscape:label="Layer 1"
     inkscape:groupmode="layer"
     id="layer1" />
  <g
     inkscape:groupmode="layer"
     id="layer2"
     inkscape:label="detail">
    <g
       id="g26">
      <rect
         style="fill:#6363ba;fill-opacity:1;stroke:#424296;stroke-width:7.38171;stroke-miterlimit:4;stroke-dasharray:none;stroke-opacity:1"
         id="rect1057"
         width="292.66376"
         height="292.61829"
         x="3.690855"
         y="3.690855" />
      <path
         id="path4751-3"
         style="fill:#424296;fill-opacity:1;stroke:none;stroke-width:0;stroke-linecap:butt;stroke-linejoin:miter;stroke-miterlimit:4;stroke-dasharray:none;stroke-opacity:1"
         d="m 295.14645,156.73605 v 8.29703 c -20.86692,1.69923 -39.68793,16.13373 -39.73941,23.95003 0.27708,8.80644 18.73448,18.59005 39.73941,18.4504 v 6.91202 c -23.62156,0.18966 -44.37787,-13.10303 -44.68984,-25.06856 0.0601,-10.62035 21.22349,-30.23219 44.68984,-32.54092 z" />
      <path
         style="fill:none;fill-opacity:1;stroke:#424296;stroke-width:5.78852;stroke-linecap:butt;stroke-linejoin:miter;stroke-miterlimit:4;stroke-dasharray:none;stroke-opacity:1"
         d="M 5.3272338,65.772088 C 101.79751,71.207318 199.57715,75.500538 294.51773,102.55421"
         id="path9404"
         sodipodi:nodetypes="cc" />
      <path
         id="path19101"
         style="fill:#424296;fill-opacity:1;stroke:none;stroke-width:6.90166;stroke-linecap:butt;stroke-linejoin:miter;stroke-miterlimit:4;stroke-dasharray:none;stroke-opacity:1"
         d="M 3.5958638,75.406758 4.1377438,212.715 C 99.724844,246.35459 228.32979,188.78897 222.98233,167.30279 215.16855,135.90714 93.188124,86.415248 3.5957838,75.406758 Z"
         sodipodi:nodetypes="ccsc" />
      <path
         id="path19101-6"
         style="fill:#6363ba;fill-opacity:1;stroke:none;stroke-width:6.08573;stroke-linecap:butt;stroke-linejoin:miter;stroke-miterlimit:4;stroke-dasharray:none;stroke-opacity:1"
         d="M 6.7395371,89.557008 7.2427868,204.54338 C 95.990954,232.71425 215.39486,184.50693 210.43003,166.51369 203.17529,140.22207 89.921949,98.775858 6.7395371,89.557008 Z"
         sodipodi:nodetypes="ccsc" />
      <path
         id="path4751"
         style="fill:#424296;fill-opacity:1;stroke:none;stroke-width:0;stroke-linecap:butt;stroke-linejoin:miter;stroke-miterlimit:4;stroke-dasharray:none;stroke-opacity:1"
         d="m 4.0937038,107.03217 v 12.77309 c 49.5119702,2.61602 94.1700202,24.83787 94.2919902,36.87091 -0.65822,13.55747 -44.45217,28.61916 -94.2919902,28.40415 v 10.64114 C 60.142124,196.01369 109.39167,175.54939 110.13185,157.12845 109.99464,140.77874 59.773554,110.58641 4.0937038,107.03217 Z" />
      <path
         style="fill:none;stroke:#424296;stroke-width:5.78852;stroke-linecap:butt;stroke-linejoin:miter;stroke-miterlimit:4;stroke-dasharray:none;stroke-opacity:1"
         d="M 4.9646738,30.202388 C 100.45905,13.383448 200.13846,21.757118 294.8956,52.908928"
         id="path9406"
         sodipodi:nodetypes="cc" />
      <path
         style="fill:none;stroke:#424296;stroke-width:5.78852;stroke-linecap:butt;stroke-linejoin:miter;stroke-miterlimit:4;stroke-dasharray:none;stroke-opacity:1"
         d="M 4.3334338,239.03012 C 78.665524,261.6318 162.05882,234.2652 293.3521,242.65822"
         id="path9408"
         sodipodi:nodetypes="cc" />
      <path
         style="fill:none;stroke:#424296;stroke-width:5.78852;stroke-linecap:butt;stroke-linejoin:miter;stroke-miterlimit:4;stroke-dasharray:none;stroke-opacity:1"
         d="M 6.0880138,262.18262 C 169.98367,281.6019 230.66264,275.99644 294.3335,271.11637"
         id="path9410"
         sodipodi:nodetypes="cc" />
    </g>
    <g
       id="g26-3"
       transform="translate(300.04544)">
      <rect
         style="fill:#6363ba;fill-opacity:1;stroke:#424296;stroke-width:7.38171;stroke-miterlimit:4;stroke-dasharray:none;stroke-opacity:1"
         id="rect1057-6"
         width="292.66376"
         height="292.61829"
         x="3.690855"
         y="3.690855" />
      <path
         id="path4751-3-7"
         style="fill:#424296;fill-opacity:1;stroke:none;stroke-width:0;stroke-linecap:butt;stroke-linejoin:miter;stroke-miterlimit:4;stroke-dasharray:none;stroke-opacity:1"
         d="m 295.14645,156.73605 v 8.29703 c -20.86692,1.69923 -39.68793,16.13373 -39.73941,23.95003 0.27708,8.80644 18.73448,18.59005 39.73941,18.4504 v 6.91202 c -23.62156,0.18966 -44.37787,-13.10303 -44.68984,-25.06856 0.0601,-10.62035 21.22349,-30.23219 44.68984,-32.54092 z" />
      <path
         style="fill:none;fill-opacity:1;stroke:#424296;stroke-width:5.78852;stroke-linecap:butt;stroke-linejoin:miter;stroke-miterlimit:4;stroke-dasharray:none;stroke-opacity:1"
         d="M 5.3272338,65.772088 C 101.79751,71.207318 199.57715,75.500538 294.51773,102.55421"
         id="path9404-5"
         sodipodi:nodetypes="cc" />
      <path
         id="path19101-3"
         style="fill:#424296;fill-opacity:1;stroke:none;stroke-width:6.90166;stroke-linecap:butt;stroke-linejoin:miter;stroke-miterlimit:4;stroke-dasharray:none;stroke-opacity:1"
         d="M 3.5958638,75.406758 4.1377438,212.715 C 99.724844,246.35459 228.32979,188.78897 222.98233,167.30279 215.16855,135.90714 93.188124,86.415248 3.5957838,75.406758 Z"
         sodipodi:nodetypes="ccsc" />
      <path
         id="path19101-6-5"
         style="fill:#6363ba;fill-opacity:1;stroke:none;stroke-width:6.08573;stroke-linecap:butt;stroke-linejoin:miter;stroke-miterlimit:4;stroke-dasharray:none;stroke-opacity:1"
         d="M 6.7395371,89.557008 7.2427868,204.54338 C 95.990954,232.71425 215.39486,184.50693 210.43003,166.51369 203.17529,140.22207 89.921949,98.775858 6.7395371,89.557008 Z"
         sodipodi:nodetypes="ccsc" />
      <path
         id="path4751-6"
         style="fill:#424296;fill-opacity:1;stroke:none;stroke-width:0;stroke-linecap:butt;stroke-linejoin:miter;stroke-miterlimit:4;stroke-dasharray:none;stroke-opacity:1"
         d="m 4.0937038,107.03217 v 12.77309 c 49.5119702,2.61602 94.1700202,24.83787 94.2919902,36.87091 -0.65822,13.55747 -44.45217,28.61916 -94.2919902,28.40415 v 10.64114 C 60.142124,196.01369 109.39167,175.54939 110.13185,157.12845 109.99464,140.77874 59.773554,110.58641 4.0937038,107.03217 Z" />
      <path
         style="fill:none;stroke:#424296;stroke-width:5.78852;stroke-linecap:butt;stroke-linejoin:miter;stroke-miterlimit:4;stroke-dasharray:none;stroke-opacity:1"
         d="M 4.9646738,30.202388 C 100.45905,13.383448 200.13846,21.757118 294.8956,52.908928"
         id="path9406-2"
         sodipodi:nodetypes="cc" />
      <path
         style="fill:none;stroke:#424296;stroke-width:5.78852;stroke-linecap:butt;stroke-linejoin:miter;stroke-miterlimit:4;stroke-dasharray:none;stroke-opacity:1"
         d="M 4.3334338,239.03012 C 78.665524,261.6318 162.05882,234.2652 293.3521,242.65822"
         id="path9408-9"
         sodipodi:nodetypes="cc" />
      <path
         style="fill:none;stroke:#424296;stroke-width:5.78852;stroke-linecap:butt;stroke-linejoin:miter;stroke-miterlimit:4;stroke-dasharray:none;stroke-opacity:1"
         d="M 6.0880138,262.18262 C 169.98367,281.6019 230.66264,275.99644 294.3335,271.11637"
         id="path9410-1"
         sodipodi:nodetypes="cc" />
    </g>
    <g
       id="g26-2"
       transform="translate(600.09087)">
      <rect
         style="fill:#6363ba;fill-opacity:1;stroke:#424296;stroke-width:7.38171;stroke-miterlimit:4;stroke-dasharray:none;stroke-opacity:1"
         id="rect1057-7"
         width="292.66376"
         height="292.61829"
         x="3.690855"
         y="3.690855" />
      <path
         id="path4751-3-0"
         style="fill:#424296;fill-opacity:1;stroke:none;stroke-width:0;stroke-linecap:butt;stroke-linejoin:miter;stroke-miterlimit:4;stroke-dasharray:none;stroke-opacity:1"
         d="m 295.14645,156.73605 v 8.29703 c -20.86692,1.69923 -39.68793,16.13373 -39.73941,23.95003 0.27708,8.80644 18.73448,18.59005 39.73941,18.4504 v 6.91202 c -23.62156,0.18966 -44.37787,-13.10303 -44.68984,-25.06856 0.0601,-10.62035 21.22349,-30.23219 44.68984,-32.54092 z" />
      <path
         style="fill:none;fill-opacity:1;stroke:#424296;stroke-width:5.78852;stroke-linecap:butt;stroke-linejoin:miter;stroke-miterlimit:4;stroke-dasharray:none;stroke-opacity:1"
         d="M 5.3272338,65.772088 C 101.79751,71.207318 199.57715,75.500538 294.51773,102.55421"
         id="path9404-9"
         sodipodi:nodetypes="cc" />
      <path
         id="path19101-36"
         style="fill:#424296;fill-opacity:1;stroke:none;stroke-width:6.90166;stroke-linecap:butt;stroke-linejoin:miter;stroke-miterlimit:4;stroke-dasharray:none;stroke-opacity:1"
         d="M 3.5958638,75.406758 4.1377438,212.715 C 99.724844,246.35459 228.32979,188.78897 222.98233,167.30279 215.16855,135.90714 93.188124,86.415248 3.5957838,75.406758 Z"
         sodipodi:nodetypes="ccsc" />
      <path
         id="path19101-6-0"
         style="fill:#6363ba;fill-opacity:1;stroke:none;stroke-width:6.08573;stroke-linecap:butt;stroke-linejoin:miter;stroke-miterlimit:4;stroke-dasharray:none;stroke-opacity:1"
         d="M 6.7395371,89.557008 7.2427868,204.54338 C 95.990954,232.71425 215.39486,184.50693 210.43003,166.51369 203.17529,140.22207 89.921949,98.775858 6.7395371,89.557008 Z"
         sodipodi:nodetypes="ccsc" />
      <path
         id="path4751-62"
         style="fill:#424296;fill-opacity:1;stroke:none;stroke-width:0;stroke-linecap:butt;stroke-linejoin:miter;stroke-miterlimit:4;stroke-dasharray:none;stroke-opacity:1"
         d="m 4.0937038,107.03217 v 12.77309 c 49.5119702,2.61602 94.1700202,24.83787 94.2919902,36.87091 -0.65822,13.55747 -44.45217,28.61916 -94.2919902,28.40415 v 10.64114 C 60.142124,196.01369 109.39167,175.54939 110.13185,157.12845 109.99464,140.77874 59.773554,110.58641 4.0937038,107.03217 Z" />
      <path
         style="fill:none;stroke:#424296;stroke-width:5.78852;stroke-linecap:butt;stroke-linejoin:miter;stroke-miterlimit:4;stroke-dasharray:none;stroke-opacity:1"
         d="M 4.9646738,30.202388 C 100.45905,13.383448 200.13846,21.757118 294.8956,52.908928"
         id="path9406-6"
         sodipodi:nodetypes="cc" />
      <path
         style="fill:none;stroke:#424296;stroke-width:5.78852;stroke-linecap:butt;stroke-linejoin:miter;stroke-miterlimit:4;stroke-dasharray:none;stroke-opacity:1"
         d="M 4.3334338,239.03012 C 78.665524,261.6318 162.05882,234.2652 293.3521,242.65822"
         id="path9408-1"
         sodipodi:nodetypes="cc" />
      <path
         style="fill:none;stroke:#424296;stroke-width:5.78852;stroke-linecap:butt;stroke-linejoin:miter;stroke-miterlimit:4;stroke-dasharray:none;stroke-opacity:1"
         d="M 6.0880138,262.18262 C 169.98367,281.6019 230.66264,275.99644 294.3335,271.11637"
         id="path9410-8"
         sodipodi:nodetypes="cc" />
    </g>
    <g
       id="g26-3-7"
       transform="translate(900.13629)">
      <rect
         style="fill:#6363ba;fill-opacity:1;stroke:#424296;stroke-width:7.38171;stroke-miterlimit:4;stroke-dasharray:none;stroke-opacity:1"
         id="rect1057-6-9"
         width="292.66376"
         height="292.61829"
         x="3.690855"
         y="3.690855" />
      <path
         id="path4751-3-7-2"
         style="fill:#424296;fill-opacity:1;stroke:none;stroke-width:0;stroke-linecap:butt;stroke-linejoin:miter;stroke-miterlimit:4;stroke-dasharray:none;stroke-opacity:1"
         d="m 295.14645,156.73605 v 8.29703 c -20.86692,1.69923 -39.68793,16.13373 -39.73941,23.95003 0.27708,8.80644 18.73448,18.59005 39.73941,18.4504 v 6.91202 c -23.62156,0.18966 -44.37787,-13.10303 -44.68984,-25.06856 0.0601,-10.62035 21.22349,-30.23219 44.68984,-32.54092 z" />
      <path
         style="fill:none;fill-opacity:1;stroke:#424296;stroke-width:5.78852;stroke-linecap:butt;stroke-linejoin:miter;stroke-miterlimit:4;stroke-dasharray:none;stroke-opacity:1"
         d="M 5.3272338,65.772088 C 101.79751,71.207318 199.57715,75.500538 294.51773,102.55421"
         id="path9404-5-0"
         sodipodi:nodetypes="cc" />
      <path
         id="path19101-3-2"
         style="fill:#424296;fill-opacity:1;stroke:none;stroke-width:6.90166;stroke-linecap:butt;stroke-linejoin:miter;stroke-miterlimit:4;stroke-dasharray:none;stroke-opacity:1"
         d="M 3.5958638,75.406758 4.1377438,212.715 C 99.724844,246.35459 228.32979,188.78897 222.98233,167.30279 215.16855,135.90714 93.188124,86.415248 3.5957838,75.406758 Z"
         sodipodi:nodetypes="ccsc" />
      <path
         id="path19101-6-5-3"
         style="fill:#6363ba;fill-opacity:1;stroke:none;stroke-width:6.08573;stroke-linecap:butt;stroke-linejoin:miter;stroke-miterlimit:4;stroke-dasharray:none;stroke-opacity:1"
         d="M 6.7395371,89.557008 7.2427868,204.54338 C 95.990954,232.71425 215.39486,184.50693 210.43003,166.51369 203.17529,140.22207 89.921949,98.775858 6.7395371,89.557008 Z"
         sodipodi:nodetypes="ccsc" />
      <path
         id="path4751-6-7"
         style="fill:#424296;fill-opacity:1;stroke:none;stroke-width:0;stroke-linecap:butt;stroke-linejoin:miter;stroke-miterlimit:4;stroke-dasharray:none;stroke-opacity:1"
         d="m 4.0937038,107.03217 v 12.77309 c 49.5119702,2.61602 94.1700202,24.83787 94.2919902,36.87091 -0.65822,13.55747 -44.45217,28.61916 -94.2919902,28.40415 v 10.64114 C 60.142124,196.01369 109.39167,175.54939 110.13185,157.12845 109.99464,140.77874 59.773554,110.58641 4.0937038,107.03217 Z" />
      <path
         style="fill:none;stroke:#424296;stroke-width:5.78852;stroke-linecap:butt;stroke-linejoin:miter;stroke-miterlimit:4;stroke-dasharray:none;stroke-opacity:1"
         d="M 4.9646738,30.202388 C 100.45905,13.383448 200.13846,21.757118 294.8956,52.908928"
         id="path9406-2-5"
         sodipodi:nodetypes="cc" />
      <path
         style="fill:none;stroke:#424296;stroke-width:5.78852;stroke-linecap:butt;stroke-linejoin:miter;stroke-miterlimit:4;stroke-dasharray:none;stroke-opacity:1"
         d="M 4.3334338,239.03012 C 78.665524,261.6318 162.05882,234.2652 293.3521,242.65822"
         id="path9408-9-9"
         sodipodi:nodetypes="cc" />
      <path
         style="fill:none;stroke:#424296;stroke-width:5.78852;stroke-linecap:butt;stroke-linejoin:miter;stroke-miterlimit:4;stroke-dasharray:none;stroke-opacity:1"
         d="M 6.0880138,262.18262 C 169.98367,281.6019 230.66264,275.99644 294.3335,271.11637"
         id="path9410-1-2"
         sodipodi:nodetypes="cc" />
    </g>
  </g>
</svg>
