<?xml version="1.0" encoding="UTF-8" standalone="no"?>
<!-- Created with Inkscape (http://www.inkscape.org/) -->

<svg
   width="1000"
   height="1000"
   viewBox="0 0 264.58333 264.58334"
   version="1.1"
   id="svg84710"
   inkscape:version="1.1.2 (0a00cf5339, 2022-02-04)"
   sodipodi:docname="dynamiccube.svg"
   xmlns:inkscape="http://www.inkscape.org/namespaces/inkscape"
   xmlns:sodipodi="http://sodipodi.sourceforge.net/DTD/sodipodi-0.dtd"
   xmlns="http://www.w3.org/2000/svg"
   xmlns:svg="http://www.w3.org/2000/svg">
  <sodipodi:namedview
     id="namedview84712"
     pagecolor="#505050"
     bordercolor="#eeeeee"
     borderopacity="1"
     inkscape:pageshadow="0"
     inkscape:pageopacity="0"
     inkscape:pagecheckerboard="true"
     inkscape:document-units="mm"
     showgrid="false"
     units="px"
     inkscape:zoom="0.35355339"
     inkscape:cx="837.21443"
     inkscape:cy="507.70267"
     inkscape:window-width="1876"
     inkscape:window-height="1015"
     inkscape:window-x="44"
     inkscape:window-y="41"
     inkscape:window-maximized="1"
     inkscape:current-layer="layer1" />
  <defs
     id="defs84707" />
  <g
     inkscape:label="Layer 1"
     inkscape:groupmode="layer"
     id="layer1">
    <rect
       style="opacity:1;fill:#7f8384;fill-opacity:1;stroke:none;stroke-width:1.15689;stroke-linejoin:round;stroke-miterlimit:4;stroke-dasharray:none;stroke-opacity:1;paint-order:stroke markers fill"
       id="rect127120"
       width="219.69472"
       height="220.53287"
       x="22.433058"
       y="21.250175"
       ry="0.78352261" />
    <path
       style="fill:#f7f7f5;fill-opacity:1;stroke:none;stroke-width:0.315431px;stroke-linecap:butt;stroke-linejoin:miter;stroke-opacity:1"
       d="M 207.81929,95.304628 231.63732,73.845859 C 220.81847,60.331064 209.05276,46.436007 189.07642,34.81302 l -19.31929,14.211232 c 25.33864,14.916881 28.38045,34.279378 38.06216,46.280376 z"
       id="path98946-3"
       sodipodi:nodetypes="ccccc" />
    <path
       style="fill:#e5e5e5;fill-opacity:1;stroke:none;stroke-width:0.328979;stroke-linejoin:round;stroke-miterlimit:4;stroke-dasharray:none;stroke-opacity:1;paint-order:stroke markers fill"
       d="M 257.35369,44.185857 V 12.26735 L 254.75198,9.6878119 252.15027,7.108284 H 220.61335 189.07642 V 20.960652 34.81302 l 0.59017,0.34157 c 1.42941,0.827336 5.68329,3.749354 7.7629,5.332407 3.94147,3.000337 8.266,6.786658 10.86933,9.516584 0.83464,0.875219 1.57692,1.554604 1.64952,1.50973 0.13302,-0.08219 5.34597,5.258277 6.28595,6.439741 0.53057,0.666878 0.98502,1.183255 1.83738,2.087756 0.48255,0.512076 1.75192,2.069043 2.65264,3.253678 0.22137,0.291138 0.56747,0.699715 0.76911,0.907945 0.45667,0.471591 1.35845,1.680273 1.35845,1.820763 0,0.05744 0.24367,0.440842 0.54148,0.851955 0.29779,0.4111 0.50279,0.810028 0.45552,0.886509 -0.0472,0.07647 0.12475,0.277076 0.38225,0.44579 0.25749,0.168715 0.43017,0.344754 0.38373,0.391195 -0.0465,0.04651 0.15076,0.319625 0.43822,0.607071 0.28746,0.287457 0.52264,0.648636 0.52264,0.802617 0,0.153981 0.16261,0.366985 0.36136,0.473356 0.19876,0.106307 0.34279,0.252247 0.32008,0.324176 -0.0228,0.072 0.71605,1.131779 1.64169,2.355233 l 1.68301,2.224453 1.03853,-2.5e-5 c 1.64093,-2.5e-5 22.04221,0.519747 24.50885,0.624428 l 2.22446,0.09437 z"
       id="path85557-3-2-0" />
    <path
       style="opacity:1;fill:#f7f7f5;fill-opacity:1;stroke:none;stroke-width:0.315431px;stroke-linecap:butt;stroke-linejoin:miter;stroke-opacity:1"
       d="M 56.328219,95.284802 32.510181,73.826017 C 43.32903,60.311226 53.569313,47.214864 73.545647,35.591878 L 94.390382,49.004414 C 69.051728,63.921295 66.009929,83.283789 56.328219,95.284802 Z"
       id="path98946"
       sodipodi:nodetypes="ccccc" />
    <path
       style="fill:#f7f7f5;fill-opacity:1;stroke:none;stroke-width:0.315431px;stroke-linecap:butt;stroke-linejoin:miter;stroke-opacity:1"
       d="m 208.71521,167.76982 28.80063,21.47589 c -10.81885,13.5148 -29.18503,29.00715 -49.16137,40.63013 L 170.64692,214.0502 c 25.33865,-14.91688 28.38658,-34.27938 38.06829,-46.28038 z"
       id="path98946-3-7"
       sodipodi:nodetypes="ccccc" />
    <path
       style="fill:#f7f7f5;fill-opacity:1;stroke:none;stroke-width:0.315431px;stroke-linecap:butt;stroke-linejoin:miter;stroke-opacity:1"
       d="m 56.635745,169.94064 -24.068018,20.49878 c 10.818849,13.51479 22.792884,28.32197 42.769218,39.94496 L 94.704033,216.22102 C 69.365376,201.30414 66.317455,181.94165 56.635745,169.94064 Z"
       id="path98946-4"
       sodipodi:nodetypes="ccccc" />
    <path
       style="opacity:1;fill:#ebebeb;fill-opacity:1;stroke:none;stroke-width:0.315431px;stroke-linecap:butt;stroke-linejoin:miter;stroke-opacity:1"
       d="M 20.660767,94.65062 6.1220643,75.57666 C 14.831467,75.23362 25.304824,75.267377 34.591949,75.34553 l 21.73627,19.939272 z"
       id="path96239"
       sodipodi:nodetypes="ccccc" />
    <path
       style="fill:#ebebeb;fill-opacity:1;stroke:none;stroke-width:0.318308px;stroke-linecap:butt;stroke-linejoin:miter;stroke-opacity:1"
       d="m 73.545647,35.591878 20.844735,13.412536 c 0.209776,-8.22425 -0.01943,-18.107008 -0.274643,-26.869651 L 72.205022,1.9440972 Z"
       id="path96239-5"
       sodipodi:nodetypes="ccccc" />
    <path
       style="fill:#ebebeb;fill-opacity:1;stroke:none;stroke-width:0.315431px;stroke-linecap:butt;stroke-linejoin:miter;stroke-opacity:1"
       d="M 243.49287,94.670458 258.03158,75.5965 c -8.70941,-0.343051 -19.18277,-0.309288 -28.46989,-0.231141 L 207.82542,95.30464 Z"
       id="path96239-4"
       sodipodi:nodetypes="ccccc" />
    <path
       style="fill:#ebebeb;fill-opacity:1;stroke:none;stroke-width:0.312021px;stroke-linecap:butt;stroke-linejoin:miter;stroke-opacity:1"
       d="m 189.04736,35.09768 -19.29023,13.926572 c -0.19413,-8.539446 0.018,-18.800958 0.25416,-27.899426 L 190.28801,0.16036042 Z"
       id="path96239-5-7"
       sodipodi:nodetypes="ccccc" />
    <path
       style="fill:#ebebeb;fill-opacity:1;stroke:none;stroke-width:0.315431px;stroke-linecap:butt;stroke-linejoin:miter;stroke-opacity:1"
       d="M 20.968293,170.57483 6.4295865,189.64877 c 8.7094015,0.34305 19.1827685,0.30929 28.4698905,0.23114 l 21.736268,-19.93927 z"
       id="path96239-4-6"
       sodipodi:nodetypes="ccccc" />
    <path
       style="fill:#ebebeb;fill-opacity:1;stroke:none;stroke-width:0.312021px;stroke-linecap:butt;stroke-linejoin:miter;stroke-opacity:1"
       d="m 75.413804,230.14759 19.290229,-13.92657 c 0.194123,8.53944 -0.018,18.80096 -0.254161,27.89943 l -20.276724,20.96446 z"
       id="path96239-5-7-5"
       sodipodi:nodetypes="ccccc" />
    <path
       style="fill:#ebebeb;fill-opacity:1;stroke:none;stroke-width:0.315431px;stroke-linecap:butt;stroke-linejoin:miter;stroke-opacity:1"
       d="m 244.38267,168.404 14.5387,19.07395 c -8.7094,0.34305 -19.18277,0.30929 -28.46989,0.23114 l -21.73627,-19.93927 z"
       id="path96239-4-6-6"
       sodipodi:nodetypes="ccccc" />
    <path
       style="fill:#ebebeb;fill-opacity:1;stroke:none;stroke-width:0.312021px;stroke-linecap:butt;stroke-linejoin:miter;stroke-opacity:1"
       d="M 189.93716,227.97677 170.64692,214.0502 c -0.19412,8.53944 0.018,18.80096 0.25416,27.89943 l 20.27673,20.96446 z"
       id="path96239-5-7-5-9"
       sodipodi:nodetypes="ccccc" />
    <path
       style="fill:#e5e5e5;fill-opacity:1;stroke-width:4.53746;stroke-linejoin:round;stroke-miterlimit:4;stroke-dasharray:none;stroke-opacity:0.758722;paint-order:stroke markers fill"
       d="M 6.8339222,44.161358 V 12.258739 L 9.4343341,9.6804931 12.034747,7.1022456 H 43.555974 75.077207 V 20.947716 34.793187 l -0.589869,0.341409 c -1.428705,0.826919 -5.680465,3.747482 -7.759044,5.329751 -3.939503,2.998845 -8.261876,6.783275 -10.863919,9.511847 -0.834222,0.874786 -1.576133,1.553829 -1.648696,1.508983 -0.132954,-0.08217 -5.343311,5.255662 -6.282822,6.436536 -0.530307,0.666542 -0.984533,1.182666 -1.83647,2.086718 -0.482309,0.511814 -1.75104,2.068011 -2.65132,3.252056 -0.221253,0.290987 -0.567177,0.69936 -0.768723,0.90749 -0.456452,0.47136 -1.357785,1.679434 -1.357785,1.819864 0,0.05744 -0.243536,0.440623 -0.541193,0.851524 -0.297654,0.410901 -0.502542,0.809632 -0.455301,0.886065 0.04724,0.07643 -0.124683,0.276944 -0.382047,0.445574 -0.257364,0.168632 -0.429958,0.344578 -0.383543,0.390994 0.04641,0.04641 -0.150684,0.319467 -0.437998,0.606779 -0.287316,0.287313 -0.52239,0.648309 -0.52239,0.802211 0,0.153903 -0.162536,0.36681 -0.36119,0.473126 -0.198653,0.106319 -0.342612,0.252123 -0.319908,0.324008 0.02269,0.07189 -0.715693,1.131214 -1.64088,2.354057 l -1.68216,2.223351 -1.038024,-1.7e-5 c -1.640111,-2.6e-5 -22.031233,0.519486 -24.4966524,0.624112 l -2.2233504,0.09435 z"
       id="path85557" />
    <path
       style="fill:#e5e5e5;fill-opacity:1;stroke:none;stroke-width:0.328427;stroke-linejoin:round;stroke-miterlimit:4;stroke-dasharray:none;stroke-opacity:1;paint-order:stroke markers fill"
       d="m 7.1742151,221.02727 v 31.86496 l 2.5973432,2.57522 2.5973427,2.5752 H 43.85292 75.336945 v -13.82914 -13.82913 l -0.589171,-0.341 c -1.42702,-0.82594 -5.67376,-3.74306 -7.749886,-5.32346 -3.934853,-2.9953 -8.252123,-6.77527 -10.851095,-9.50062 -0.833236,-0.87375 -1.574274,-1.55199 -1.64675,-1.5072 -0.132798,0.082 -5.337005,-5.24946 -6.275406,-6.42894 -0.529682,-0.66575 -0.98337,-1.18126 -1.834302,-2.08425 -0.48174,-0.51121 -1.748973,-2.06557 -2.64819,-3.24823 -0.220993,-0.29064 -0.566507,-0.69853 -0.767817,-0.90641 -0.455913,-0.47081 -1.356181,-1.67746 -1.356181,-1.81771 0,-0.0573 -0.243249,-0.44011 -0.540554,-0.85053 -0.297303,-0.41041 -0.501949,-0.80867 -0.454764,-0.88503 0.04719,-0.0763 -0.124536,-0.27661 -0.381597,-0.44504 -0.25706,-0.16843 -0.42945,-0.34417 -0.38309,-0.39053 0.04636,-0.0464 -0.150505,-0.31909 -0.437482,-0.60605 -0.286976,-0.28698 -0.521771,-0.64755 -0.521771,-0.80127 0,-0.15372 -0.162345,-0.36637 -0.360764,-0.47256 -0.19842,-0.10611 -0.342209,-0.25183 -0.31953,-0.32364 0.02266,-0.0719 -0.714849,-1.12988 -1.638944,-2.35128 l -1.680174,-2.22072 -1.036798,3e-5 c -1.638176,2e-5 -22.005228,-0.51888 -24.4677394,-0.62338 l -2.2207245,-0.0942 z"
       id="path85557-3" />
    <path
       style="fill:#e5e5e5;fill-opacity:1;stroke:none;stroke-width:0.341905;stroke-linejoin:round;stroke-miterlimit:4;stroke-dasharray:none;stroke-opacity:1;paint-order:stroke markers fill"
       d="m 259.31458,220.13471 v 33.1727 l -2.70394,2.68089 -2.70394,2.6809 h -32.77611 -32.77612 v -14.39669 -14.39667 l 0.61336,-0.35498 c 1.48558,-0.85985 5.9066,-3.89668 8.06793,-5.54194 4.09634,-3.11823 8.5908,-7.05333 11.29642,-9.89052 0.86743,-0.90961 1.63889,-1.6157 1.71433,-1.56906 0.13826,0.0854 5.55604,-5.46489 6.53296,-6.69278 0.55141,-0.69307 1.02372,-1.22974 1.90956,-2.16978 0.50153,-0.5322 1.82076,-2.15035 2.75689,-3.38153 0.23005,-0.30258 0.58975,-0.72721 0.79932,-0.94362 0.47462,-0.49012 1.41183,-1.7463 1.41183,-1.89231 0,-0.0597 0.25324,-0.45816 0.56275,-0.88543 0.30951,-0.42725 0.52254,-0.84186 0.47342,-0.92134 -0.0491,-0.0795 0.12965,-0.28796 0.39726,-0.46331 0.26761,-0.17534 0.44708,-0.3583 0.39882,-0.40657 -0.0483,-0.0483 0.15668,-0.33218 0.45544,-0.63092 0.29875,-0.29875 0.54318,-0.67412 0.54318,-0.83415 0,-0.16004 0.16899,-0.38141 0.37556,-0.49197 0.20656,-0.11051 0.35626,-0.26214 0.33265,-0.33691 -0.0236,-0.0749 0.74419,-1.17624 1.7062,-2.44777 l 1.74913,-2.31186 1.07936,3e-5 c 1.70539,2e-5 22.9083,-0.54017 25.47187,-0.64897 l 2.31187,-0.0981 z"
       id="path85557-3-2" />
    <path
       style="fill:none;stroke:#f692ae;stroke-width:7.92536;stroke-linecap:butt;stroke-linejoin:miter;stroke-miterlimit:4;stroke-dasharray:none;stroke-opacity:1"
       d="m 133.90852,46.769863 0.55002,169.968717"
       id="path109179-8" />
    <path
       style="fill:#fffefe;fill-opacity:1;stroke:none;stroke-width:0.315431px;stroke-linecap:butt;stroke-linejoin:miter;stroke-opacity:1"
       d="m 109.918,44.11619 c 14.4336,-3.778698 29.82228,-4.580118 44.96332,0.171909 l -1.80455,7.930981 c -13.98635,-3.539824 -28.6101,-3.968065 -41.79372,0.04775 -0.46481,-2.449504 -0.93969,-4.624309 -1.36505,-8.150636 z"
       id="path102525"
       sodipodi:nodetypes="ccccc" />
    <path
       style="fill:#cccccc;fill-opacity:1;stroke:none;stroke-width:0.315928;stroke-linecap:butt;stroke-linejoin:miter;stroke-miterlimit:4;stroke-dasharray:none;stroke-opacity:1"
       d="m 111.61227,221.44042 -0.15695,-8.86728 -8.05791,7.06606 0.57164,6.57494 z"
       id="path105379-4-3"
       sodipodi:nodetypes="ccccc" />
    <path
       style="fill:#cccccc;fill-opacity:1;stroke:none;stroke-width:0.315928;stroke-linecap:butt;stroke-linejoin:miter;stroke-miterlimit:4;stroke-dasharray:none;stroke-opacity:1"
       d="m 152.25743,221.98653 0.99161,-9.3657 8.2375,5.93038 -0.25517,8.10593 z"
       id="path105379-7-4-0"
       sodipodi:nodetypes="ccccc" />
    <path
       style="fill:#fffefe;fill-opacity:1;stroke:none;stroke-width:0.315431px;stroke-linecap:butt;stroke-linejoin:miter;stroke-opacity:1"
       d="m 110.09027,220.72372 c 14.4336,3.77871 29.82228,4.58013 44.96332,-0.17191 l -1.80455,-7.93098 c -13.98635,3.53983 -28.6101,3.96807 -41.79372,-0.0477 -0.4648,2.44951 -0.93969,4.62431 -1.36505,8.15064 z"
       id="path102525-2"
       sodipodi:nodetypes="ccccc" />
    <path
       style="fill:none;stroke:#f692ae;stroke-width:7.92536;stroke-linecap:butt;stroke-linejoin:miter;stroke-miterlimit:4;stroke-dasharray:none;stroke-opacity:1"
       d="m 46.82484,133.65466 h 169.9696"
       id="path109179" />
    <path
       style="fill:#fffefe;fill-opacity:1;stroke:none;stroke-width:0.343688px;stroke-linecap:butt;stroke-linejoin:miter;stroke-opacity:1"
       d="m 43.225945,154.9932 c -4.8587,-14.40668 -6.305906,-30.01977 -1.104115,-45.33469 l 9.500739,1.80651 c -3.800976,14.12725 -3.907952,28.82244 1.196754,41.96837 -2.881622,0.52356 -5.438385,1.05089 -9.593448,1.55981 z"
       id="path102525-5"
       sodipodi:nodetypes="cccccc" />
    <path
       style="fill:#cccccc;fill-opacity:1;stroke:none;stroke-width:0.315928;stroke-linecap:butt;stroke-linejoin:miter;stroke-miterlimit:4;stroke-dasharray:none;stroke-opacity:1"
       d="m 219.7924,154.91362 -9.13442,-0.57045 8.92772,7.27548 6.81877,-0.18901 z"
       id="path105379-4"
       sodipodi:nodetypes="ccccc" />
    <path
       style="fill:#cccccc;fill-opacity:1;stroke:none;stroke-width:0.315928;stroke-linecap:butt;stroke-linejoin:miter;stroke-miterlimit:4;stroke-dasharray:none;stroke-opacity:1"
       d="m 220.96014,110.33795 -9.47711,1.04287 7.24074,-7.39772 6.81877,0.18901 z"
       id="path105379-7-4"
       sodipodi:nodetypes="ccccc" />
    <path
       style="fill:#fffefe;fill-opacity:1;stroke:none;stroke-width:0.364704px;stroke-linecap:butt;stroke-linejoin:miter;stroke-opacity:1"
       d="m 219.79231,154.91362 c 5.54235,-14.2214 7.10153,-29.4577 1.16783,-44.57567 l -9.47711,1.04287 c 4.33579,13.94556 4.99792,29.98547 -0.82505,42.96235 3.28709,0.51682 4.39472,0.0681 9.13442,0.57045 z"
       id="path102525-5-4"
       sodipodi:nodetypes="cccccc" />
    <path
       style="fill:none;stroke:#000000;stroke-width:7.88578;stroke-linecap:butt;stroke-linejoin:miter;stroke-miterlimit:4;stroke-dasharray:none;stroke-opacity:1"
       d="M 4.0381552,79.331729 4.0368438,14.697712 14.81913,4.0934941 H 79.233229 L 95.427413,22.78758 h 7.718317 v -6.144457 h 58.26159 v 6.168326 h 7.79427 L 185.33471,3.9646931 h 64.34444 L 260.68312,14.877463 V 79.69827 l -18.54654,15.980488 v 7.901202 h 6.17918 v 57.65566 h -6.31011 v 8.15095 l 18.48216,15.81337 v 64.84157 l -10.24239,10.24238 h -64.99453 l -15.95032,-18.21105 h -7.73886 v 6.5006 h -58.27518 v -6.31356 h -7.888289 l -15.8125,18.10456 H 14.60318 L 3.9575255,249.97281 v -64.87882 l 18.5256725,-15.80148 -0.0038,-7.75944 h -6.087759 v -58.28336 h 5.967478 v -7.359316 z"
       id="path84816" />
    <path
       style="opacity:1;fill:#e5e5e5;fill-opacity:1;stroke:none;stroke-width:0.315431px;stroke-linecap:butt;stroke-linejoin:miter;stroke-opacity:1"
       d="m 107.1323,20.606661 h 50.4212 v 6.265195 h 3.63057 V 38.81026 l -6.56422,6.564225 c -15.48659,-5.152484 -30.20403,-3.990765 -44.57687,0 l -6.12122,-6.121223 v -12.52286 h 3.2022 z"
       id="path94226"
       sodipodi:nodetypes="ccccccccccc" />
    <path
       style="fill:#e5e5e5;fill-opacity:1;stroke:none;stroke-width:0.315431px;stroke-linecap:butt;stroke-linejoin:miter;stroke-opacity:1"
       d="m 107.1796,244.86075 h 50.42119 v -6.2652 h 3.63058 v -11.93841 l -6.56423,-6.56422 c -15.48659,5.15249 -30.20403,3.99077 -44.57687,0 l -6.12122,6.12122 v 12.52287 h 3.2022 z"
       id="path94226-6"
       sodipodi:nodetypes="ccccccccccc" />
    <path
       style="fill:#e5e5e5;fill-opacity:1;stroke:none;stroke-width:0.315431px;stroke-linecap:butt;stroke-linejoin:miter;stroke-opacity:1"
       d="m 20.282706,107.1245 -0.368885,50.41984 6.265036,0.0459 -0.02659,3.6305 11.938094,0.0874 6.612067,-6.51602 C 39.663386,139.26825 40.93275,124.5597 45.028561,110.21645 l -6.076276,-6.16584 -12.522537,-0.0917 -0.02349,3.20211 z"
       id="path94226-6-1"
       sodipodi:nodetypes="ccccccccccc" />
    <path
       style="fill:#e5e5e5;fill-opacity:1;stroke:none;stroke-width:0.315431px;stroke-linecap:butt;stroke-linejoin:miter;stroke-opacity:1"
       d="m 244.21212,107.24604 0.36889,50.41983 -6.26504,0.0459 0.0266,3.63049 -11.93809,0.0874 -6.61207,-6.51602 c 5.03904,-15.52387 3.76968,-30.23241 -0.32614,-44.57567 l 6.07628,-6.16584 12.52254,-0.0917 0.0235,3.20211 z"
       id="path94226-6-1-5"
       sodipodi:nodetypes="ccccccccccc" />
    <path
       style="opacity:1;fill:#cccccc;fill-opacity:1;stroke:none;stroke-width:0.315928;stroke-linecap:butt;stroke-linejoin:miter;stroke-miterlimit:4;stroke-dasharray:none;stroke-opacity:1"
       d="m 44.702432,154.79209 8.116891,-1.3587 -7.910189,8.06373 -6.818769,-0.18901 z"
       id="path105379"
       sodipodi:nodetypes="ccccc" />
    <path
       style="fill:#cccccc;fill-opacity:1;stroke:none;stroke-width:0.315928;stroke-linecap:butt;stroke-linejoin:miter;stroke-miterlimit:4;stroke-dasharray:none;stroke-opacity:1"
       d="m 45.028565,110.21642 6.594004,1.2486 -5.851512,-7.60345 -6.818768,0.18901 z"
       id="path105379-7"
       sodipodi:nodetypes="ccccc" />
    <path
       style="fill:#cccccc;fill-opacity:1;stroke:none;stroke-width:0.315928;stroke-linecap:butt;stroke-linejoin:miter;stroke-miterlimit:4;stroke-dasharray:none;stroke-opacity:1"
       d="m 110.04298,45.374485 1.24007,6.892341 -7.94817,-6.932939 0.44024,-6.807167 z"
       id="path105379-78"
       sodipodi:nodetypes="ccccc" />
    <path
       style="fill:#cccccc;fill-opacity:1;stroke:none;stroke-width:0.315928;stroke-linecap:butt;stroke-linejoin:miter;stroke-miterlimit:4;stroke-dasharray:none;stroke-opacity:1"
       d="m 154.88132,44.288099 -1.80455,7.930981 8.1277,-6.954743 0.0625,-6.821101 z"
       id="path105379-7-6"
       sodipodi:nodetypes="ccccc" />
    <ellipse
       style="opacity:1;fill:#e7e7e7;fill-opacity:1;stroke:none;stroke-width:15.7716;stroke-linejoin:round;stroke-miterlimit:4;stroke-dasharray:none;stroke-opacity:1;paint-order:stroke markers fill"
       id="path113607"
       cx="134.08281"
       cy="132.90233"
       rx="48.239578"
       ry="47.552792" />
    <path
       style="opacity:1;fill:#f692ae;fill-opacity:1;stroke:none;stroke-width:7.88578;stroke-linejoin:round;stroke-miterlimit:4;stroke-dasharray:none;stroke-opacity:1;paint-order:stroke markers fill"
       d="m 131.48681,160.33418 c -4.27725,-4.77896 -8.70027,-9.63296 -14.429,-12.69613 -4.31894,-2.5714 -8.40146,-5.64486 -12.11176,-8.98897 -1.34979,-3.05336 -2.69959,-6.10672 -4.04938,-9.16009 0.37191,-3.72801 0.78953,-7.45193 1.10173,-11.18555 1.54657,-2.74408 3.7105,-5.08218 5.60279,-7.59187 2.58482,-1.1059 5.1298,-2.44001 7.73943,-3.40376 2.1785,0.21972 4.41315,0.25217 6.55651,0.58907 2.40227,1.38915 4.9622,2.60877 7.26872,4.10086 1.61554,2.3855 3.01993,4.94027 4.9125,7.11734 2.02479,-2.21154 3.34807,-5.02674 5.18099,-7.3537 2.47958,-1.29741 4.90272,-2.78371 7.4167,-3.9659 2.16475,-0.11851 4.37042,-0.46944 6.50978,-0.44371 2.49421,1.20081 5.12319,2.23041 7.53311,3.5383 1.73366,2.21735 3.50337,4.40733 5.18723,6.66296 0.67973,3.99313 0.9211,8.04741 1.3561,12.07296 -1.43496,3.08238 -2.69882,6.29606 -4.24057,9.29647 -4.46209,3.73592 -9.11455,7.24837 -14.17504,10.14323 -5.7749,3.68554 -10.28763,9.00156 -14.27351,14.50263 -1.17575,-0.90857 -2.0849,-2.14195 -3.08633,-3.23414 z"
       id="path127922" />
  </g>
</svg>
