<?xml version="1.0" encoding="UTF-8" standalone="no"?>
<!-- Created with Inkscape (http://www.inkscape.org/) -->

<svg
   width="100"
   height="100"
   viewBox="0 0 26.458333 26.458334"
   version="1.1"
   id="svg998"
   inkscape:version="1.1.2 (0a00cf5339, 2022-02-04)"
   sodipodi:docname="save.svg"
   xmlns:inkscape="http://www.inkscape.org/namespaces/inkscape"
   xmlns:sodipodi="http://sodipodi.sourceforge.net/DTD/sodipodi-0.dtd"
   xmlns="http://www.w3.org/2000/svg"
   xmlns:svg="http://www.w3.org/2000/svg">
  <sodipodi:namedview
     id="namedview1000"
     pagecolor="#ffffff"
     bordercolor="#666666"
     borderopacity="1.0"
     inkscape:pageshadow="2"
     inkscape:pageopacity="0.0"
     inkscape:pagecheckerboard="0"
     inkscape:document-units="px"
     showgrid="false"
     units="px"
     inkscape:lockguides="true"
     inkscape:zoom="2.761252"
     inkscape:cx="-7.6052458"
     inkscape:cy="69.714753"
     inkscape:window-width="1491"
     inkscape:window-height="974"
     inkscape:window-x="335"
     inkscape:window-y="77"
     inkscape:window-maximized="0"
     inkscape:current-layer="layer1" />
  <defs
     id="defs995" />
  <g
     inkscape:label="Layer 1"
     inkscape:groupmode="layer"
     id="layer1">
    <rect
       style="fill:#ffffff;stroke-width:5.29167"
       id="rect1081"
       width="116.95236"
       height="75.551422"
       x="37.425766"
       y="42.390579" />
    <path
       style="fill:#000002;fill-opacity:1;stroke:none;stroke-width:2.64583;stroke-linecap:butt;stroke-linejoin:miter;stroke-miterlimit:4;stroke-dasharray:none;stroke-opacity:1"
       d="M 1.9843751,24.473958 H 24.601706 l 0.0091,-20.0962866 -2.31159,-2.2610047 H 1.9843751 Z"
       id="path5203"
       sodipodi:nodetypes="cccccc" />
    <rect
       style="fill:#fffffe;fill-opacity:1;stroke-width:2.97854;stroke-miterlimit:4;stroke-dasharray:none"
       id="rect6687"
       width="15.512243"
       height="10.56132"
       x="5.3290091"
       y="13.921833" />
    <rect
       style="fill:#fffffe;fill-opacity:1;stroke-width:2.96567;stroke-miterlimit:4;stroke-dasharray:none"
       id="rect6687-7"
       width="1.1176854"
       height="0.77628911"
       x="22.213169"
       y="22.52562" />
    <rect
       style="fill:#fffffe;fill-opacity:1;stroke-width:2.16279;stroke-miterlimit:4;stroke-dasharray:none"
       id="rect6687-3"
       width="12.018314"
       height="7.1873107"
       x="7.1748161"
       y="3.3975921" />
    <rect
       style="fill:#00000a;fill-opacity:1;stroke-width:0.813981;stroke-miterlimit:4;stroke-dasharray:none"
       id="rect6687-3-6"
       width="2.5418105"
       height="4.813622"
       x="15.088143"
       y="4.4724021" />
    <path
       style="fill:none;stroke:#000000;stroke-width:1.05833;stroke-linecap:butt;stroke-linejoin:miter;stroke-miterlimit:4;stroke-dasharray:none;stroke-opacity:1"
       d="m 7.2285928,16.065428 11.8189262,0.05531"
       id="path7519" />
    <path
       style="fill:none;stroke:#000000;stroke-width:1.05833;stroke-linecap:butt;stroke-linejoin:miter;stroke-miterlimit:4;stroke-dasharray:none;stroke-opacity:1"
       d="m 7.2285928,19.200624 11.8189262,0.05531"
       id="path7519-5" />
    <path
       style="fill:none;stroke:#000000;stroke-width:1.05833;stroke-linecap:butt;stroke-linejoin:miter;stroke-miterlimit:4;stroke-dasharray:none;stroke-opacity:1"
       d="M 7.2285918,22.33582 19.047519,22.39113"
       id="path7519-3" />
  </g>
</svg>
