<?xml version="1.0" encoding="UTF-8" standalone="no"?>
<!-- Created with Inkscape (http://www.inkscape.org/) -->

<svg
   width="600.5354mm"
   height="601.73541mm"
   viewBox="0 0 600.5354 601.73541"
   version="1.1"
   id="svg5"
   inkscape:version="1.1.2 (0a00cf5339, 2022-02-04)"
   sodipodi:docname="shape_2.svg"
   xmlns:inkscape="http://www.inkscape.org/namespaces/inkscape"
   xmlns:sodipodi="http://sodipodi.sourceforge.net/DTD/sodipodi-0.dtd"
   xmlns:xlink="http://www.w3.org/1999/xlink"
   xmlns="http://www.w3.org/2000/svg"
   xmlns:svg="http://www.w3.org/2000/svg">
  <sodipodi:namedview
     id="namedview7"
     pagecolor="#505050"
     bordercolor="#eeeeee"
     borderopacity="1"
     inkscape:pageshadow="0"
     inkscape:pageopacity="0"
     inkscape:pagecheckerboard="0"
     inkscape:document-units="px"
     showgrid="false"
     width="600mm"
     inkscape:zoom="0.36451168"
     inkscape:cx="1134.3944"
     inkscape:cy="1141.2529"
     inkscape:window-width="1920"
     inkscape:window-height="1025"
     inkscape:window-x="0"
     inkscape:window-y="29"
     inkscape:window-maximized="1"
     inkscape:current-layer="layer1"
     showguides="true"
     inkscape:guide-bbox="true"
     inkscape:snap-bbox="true"
     inkscape:snap-global="true"
     units="mm"
     fit-margin-top="0"
     fit-margin-left="0"
     fit-margin-right="0"
     fit-margin-bottom="0" />
  <defs
     id="defs2">
    <linearGradient
       inkscape:collect="always"
       id="linearGradient53508">
      <stop
         style="stop-color:#7575ef;stop-opacity:1"
         offset="0"
         id="stop53504" />
      <stop
         style="stop-color:#6466e6;stop-opacity:1"
         offset="1"
         id="stop53506" />
    </linearGradient>
    <linearGradient
       inkscape:collect="always"
       id="linearGradient46576">
      <stop
         style="stop-color:#3737aa;stop-opacity:1"
         offset="0"
         id="stop46572" />
      <stop
         style="stop-color:#1f1d5c;stop-opacity:1"
         offset="1"
         id="stop46574" />
    </linearGradient>
    <linearGradient
       inkscape:collect="always"
       id="linearGradient41620">
      <stop
         style="stop-color:#383fb1;stop-opacity:1"
         offset="0"
         id="stop41616" />
      <stop
         style="stop-color:#202367;stop-opacity:1"
         offset="1"
         id="stop41618" />
    </linearGradient>
    <linearGradient
       inkscape:collect="always"
       id="linearGradient36275">
      <stop
         style="stop-color:#2b2e88;stop-opacity:1"
         offset="0"
         id="stop36271" />
      <stop
         style="stop-color:#383fb1;stop-opacity:1"
         offset="1"
         id="stop36273" />
    </linearGradient>
    <linearGradient
       inkscape:collect="always"
       id="linearGradient22036">
      <stop
         style="stop-color:#a3a2e3;stop-opacity:1"
         offset="0"
         id="stop22032" />
      <stop
         style="stop-color:#e9e9f8;stop-opacity:1"
         offset="1"
         id="stop22034" />
    </linearGradient>
    <inkscape:perspective
       sodipodi:type="inkscape:persp3d"
       inkscape:vp_x="41.848826 : 428.44531 : 1"
       inkscape:vp_y="0 : 999.99998 : 0"
       inkscape:vp_z="-162.21617 : 218.9229 : 1"
       inkscape:persp3d-origin="200.00001 : 335.06873 : 1"
       id="perspective2245" />
    <clipPath
       clipPathUnits="userSpaceOnUse"
       id="clipPath20825">
      <rect
         style="opacity:0.392018;fill:#ffffff;fill-opacity:1;stroke:none;stroke-width:936.295;stroke-linecap:butt;stroke-linejoin:miter;stroke-miterlimit:4;stroke-dasharray:none;stroke-opacity:1;paint-order:stroke markers fill"
         id="rect20827"
         width="1106.6488"
         height="1114.7675"
         x="208.68936"
         y="236.50517" />
    </clipPath>
    <clipPath
       clipPathUnits="userSpaceOnUse"
       id="clipPath20829">
      <rect
         style="opacity:0.392018;fill:#ffffff;fill-opacity:1;stroke:none;stroke-width:247.728;stroke-linecap:butt;stroke-linejoin:miter;stroke-miterlimit:4;stroke-dasharray:none;stroke-opacity:1;paint-order:stroke markers fill"
         id="rect20831"
         width="292.80084"
         height="294.94888"
         x="55.215729"
         y="62.575329" />
    </clipPath>
    <clipPath
       clipPathUnits="userSpaceOnUse"
       id="clipPath20833">
      <rect
         style="opacity:0.392018;fill:#ffffff;fill-opacity:1;stroke:none;stroke-width:247.728;stroke-linecap:butt;stroke-linejoin:miter;stroke-miterlimit:4;stroke-dasharray:none;stroke-opacity:1;paint-order:stroke markers fill"
         id="rect20835"
         width="292.80084"
         height="294.94888"
         x="55.215729"
         y="62.575329" />
    </clipPath>
    <clipPath
       clipPathUnits="userSpaceOnUse"
       id="clipPath20837">
      <rect
         style="opacity:0.392018;fill:#ffffff;fill-opacity:1;stroke:none;stroke-width:936.295;stroke-linecap:butt;stroke-linejoin:miter;stroke-miterlimit:4;stroke-dasharray:none;stroke-opacity:1;paint-order:stroke markers fill"
         id="rect20839"
         width="1106.6488"
         height="1114.7675"
         x="208.68936"
         y="236.50517" />
    </clipPath>
    <clipPath
       clipPathUnits="userSpaceOnUse"
       id="clipPath20841">
      <rect
         style="opacity:0.392018;fill:#ffffff;fill-opacity:1;stroke:none;stroke-width:247.728;stroke-linecap:butt;stroke-linejoin:miter;stroke-miterlimit:4;stroke-dasharray:none;stroke-opacity:1;paint-order:stroke markers fill"
         id="rect20843"
         width="292.80084"
         height="294.94888"
         x="55.215729"
         y="62.575329" />
    </clipPath>
    <clipPath
       clipPathUnits="userSpaceOnUse"
       id="clipPath20845">
      <rect
         style="opacity:0.392018;fill:#ffffff;fill-opacity:1;stroke:none;stroke-width:247.728;stroke-linecap:butt;stroke-linejoin:miter;stroke-miterlimit:4;stroke-dasharray:none;stroke-opacity:1;paint-order:stroke markers fill"
         id="rect20847"
         width="292.80084"
         height="294.94888"
         x="55.215729"
         y="62.575329" />
    </clipPath>
    <clipPath
       clipPathUnits="userSpaceOnUse"
       id="clipPath20849">
      <rect
         style="opacity:0.392018;fill:#ffffff;fill-opacity:1;stroke:none;stroke-width:247.728;stroke-linecap:butt;stroke-linejoin:miter;stroke-miterlimit:4;stroke-dasharray:none;stroke-opacity:1;paint-order:stroke markers fill"
         id="rect20851"
         width="292.80084"
         height="294.94888"
         x="55.215729"
         y="62.575329"
         transform="scale(1,-1)" />
    </clipPath>
    <linearGradient
       inkscape:collect="always"
       xlink:href="#linearGradient22036"
       id="linearGradient28878"
       x1="759.35034"
       y1="246.61069"
       x2="754.31421"
       y2="437.81616"
       gradientUnits="userSpaceOnUse" />
    <linearGradient
       inkscape:collect="always"
       xlink:href="#linearGradient36275"
       id="linearGradient36277"
       x1="55.215729"
       y1="210.04977"
       x2="109.76923"
       y2="210.04977"
       gradientUnits="userSpaceOnUse" />
    <linearGradient
       inkscape:collect="always"
       xlink:href="#linearGradient41620"
       id="linearGradient41622"
       x1="1114.6938"
       y1="793.88892"
       x2="1315.3334"
       y2="793.88892"
       gradientUnits="userSpaceOnUse" />
    <linearGradient
       inkscape:collect="always"
       xlink:href="#linearGradient46576"
       id="linearGradient46578"
       x1="194.24768"
       y1="309.01398"
       x2="193.70741"
       y2="355.93658"
       gradientUnits="userSpaceOnUse" />
    <linearGradient
       inkscape:collect="always"
       xlink:href="#linearGradient53508"
       id="linearGradient53510"
       x1="199.82172"
       y1="-118.95808"
       x2="200.80431"
       y2="-303.72198"
       gradientUnits="userSpaceOnUse" />
    <clipPath
       clipPathUnits="userSpaceOnUse"
       id="clipPath20849-5">
      <rect
         style="opacity:0.392018;fill:#ffffff;fill-opacity:1;stroke:none;stroke-width:247.728;stroke-linecap:butt;stroke-linejoin:miter;stroke-miterlimit:4;stroke-dasharray:none;stroke-opacity:1;paint-order:stroke markers fill"
         id="rect20851-3"
         width="292.80084"
         height="294.94888"
         x="55.215729"
         y="62.575329"
         transform="scale(1,-1)" />
    </clipPath>
    <clipPath
       clipPathUnits="userSpaceOnUse"
       id="clipPath20837-2">
      <rect
         style="opacity:0.392018;fill:#ffffff;fill-opacity:1;stroke:none;stroke-width:936.295;stroke-linecap:butt;stroke-linejoin:miter;stroke-miterlimit:4;stroke-dasharray:none;stroke-opacity:1;paint-order:stroke markers fill"
         id="rect20839-9"
         width="1106.6488"
         height="1114.7675"
         x="208.68936"
         y="236.50517" />
    </clipPath>
    <clipPath
       clipPathUnits="userSpaceOnUse"
       id="clipPath20833-7">
      <rect
         style="opacity:0.392018;fill:#ffffff;fill-opacity:1;stroke:none;stroke-width:247.728;stroke-linecap:butt;stroke-linejoin:miter;stroke-miterlimit:4;stroke-dasharray:none;stroke-opacity:1;paint-order:stroke markers fill"
         id="rect20835-0"
         width="292.80084"
         height="294.94888"
         x="55.215729"
         y="62.575329" />
    </clipPath>
    <clipPath
       clipPathUnits="userSpaceOnUse"
       id="clipPath20829-6">
      <rect
         style="opacity:0.392018;fill:#ffffff;fill-opacity:1;stroke:none;stroke-width:247.728;stroke-linecap:butt;stroke-linejoin:miter;stroke-miterlimit:4;stroke-dasharray:none;stroke-opacity:1;paint-order:stroke markers fill"
         id="rect20831-0"
         width="292.80084"
         height="294.94888"
         x="55.215729"
         y="62.575329" />
    </clipPath>
    <clipPath
       clipPathUnits="userSpaceOnUse"
       id="clipPath20825-6">
      <rect
         style="opacity:0.392018;fill:#ffffff;fill-opacity:1;stroke:none;stroke-width:936.295;stroke-linecap:butt;stroke-linejoin:miter;stroke-miterlimit:4;stroke-dasharray:none;stroke-opacity:1;paint-order:stroke markers fill"
         id="rect20827-1"
         width="1106.6488"
         height="1114.7675"
         x="208.68936"
         y="236.50517" />
    </clipPath>
    <clipPath
       clipPathUnits="userSpaceOnUse"
       id="clipPath20849-4">
      <rect
         style="opacity:0.392018;fill:#ffffff;fill-opacity:1;stroke:none;stroke-width:247.728;stroke-linecap:butt;stroke-linejoin:miter;stroke-miterlimit:4;stroke-dasharray:none;stroke-opacity:1;paint-order:stroke markers fill"
         id="rect20851-4"
         width="292.80084"
         height="294.94888"
         x="55.215729"
         y="62.575329"
         transform="scale(1,-1)" />
    </clipPath>
    <clipPath
       clipPathUnits="userSpaceOnUse"
       id="clipPath20837-3">
      <rect
         style="opacity:0.392018;fill:#ffffff;fill-opacity:1;stroke:none;stroke-width:936.295;stroke-linecap:butt;stroke-linejoin:miter;stroke-miterlimit:4;stroke-dasharray:none;stroke-opacity:1;paint-order:stroke markers fill"
         id="rect20839-1"
         width="1106.6488"
         height="1114.7675"
         x="208.68936"
         y="236.50517" />
    </clipPath>
    <clipPath
       clipPathUnits="userSpaceOnUse"
       id="clipPath20833-9">
      <rect
         style="opacity:0.392018;fill:#ffffff;fill-opacity:1;stroke:none;stroke-width:247.728;stroke-linecap:butt;stroke-linejoin:miter;stroke-miterlimit:4;stroke-dasharray:none;stroke-opacity:1;paint-order:stroke markers fill"
         id="rect20835-6"
         width="292.80084"
         height="294.94888"
         x="55.215729"
         y="62.575329" />
    </clipPath>
    <clipPath
       clipPathUnits="userSpaceOnUse"
       id="clipPath20829-7">
      <rect
         style="opacity:0.392018;fill:#ffffff;fill-opacity:1;stroke:none;stroke-width:247.728;stroke-linecap:butt;stroke-linejoin:miter;stroke-miterlimit:4;stroke-dasharray:none;stroke-opacity:1;paint-order:stroke markers fill"
         id="rect20831-8"
         width="292.80084"
         height="294.94888"
         x="55.215729"
         y="62.575329" />
    </clipPath>
    <clipPath
       clipPathUnits="userSpaceOnUse"
       id="clipPath20825-4">
      <rect
         style="opacity:0.392018;fill:#ffffff;fill-opacity:1;stroke:none;stroke-width:936.295;stroke-linecap:butt;stroke-linejoin:miter;stroke-miterlimit:4;stroke-dasharray:none;stroke-opacity:1;paint-order:stroke markers fill"
         id="rect20827-18"
         width="1106.6488"
         height="1114.7675"
         x="208.68936"
         y="236.50517" />
    </clipPath>
    <linearGradient
       inkscape:collect="always"
       xlink:href="#linearGradient53508"
       id="linearGradient3873"
       gradientUnits="userSpaceOnUse"
       x1="199.82172"
       y1="-118.95808"
       x2="200.80431"
       y2="-303.72198" />
    <linearGradient
       inkscape:collect="always"
       xlink:href="#linearGradient22036"
       id="linearGradient3875"
       gradientUnits="userSpaceOnUse"
       x1="759.35034"
       y1="246.61069"
       x2="754.31421"
       y2="437.81616" />
    <linearGradient
       inkscape:collect="always"
       xlink:href="#linearGradient36275"
       id="linearGradient3877"
       gradientUnits="userSpaceOnUse"
       x1="55.215729"
       y1="210.04977"
       x2="109.76923"
       y2="210.04977" />
    <linearGradient
       inkscape:collect="always"
       xlink:href="#linearGradient46576"
       id="linearGradient3879"
       gradientUnits="userSpaceOnUse"
       x1="194.24768"
       y1="309.01398"
       x2="193.70741"
       y2="355.93658" />
    <linearGradient
       inkscape:collect="always"
       xlink:href="#linearGradient41620"
       id="linearGradient3881"
       gradientUnits="userSpaceOnUse"
       x1="1114.6938"
       y1="793.88892"
       x2="1315.3334"
       y2="793.88892" />
    <clipPath
       clipPathUnits="userSpaceOnUse"
       id="clipPath20849-1">
      <rect
         style="opacity:0.392018;fill:#ffffff;fill-opacity:1;stroke:none;stroke-width:247.728;stroke-linecap:butt;stroke-linejoin:miter;stroke-miterlimit:4;stroke-dasharray:none;stroke-opacity:1;paint-order:stroke markers fill"
         id="rect20851-8"
         width="292.80084"
         height="294.94888"
         x="55.215729"
         y="62.575329"
         transform="scale(1,-1)" />
    </clipPath>
    <clipPath
       clipPathUnits="userSpaceOnUse"
       id="clipPath20837-4">
      <rect
         style="opacity:0.392018;fill:#ffffff;fill-opacity:1;stroke:none;stroke-width:936.295;stroke-linecap:butt;stroke-linejoin:miter;stroke-miterlimit:4;stroke-dasharray:none;stroke-opacity:1;paint-order:stroke markers fill"
         id="rect20839-3"
         width="1106.6488"
         height="1114.7675"
         x="208.68936"
         y="236.50517" />
    </clipPath>
    <clipPath
       clipPathUnits="userSpaceOnUse"
       id="clipPath20833-8">
      <rect
         style="opacity:0.392018;fill:#ffffff;fill-opacity:1;stroke:none;stroke-width:247.728;stroke-linecap:butt;stroke-linejoin:miter;stroke-miterlimit:4;stroke-dasharray:none;stroke-opacity:1;paint-order:stroke markers fill"
         id="rect20835-60"
         width="292.80084"
         height="294.94888"
         x="55.215729"
         y="62.575329" />
    </clipPath>
    <clipPath
       clipPathUnits="userSpaceOnUse"
       id="clipPath20829-8">
      <rect
         style="opacity:0.392018;fill:#ffffff;fill-opacity:1;stroke:none;stroke-width:247.728;stroke-linecap:butt;stroke-linejoin:miter;stroke-miterlimit:4;stroke-dasharray:none;stroke-opacity:1;paint-order:stroke markers fill"
         id="rect20831-89"
         width="292.80084"
         height="294.94888"
         x="55.215729"
         y="62.575329" />
    </clipPath>
    <clipPath
       clipPathUnits="userSpaceOnUse"
       id="clipPath20825-64">
      <rect
         style="opacity:0.392018;fill:#ffffff;fill-opacity:1;stroke:none;stroke-width:936.295;stroke-linecap:butt;stroke-linejoin:miter;stroke-miterlimit:4;stroke-dasharray:none;stroke-opacity:1;paint-order:stroke markers fill"
         id="rect20827-3"
         width="1106.6488"
         height="1114.7675"
         x="208.68936"
         y="236.50517" />
    </clipPath>
    <linearGradient
       inkscape:collect="always"
       xlink:href="#linearGradient53508"
       id="linearGradient3986"
       gradientUnits="userSpaceOnUse"
       x1="199.82172"
       y1="-118.95808"
       x2="200.80431"
       y2="-303.72198" />
    <linearGradient
       inkscape:collect="always"
       xlink:href="#linearGradient22036"
       id="linearGradient3988"
       gradientUnits="userSpaceOnUse"
       x1="759.35034"
       y1="246.61069"
       x2="754.31421"
       y2="437.81616" />
    <linearGradient
       inkscape:collect="always"
       xlink:href="#linearGradient36275"
       id="linearGradient3990"
       gradientUnits="userSpaceOnUse"
       x1="55.215729"
       y1="210.04977"
       x2="109.76923"
       y2="210.04977" />
    <linearGradient
       inkscape:collect="always"
       xlink:href="#linearGradient46576"
       id="linearGradient3992"
       gradientUnits="userSpaceOnUse"
       x1="194.24768"
       y1="309.01398"
       x2="193.70741"
       y2="355.93658" />
    <linearGradient
       inkscape:collect="always"
       xlink:href="#linearGradient41620"
       id="linearGradient3994"
       gradientUnits="userSpaceOnUse"
       x1="1114.6938"
       y1="793.88892"
       x2="1315.3334"
       y2="793.88892" />
    <clipPath
       clipPathUnits="userSpaceOnUse"
       id="clipPath20849-59">
      <rect
         style="opacity:0.392018;fill:#ffffff;fill-opacity:1;stroke:none;stroke-width:247.728;stroke-linecap:butt;stroke-linejoin:miter;stroke-miterlimit:4;stroke-dasharray:none;stroke-opacity:1;paint-order:stroke markers fill"
         id="rect20851-46"
         width="292.80084"
         height="294.94888"
         x="55.215729"
         y="62.575329"
         transform="scale(1,-1)" />
    </clipPath>
    <clipPath
       clipPathUnits="userSpaceOnUse"
       id="clipPath20837-24">
      <rect
         style="opacity:0.392018;fill:#ffffff;fill-opacity:1;stroke:none;stroke-width:936.295;stroke-linecap:butt;stroke-linejoin:miter;stroke-miterlimit:4;stroke-dasharray:none;stroke-opacity:1;paint-order:stroke markers fill"
         id="rect20839-7"
         width="1106.6488"
         height="1114.7675"
         x="208.68936"
         y="236.50517" />
    </clipPath>
    <clipPath
       clipPathUnits="userSpaceOnUse"
       id="clipPath20833-4">
      <rect
         style="opacity:0.392018;fill:#ffffff;fill-opacity:1;stroke:none;stroke-width:247.728;stroke-linecap:butt;stroke-linejoin:miter;stroke-miterlimit:4;stroke-dasharray:none;stroke-opacity:1;paint-order:stroke markers fill"
         id="rect20835-8"
         width="292.80084"
         height="294.94888"
         x="55.215729"
         y="62.575329" />
    </clipPath>
    <clipPath
       clipPathUnits="userSpaceOnUse"
       id="clipPath20829-89">
      <rect
         style="opacity:0.392018;fill:#ffffff;fill-opacity:1;stroke:none;stroke-width:247.728;stroke-linecap:butt;stroke-linejoin:miter;stroke-miterlimit:4;stroke-dasharray:none;stroke-opacity:1;paint-order:stroke markers fill"
         id="rect20831-3"
         width="292.80084"
         height="294.94888"
         x="55.215729"
         y="62.575329" />
    </clipPath>
    <clipPath
       clipPathUnits="userSpaceOnUse"
       id="clipPath20825-0">
      <rect
         style="opacity:0.392018;fill:#ffffff;fill-opacity:1;stroke:none;stroke-width:936.295;stroke-linecap:butt;stroke-linejoin:miter;stroke-miterlimit:4;stroke-dasharray:none;stroke-opacity:1;paint-order:stroke markers fill"
         id="rect20827-2"
         width="1106.6488"
         height="1114.7675"
         x="208.68936"
         y="236.50517" />
    </clipPath>
    <linearGradient
       inkscape:collect="always"
       xlink:href="#linearGradient53508"
       id="linearGradient4099"
       gradientUnits="userSpaceOnUse"
       x1="199.82172"
       y1="-118.95808"
       x2="200.80431"
       y2="-303.72198" />
    <linearGradient
       inkscape:collect="always"
       xlink:href="#linearGradient22036"
       id="linearGradient4101"
       gradientUnits="userSpaceOnUse"
       x1="759.35034"
       y1="246.61069"
       x2="754.31421"
       y2="437.81616" />
    <linearGradient
       inkscape:collect="always"
       xlink:href="#linearGradient36275"
       id="linearGradient4103"
       gradientUnits="userSpaceOnUse"
       x1="55.215729"
       y1="210.04977"
       x2="109.76923"
       y2="210.04977" />
    <linearGradient
       inkscape:collect="always"
       xlink:href="#linearGradient46576"
       id="linearGradient4105"
       gradientUnits="userSpaceOnUse"
       x1="194.24768"
       y1="309.01398"
       x2="193.70741"
       y2="355.93658" />
    <linearGradient
       inkscape:collect="always"
       xlink:href="#linearGradient41620"
       id="linearGradient4107"
       gradientUnits="userSpaceOnUse"
       x1="1114.6938"
       y1="793.88892"
       x2="1315.3334"
       y2="793.88892" />
  </defs>
  <g
     inkscape:label="Layer 1"
     inkscape:groupmode="layer"
     id="layer1"
     transform="translate(0.53538743)">
    <g
       id="g3730">
      <rect
         style="fill:url(#linearGradient53510);fill-opacity:1;stroke:none;stroke-width:11.04;stroke-linecap:butt;stroke-linejoin:miter;stroke-miterlimit:18.2;stroke-dasharray:none;stroke-opacity:1;paint-order:stroke markers fill"
         id="rect2638"
         width="188.96005"
         height="188.96001"
         x="107.86923"
         y="-307.08649"
         transform="matrix(1.0361657,0,0,-1.0422321,-59.180885,-70.039839)"
         clip-path="url(#clipPath20849)" />
      <path
         id="path7490"
         style="fill:url(#linearGradient28878);fill-opacity:1;stroke:none;stroke-width:14.6079;stroke-linecap:butt;stroke-linejoin:miter;stroke-miterlimit:4;stroke-dasharray:none;stroke-opacity:1"
         transform="matrix(0.27415199,0,0,0.27265659,-59.180804,-66.47442)"
         d="M 215.86914,243.80273 407.69531,438.46289 H 1121.875 l 186.2773,-194.66016 z"
         clip-path="url(#clipPath20837)" />
      <path
         style="fill:url(#linearGradient36277);fill-opacity:1;stroke:none;stroke-width:3.8;stroke-linecap:butt;stroke-linejoin:miter;stroke-miterlimit:4;stroke-dasharray:none;stroke-opacity:1"
         d="m 107.86938,116.00997 0.86419,191.28193 -51.618337,48.33114 V 64.506376 Z"
         id="path7854"
         clip-path="url(#clipPath20833)"
         sodipodi:nodetypes="ccccc"
         transform="matrix(1.0608854,0,0,1.0296412,-60.592717,-66.418176)" />
      <path
         style="fill:url(#linearGradient46578);fill-opacity:1;stroke:none;stroke-width:3.8;stroke-linecap:butt;stroke-linejoin:miter;stroke-miterlimit:4;stroke-dasharray:none;stroke-opacity:1"
         d="m 54.669569,355.37672 53.199661,-48.29025 h 188.96006 l 49.28595,48.53657 z"
         id="path14311"
         clip-path="url(#clipPath20829)"
         transform="matrix(1.0293514,0,0,1.0305131,-56.274196,-66.47442)"
         sodipodi:nodetypes="ccccc" />
      <path
         id="path16368"
         style="fill:url(#linearGradient41622);fill-opacity:1;stroke:none;stroke-width:14.3622;stroke-linecap:butt;stroke-linejoin:miter;stroke-miterlimit:4;stroke-dasharray:none;stroke-opacity:1"
         d="M 1308.1523,243.80273 1121.875,438.46289 v 722.17971 l 186.2773,183.4453 z"
         transform="matrix(0.27415199,0,0,0.27265659,-59.180804,-66.47442)"
         clip-path="url(#clipPath20825)" />
    </g>
    <g
       id="g3730-5"
       transform="translate(300.00001,0.25383599)">
      <rect
         style="fill:url(#linearGradient3873);fill-opacity:1;stroke:none;stroke-width:11.04;stroke-linecap:butt;stroke-linejoin:miter;stroke-miterlimit:18.2;stroke-dasharray:none;stroke-opacity:1;paint-order:stroke markers fill"
         id="rect2638-9"
         width="188.96005"
         height="188.96001"
         x="107.86923"
         y="-307.08649"
         transform="matrix(1.0361657,0,0,-1.0422321,-59.180885,-70.039839)"
         clip-path="url(#clipPath20849-4)" />
      <path
         id="path7490-7"
         style="fill:url(#linearGradient3875);fill-opacity:1;stroke:none;stroke-width:14.6079;stroke-linecap:butt;stroke-linejoin:miter;stroke-miterlimit:4;stroke-dasharray:none;stroke-opacity:1"
         transform="matrix(0.27415199,0,0,0.27265659,-59.180804,-66.47442)"
         d="M 215.86914,243.80273 407.69531,438.46289 H 1121.875 l 186.2773,-194.66016 z"
         clip-path="url(#clipPath20837-3)" />
      <path
         style="fill:url(#linearGradient3877);fill-opacity:1;stroke:none;stroke-width:3.8;stroke-linecap:butt;stroke-linejoin:miter;stroke-miterlimit:4;stroke-dasharray:none;stroke-opacity:1"
         d="m 107.86938,116.00997 0.86419,191.28193 -51.618337,48.33114 V 64.506376 Z"
         id="path7854-5"
         clip-path="url(#clipPath20833-9)"
         sodipodi:nodetypes="ccccc"
         transform="matrix(1.0608854,0,0,1.0296412,-60.592717,-66.418176)" />
      <path
         style="fill:url(#linearGradient3879);fill-opacity:1;stroke:none;stroke-width:3.8;stroke-linecap:butt;stroke-linejoin:miter;stroke-miterlimit:4;stroke-dasharray:none;stroke-opacity:1"
         d="m 54.669569,355.37672 53.199661,-48.29025 h 188.96006 l 49.28595,48.53657 z"
         id="path14311-3"
         clip-path="url(#clipPath20829-7)"
         transform="matrix(1.0293514,0,0,1.0305131,-56.274196,-66.47442)"
         sodipodi:nodetypes="ccccc" />
      <path
         id="path16368-8"
         style="fill:url(#linearGradient3881);fill-opacity:1;stroke:none;stroke-width:14.3622;stroke-linecap:butt;stroke-linejoin:miter;stroke-miterlimit:4;stroke-dasharray:none;stroke-opacity:1"
         d="M 1308.1523,243.80273 1121.875,438.46289 v 722.17971 l 186.2773,183.4453 z"
         transform="matrix(0.27415199,0,0,0.27265659,-59.180804,-66.47442)"
         clip-path="url(#clipPath20825-4)" />
    </g>
    <g
       id="g3730-0"
       transform="translate(-0.53538724,299.7457)">
      <rect
         style="fill:url(#linearGradient3986);fill-opacity:1;stroke:none;stroke-width:11.04;stroke-linecap:butt;stroke-linejoin:miter;stroke-miterlimit:18.2;stroke-dasharray:none;stroke-opacity:1;paint-order:stroke markers fill"
         id="rect2638-3"
         width="188.96005"
         height="188.96001"
         x="107.86923"
         y="-307.08649"
         transform="matrix(1.0361657,0,0,-1.0422321,-59.180885,-70.039839)"
         clip-path="url(#clipPath20849-1)" />
      <path
         id="path7490-0"
         style="fill:url(#linearGradient3988);fill-opacity:1;stroke:none;stroke-width:14.6079;stroke-linecap:butt;stroke-linejoin:miter;stroke-miterlimit:4;stroke-dasharray:none;stroke-opacity:1"
         transform="matrix(0.27415199,0,0,0.27265659,-59.180804,-66.47442)"
         d="M 215.86914,243.80273 407.69531,438.46289 H 1121.875 l 186.2773,-194.66016 z"
         clip-path="url(#clipPath20837-4)" />
      <path
         style="fill:url(#linearGradient3990);fill-opacity:1;stroke:none;stroke-width:3.8;stroke-linecap:butt;stroke-linejoin:miter;stroke-miterlimit:4;stroke-dasharray:none;stroke-opacity:1"
         d="m 107.86938,116.00997 0.86419,191.28193 -51.618337,48.33114 V 64.506376 Z"
         id="path7854-9"
         clip-path="url(#clipPath20833-8)"
         sodipodi:nodetypes="ccccc"
         transform="matrix(1.0608854,0,0,1.0296412,-60.592717,-66.418176)" />
      <path
         style="fill:url(#linearGradient3992);fill-opacity:1;stroke:none;stroke-width:3.8;stroke-linecap:butt;stroke-linejoin:miter;stroke-miterlimit:4;stroke-dasharray:none;stroke-opacity:1"
         d="m 54.669569,355.37672 53.199661,-48.29025 h 188.96006 l 49.28595,48.53657 z"
         id="path14311-2"
         clip-path="url(#clipPath20829-8)"
         transform="matrix(1.0293514,0,0,1.0305131,-56.274196,-66.47442)"
         sodipodi:nodetypes="ccccc" />
      <path
         id="path16368-5"
         style="fill:url(#linearGradient3994);fill-opacity:1;stroke:none;stroke-width:14.3622;stroke-linecap:butt;stroke-linejoin:miter;stroke-miterlimit:4;stroke-dasharray:none;stroke-opacity:1"
         d="M 1308.1523,243.80273 1121.875,438.46289 v 722.17971 l 186.2773,183.4453 z"
         transform="matrix(0.27415199,0,0,0.27265659,-59.180804,-66.47442)"
         clip-path="url(#clipPath20825-64)" />
    </g>
    <g
       id="g3730-1"
       transform="translate(298.35417,301.73542)">
      <rect
         style="fill:url(#linearGradient4099);fill-opacity:1;stroke:none;stroke-width:11.04;stroke-linecap:butt;stroke-linejoin:miter;stroke-miterlimit:18.2;stroke-dasharray:none;stroke-opacity:1;paint-order:stroke markers fill"
         id="rect2638-0"
         width="188.96005"
         height="188.96001"
         x="107.86923"
         y="-307.08649"
         transform="matrix(1.0361657,0,0,-1.0422321,-59.180885,-70.039839)"
         clip-path="url(#clipPath20849-59)" />
      <path
         id="path7490-5"
         style="fill:url(#linearGradient4101);fill-opacity:1;stroke:none;stroke-width:14.6079;stroke-linecap:butt;stroke-linejoin:miter;stroke-miterlimit:4;stroke-dasharray:none;stroke-opacity:1"
         transform="matrix(0.27415199,0,0,0.27265659,-59.180804,-66.47442)"
         d="M 215.86914,243.80273 407.69531,438.46289 H 1121.875 l 186.2773,-194.66016 z"
         clip-path="url(#clipPath20837-24)" />
      <path
         style="fill:url(#linearGradient4103);fill-opacity:1;stroke:none;stroke-width:3.8;stroke-linecap:butt;stroke-linejoin:miter;stroke-miterlimit:4;stroke-dasharray:none;stroke-opacity:1"
         d="m 107.86938,116.00997 0.86419,191.28193 -51.618337,48.33114 V 64.506376 Z"
         id="path7854-1"
         clip-path="url(#clipPath20833-4)"
         sodipodi:nodetypes="ccccc"
         transform="matrix(1.0608854,0,0,1.0296412,-60.592717,-66.418176)" />
      <path
         style="fill:url(#linearGradient4105);fill-opacity:1;stroke:none;stroke-width:3.8;stroke-linecap:butt;stroke-linejoin:miter;stroke-miterlimit:4;stroke-dasharray:none;stroke-opacity:1"
         d="m 54.669569,355.37672 53.199661,-48.29025 h 188.96006 l 49.28595,48.53657 z"
         id="path14311-1"
         clip-path="url(#clipPath20829-89)"
         transform="matrix(1.0293514,0,0,1.0305131,-56.274196,-66.47442)"
         sodipodi:nodetypes="ccccc" />
      <path
         id="path16368-0"
         style="fill:url(#linearGradient4107);fill-opacity:1;stroke:none;stroke-width:14.3622;stroke-linecap:butt;stroke-linejoin:miter;stroke-miterlimit:4;stroke-dasharray:none;stroke-opacity:1"
         d="M 1308.1523,243.80273 1121.875,438.46289 v 722.17971 l 186.2773,183.4453 z"
         transform="matrix(0.27415199,0,0,0.27265659,-59.180804,-66.47442)"
         clip-path="url(#clipPath20825-0)" />
    </g>
    <path
       style="fill:none;stroke:#000000;stroke-width:0.264583px;stroke-linecap:butt;stroke-linejoin:miter;stroke-opacity:1"
       d="M 351.61511,61.122832 Z"
       id="path3587"
       clip-path="url(#clipPath20845)" />
    <path
       style="fill:none;stroke:#000000;stroke-width:0.264583px;stroke-linecap:butt;stroke-linejoin:miter;stroke-opacity:1"
       d="M 351.61511,361.12283 Z"
       id="path3591"
       clip-path="url(#clipPath20841)" />
  </g>
</svg>
