<?xml version="1.0" encoding="UTF-8" standalone="no"?>
<!-- Created with Inkscape (http://www.inkscape.org/) -->

<svg
   width="600mm"
   height="300mm"
   viewBox="0 0 600 300"
   version="1.1"
   id="svg5"
   inkscape:version="1.1.2 (0a00cf5339, 2022-02-04)"
   sodipodi:docname="slope_3.svg"
   xmlns:inkscape="http://www.inkscape.org/namespaces/inkscape"
   xmlns:sodipodi="http://sodipodi.sourceforge.net/DTD/sodipodi-0.dtd"
   xmlns:xlink="http://www.w3.org/1999/xlink"
   xmlns="http://www.w3.org/2000/svg"
   xmlns:svg="http://www.w3.org/2000/svg">
  <sodipodi:namedview
     id="namedview7"
     pagecolor="#505050"
     bordercolor="#eeeeee"
     borderopacity="1"
     inkscape:pageshadow="0"
     inkscape:pageopacity="0"
     inkscape:pagecheckerboard="0"
     inkscape:document-units="px"
     showgrid="false"
     width="600mm"
     inkscape:zoom="0.39438678"
     inkscape:cx="999.01929"
     inkscape:cy="561.63141"
     inkscape:window-width="1876"
     inkscape:window-height="1015"
     inkscape:window-x="44"
     inkscape:window-y="41"
     inkscape:window-maximized="1"
     inkscape:current-layer="layer1"
     showguides="false"
     inkscape:guide-bbox="true"
     inkscape:snap-bbox="true"
     inkscape:snap-global="false"
     units="mm"
     inkscape:snap-intersection-paths="true" />
  <defs
     id="defs2">
    <inkscape:perspective
       sodipodi:type="inkscape:persp3d"
       inkscape:vp_x="41.848824 : 126.70991 : 1"
       inkscape:vp_y="0 : 1000 : 0"
       inkscape:vp_z="-162.21616 : -82.812504 : 1"
       inkscape:persp3d-origin="200 : 33.333331 : 1"
       id="perspective2245" />
    <clipPath
       clipPathUnits="userSpaceOnUse"
       id="clipPath20825">
      <rect
         style="opacity:0.392018;fill:#ffffff;fill-opacity:1;stroke:none;stroke-width:936.295;stroke-linecap:butt;stroke-linejoin:miter;stroke-miterlimit:4;stroke-dasharray:none;stroke-opacity:1;paint-order:stroke markers fill"
         id="rect20827"
         width="1106.6488"
         height="1114.7675"
         x="208.68936"
         y="236.50517" />
    </clipPath>
    <clipPath
       clipPathUnits="userSpaceOnUse"
       id="clipPath20829">
      <rect
         style="opacity:0.392018;fill:#ffffff;fill-opacity:1;stroke:none;stroke-width:247.728;stroke-linecap:butt;stroke-linejoin:miter;stroke-miterlimit:4;stroke-dasharray:none;stroke-opacity:1;paint-order:stroke markers fill"
         id="rect20831"
         width="292.80084"
         height="294.94888"
         x="55.215729"
         y="62.575329" />
    </clipPath>
    <clipPath
       clipPathUnits="userSpaceOnUse"
       id="clipPath20833">
      <rect
         style="opacity:0.392018;fill:#ffffff;fill-opacity:1;stroke:none;stroke-width:247.728;stroke-linecap:butt;stroke-linejoin:miter;stroke-miterlimit:4;stroke-dasharray:none;stroke-opacity:1;paint-order:stroke markers fill"
         id="rect20835"
         width="292.80084"
         height="294.94888"
         x="55.215729"
         y="62.575329" />
    </clipPath>
    <clipPath
       clipPathUnits="userSpaceOnUse"
       id="clipPath20837">
      <rect
         style="opacity:0.392018;fill:#ffffff;fill-opacity:1;stroke:none;stroke-width:936.295;stroke-linecap:butt;stroke-linejoin:miter;stroke-miterlimit:4;stroke-dasharray:none;stroke-opacity:1;paint-order:stroke markers fill"
         id="rect20839"
         width="1106.6488"
         height="1114.7675"
         x="208.68936"
         y="236.50517" />
    </clipPath>
    <clipPath
       clipPathUnits="userSpaceOnUse"
       id="clipPath20841">
      <rect
         style="opacity:0.392018;fill:#ffffff;fill-opacity:1;stroke:none;stroke-width:247.728;stroke-linecap:butt;stroke-linejoin:miter;stroke-miterlimit:4;stroke-dasharray:none;stroke-opacity:1;paint-order:stroke markers fill"
         id="rect20843"
         width="292.80084"
         height="294.94888"
         x="55.215729"
         y="62.575329" />
    </clipPath>
    <clipPath
       clipPathUnits="userSpaceOnUse"
       id="clipPath20845">
      <rect
         style="opacity:0.392018;fill:#ffffff;fill-opacity:1;stroke:none;stroke-width:247.728;stroke-linecap:butt;stroke-linejoin:miter;stroke-miterlimit:4;stroke-dasharray:none;stroke-opacity:1;paint-order:stroke markers fill"
         id="rect20847"
         width="292.80084"
         height="294.94888"
         x="55.215729"
         y="62.575329" />
    </clipPath>
    <clipPath
       clipPathUnits="userSpaceOnUse"
       id="clipPath20849">
      <rect
         style="opacity:0.392018;fill:#ffffff;fill-opacity:1;stroke:none;stroke-width:247.728;stroke-linecap:butt;stroke-linejoin:miter;stroke-miterlimit:4;stroke-dasharray:none;stroke-opacity:1;paint-order:stroke markers fill"
         id="rect20851"
         width="292.80084"
         height="294.94888"
         x="55.215729"
         y="62.575329"
         transform="scale(1,-1)" />
    </clipPath>
    <clipPath
       clipPathUnits="userSpaceOnUse"
       id="clipPath20849-5">
      <rect
         style="opacity:0.392018;fill:#ffffff;fill-opacity:1;stroke:none;stroke-width:247.728;stroke-linecap:butt;stroke-linejoin:miter;stroke-miterlimit:4;stroke-dasharray:none;stroke-opacity:1;paint-order:stroke markers fill"
         id="rect20851-3"
         width="292.80084"
         height="294.94888"
         x="55.215729"
         y="62.575329"
         transform="scale(1,-1)" />
    </clipPath>
    <clipPath
       clipPathUnits="userSpaceOnUse"
       id="clipPath20837-2">
      <rect
         style="opacity:0.392018;fill:#ffffff;fill-opacity:1;stroke:none;stroke-width:936.295;stroke-linecap:butt;stroke-linejoin:miter;stroke-miterlimit:4;stroke-dasharray:none;stroke-opacity:1;paint-order:stroke markers fill"
         id="rect20839-9"
         width="1106.6488"
         height="1114.7675"
         x="208.68936"
         y="236.50517" />
    </clipPath>
    <clipPath
       clipPathUnits="userSpaceOnUse"
       id="clipPath20833-7">
      <rect
         style="opacity:0.392018;fill:#ffffff;fill-opacity:1;stroke:none;stroke-width:247.728;stroke-linecap:butt;stroke-linejoin:miter;stroke-miterlimit:4;stroke-dasharray:none;stroke-opacity:1;paint-order:stroke markers fill"
         id="rect20835-0"
         width="292.80084"
         height="294.94888"
         x="55.215729"
         y="62.575329" />
    </clipPath>
    <clipPath
       clipPathUnits="userSpaceOnUse"
       id="clipPath20829-6">
      <rect
         style="opacity:0.392018;fill:#ffffff;fill-opacity:1;stroke:none;stroke-width:247.728;stroke-linecap:butt;stroke-linejoin:miter;stroke-miterlimit:4;stroke-dasharray:none;stroke-opacity:1;paint-order:stroke markers fill"
         id="rect20831-0"
         width="292.80084"
         height="294.94888"
         x="55.215729"
         y="62.575329" />
    </clipPath>
    <clipPath
       clipPathUnits="userSpaceOnUse"
       id="clipPath20825-6">
      <rect
         style="opacity:0.392018;fill:#ffffff;fill-opacity:1;stroke:none;stroke-width:936.295;stroke-linecap:butt;stroke-linejoin:miter;stroke-miterlimit:4;stroke-dasharray:none;stroke-opacity:1;paint-order:stroke markers fill"
         id="rect20827-1"
         width="1106.6488"
         height="1114.7675"
         x="208.68936"
         y="236.50517" />
    </clipPath>
    <clipPath
       clipPathUnits="userSpaceOnUse"
       id="clipPath20849-8">
      <rect
         style="opacity:0.392018;fill:#ffffff;fill-opacity:1;stroke:none;stroke-width:247.728;stroke-linecap:butt;stroke-linejoin:miter;stroke-miterlimit:4;stroke-dasharray:none;stroke-opacity:1;paint-order:stroke markers fill"
         id="rect20851-8"
         width="292.80084"
         height="294.94888"
         x="55.215729"
         y="62.575329"
         transform="scale(1,-1)" />
    </clipPath>
    <clipPath
       clipPathUnits="userSpaceOnUse"
       id="clipPath20837-1">
      <rect
         style="opacity:0.392018;fill:#ffffff;fill-opacity:1;stroke:none;stroke-width:936.295;stroke-linecap:butt;stroke-linejoin:miter;stroke-miterlimit:4;stroke-dasharray:none;stroke-opacity:1;paint-order:stroke markers fill"
         id="rect20839-4"
         width="1106.6488"
         height="1114.7675"
         x="208.68936"
         y="236.50517" />
    </clipPath>
    <clipPath
       clipPathUnits="userSpaceOnUse"
       id="clipPath20833-0">
      <rect
         style="opacity:0.392018;fill:#ffffff;fill-opacity:1;stroke:none;stroke-width:247.728;stroke-linecap:butt;stroke-linejoin:miter;stroke-miterlimit:4;stroke-dasharray:none;stroke-opacity:1;paint-order:stroke markers fill"
         id="rect20835-6"
         width="292.80084"
         height="294.94888"
         x="55.215729"
         y="62.575329" />
    </clipPath>
    <clipPath
       clipPathUnits="userSpaceOnUse"
       id="clipPath20829-2">
      <rect
         style="opacity:0.392018;fill:#ffffff;fill-opacity:1;stroke:none;stroke-width:247.728;stroke-linecap:butt;stroke-linejoin:miter;stroke-miterlimit:4;stroke-dasharray:none;stroke-opacity:1;paint-order:stroke markers fill"
         id="rect20831-6"
         width="292.80084"
         height="294.94888"
         x="55.215729"
         y="62.575329" />
    </clipPath>
    <clipPath
       clipPathUnits="userSpaceOnUse"
       id="clipPath20825-9">
      <rect
         style="opacity:0.392018;fill:#ffffff;fill-opacity:1;stroke:none;stroke-width:936.295;stroke-linecap:butt;stroke-linejoin:miter;stroke-miterlimit:4;stroke-dasharray:none;stroke-opacity:1;paint-order:stroke markers fill"
         id="rect20827-5"
         width="1106.6488"
         height="1114.7675"
         x="208.68936"
         y="236.50517" />
    </clipPath>
    <clipPath
       clipPathUnits="userSpaceOnUse"
       id="clipPath20825-93">
      <rect
         style="opacity:0.392018;fill:#ffffff;fill-opacity:1;stroke:none;stroke-width:936.295;stroke-linecap:butt;stroke-linejoin:miter;stroke-miterlimit:4;stroke-dasharray:none;stroke-opacity:1;paint-order:stroke markers fill"
         id="rect20827-9"
         width="1106.6488"
         height="1114.7675"
         x="208.68936"
         y="236.50517" />
    </clipPath>
    <clipPath
       clipPathUnits="userSpaceOnUse"
       id="clipPath20829-8">
      <rect
         style="opacity:0.392018;fill:#ffffff;fill-opacity:1;stroke:none;stroke-width:247.728;stroke-linecap:butt;stroke-linejoin:miter;stroke-miterlimit:4;stroke-dasharray:none;stroke-opacity:1;paint-order:stroke markers fill"
         id="rect20831-5"
         width="292.80084"
         height="294.94888"
         x="55.215729"
         y="62.575329" />
    </clipPath>
    <clipPath
       clipPathUnits="userSpaceOnUse"
       id="clipPath20849-3">
      <rect
         style="opacity:0.392018;fill:#ffffff;fill-opacity:1;stroke:none;stroke-width:247.728;stroke-linecap:butt;stroke-linejoin:miter;stroke-miterlimit:4;stroke-dasharray:none;stroke-opacity:1;paint-order:stroke markers fill"
         id="rect20851-85"
         width="292.80084"
         height="294.94888"
         x="55.215729"
         y="62.575329"
         transform="scale(1,-1)" />
    </clipPath>
    <linearGradient
       inkscape:collect="always"
       xlink:href="#linearGradient1915"
       id="linearGradient53510-0"
       x1="199.82172"
       y1="-118.95808"
       x2="200.80431"
       y2="-303.72198"
       gradientUnits="userSpaceOnUse"
       gradientTransform="matrix(-4.1249703,-3.661573,-3.8870434,3.9313308,305.58697,1243.4673)" />
    <linearGradient
       inkscape:collect="always"
       id="linearGradient1915">
      <stop
         style="stop-color:#882b52;stop-opacity:1"
         offset="0"
         id="stop1911" />
      <stop
         style="stop-color:#e6649a;stop-opacity:1"
         offset="1"
         id="stop1913" />
    </linearGradient>
    <clipPath
       clipPathUnits="userSpaceOnUse"
       id="clipPath20849-87">
      <rect
         style="opacity:0.392018;fill:#ffffff;fill-opacity:1;stroke:none;stroke-width:247.728;stroke-linecap:butt;stroke-linejoin:miter;stroke-miterlimit:4;stroke-dasharray:none;stroke-opacity:1;paint-order:stroke markers fill"
         id="rect20851-9"
         width="292.80084"
         height="294.94888"
         x="55.215729"
         y="62.575329"
         transform="scale(1,-1)" />
    </clipPath>
    <clipPath
       clipPathUnits="userSpaceOnUse"
       id="clipPath20849-5-2">
      <rect
         style="opacity:0.392018;fill:#ffffff;fill-opacity:1;stroke:none;stroke-width:247.728;stroke-linecap:butt;stroke-linejoin:miter;stroke-miterlimit:4;stroke-dasharray:none;stroke-opacity:1;paint-order:stroke markers fill"
         id="rect20851-3-0"
         width="292.80084"
         height="294.94888"
         x="55.215729"
         y="62.575329"
         transform="scale(1,-1)" />
    </clipPath>
    <clipPath
       clipPathUnits="userSpaceOnUse"
       id="clipPath20837-2-2">
      <rect
         style="opacity:0.392018;fill:#ffffff;fill-opacity:1;stroke:none;stroke-width:936.295;stroke-linecap:butt;stroke-linejoin:miter;stroke-miterlimit:4;stroke-dasharray:none;stroke-opacity:1;paint-order:stroke markers fill"
         id="rect20839-9-3"
         width="1106.6488"
         height="1114.7675"
         x="208.68936"
         y="236.50517" />
    </clipPath>
    <clipPath
       clipPathUnits="userSpaceOnUse"
       id="clipPath20833-7-7">
      <rect
         style="opacity:0.392018;fill:#ffffff;fill-opacity:1;stroke:none;stroke-width:247.728;stroke-linecap:butt;stroke-linejoin:miter;stroke-miterlimit:4;stroke-dasharray:none;stroke-opacity:1;paint-order:stroke markers fill"
         id="rect20835-0-59"
         width="292.80084"
         height="294.94888"
         x="55.215729"
         y="62.575329" />
    </clipPath>
    <clipPath
       clipPathUnits="userSpaceOnUse"
       id="clipPath20829-6-2">
      <rect
         style="opacity:0.392018;fill:#ffffff;fill-opacity:1;stroke:none;stroke-width:247.728;stroke-linecap:butt;stroke-linejoin:miter;stroke-miterlimit:4;stroke-dasharray:none;stroke-opacity:1;paint-order:stroke markers fill"
         id="rect20831-0-2"
         width="292.80084"
         height="294.94888"
         x="55.215729"
         y="62.575329" />
    </clipPath>
    <clipPath
       clipPathUnits="userSpaceOnUse"
       id="clipPath20825-6-8">
      <rect
         style="opacity:0.392018;fill:#ffffff;fill-opacity:1;stroke:none;stroke-width:936.295;stroke-linecap:butt;stroke-linejoin:miter;stroke-miterlimit:4;stroke-dasharray:none;stroke-opacity:1;paint-order:stroke markers fill"
         id="rect20827-1-9"
         width="1106.6488"
         height="1114.7675"
         x="208.68936"
         y="236.50517" />
    </clipPath>
    <linearGradient
       inkscape:collect="always"
       xlink:href="#linearGradient1789"
       id="linearGradient10449"
       gradientUnits="userSpaceOnUse"
       x1="194.24768"
       y1="309.01398"
       x2="193.70741"
       y2="355.93658" />
    <linearGradient
       inkscape:collect="always"
       id="linearGradient1789">
      <stop
         style="stop-color:#67203e;stop-opacity:1"
         offset="0"
         id="stop1785" />
      <stop
         style="stop-color:#5c1d37;stop-opacity:1"
         offset="1"
         id="stop1787" />
    </linearGradient>
    <clipPath
       clipPathUnits="userSpaceOnUse"
       id="clipPath20829-7">
      <rect
         style="opacity:0.392018;fill:#ffffff;fill-opacity:1;stroke:none;stroke-width:247.728;stroke-linecap:butt;stroke-linejoin:miter;stroke-miterlimit:4;stroke-dasharray:none;stroke-opacity:1;paint-order:stroke markers fill"
         id="rect20831-3"
         width="292.80084"
         height="294.94888"
         x="55.215729"
         y="62.575329" />
    </clipPath>
    <linearGradient
       inkscape:collect="always"
       xlink:href="#linearGradient1745"
       id="linearGradient41622-8"
       x1="1114.6938"
       y1="793.88892"
       x2="1315.3334"
       y2="793.88892"
       gradientUnits="userSpaceOnUse" />
    <linearGradient
       inkscape:collect="always"
       id="linearGradient1745">
      <stop
         style="stop-color:#f8e9ef;stop-opacity:1"
         offset="0"
         id="stop1741" />
      <stop
         style="stop-color:#67203e;stop-opacity:1"
         offset="1"
         id="stop1743" />
    </linearGradient>
    <clipPath
       clipPathUnits="userSpaceOnUse"
       id="clipPath20825-61">
      <rect
         style="opacity:0.392018;fill:#ffffff;fill-opacity:1;stroke:none;stroke-width:936.295;stroke-linecap:butt;stroke-linejoin:miter;stroke-miterlimit:4;stroke-dasharray:none;stroke-opacity:1;paint-order:stroke markers fill"
         id="rect20827-2"
         width="1106.6488"
         height="1114.7675"
         x="208.68936"
         y="236.50517" />
    </clipPath>
    <clipPath
       clipPathUnits="userSpaceOnUse"
       id="clipPath20849-7">
      <rect
         style="opacity:0.392018;fill:#ffffff;fill-opacity:1;stroke:none;stroke-width:247.728;stroke-linecap:butt;stroke-linejoin:miter;stroke-miterlimit:4;stroke-dasharray:none;stroke-opacity:1;paint-order:stroke markers fill"
         id="rect20851-5"
         width="292.80084"
         height="294.94888"
         x="55.215729"
         y="62.575329"
         transform="scale(1,-1)" />
    </clipPath>
    <clipPath
       clipPathUnits="userSpaceOnUse"
       id="clipPath20833-7-3">
      <rect
         style="opacity:0.392018;fill:#ffffff;fill-opacity:1;stroke:none;stroke-width:247.728;stroke-linecap:butt;stroke-linejoin:miter;stroke-miterlimit:4;stroke-dasharray:none;stroke-opacity:1;paint-order:stroke markers fill"
         id="rect20835-0-5"
         width="292.80084"
         height="294.94888"
         x="55.215729"
         y="62.575329" />
    </clipPath>
    <clipPath
       clipPathUnits="userSpaceOnUse"
       id="clipPath20829-1">
      <rect
         style="opacity:0.392018;fill:#ffffff;fill-opacity:1;stroke:none;stroke-width:247.728;stroke-linecap:butt;stroke-linejoin:miter;stroke-miterlimit:4;stroke-dasharray:none;stroke-opacity:1;paint-order:stroke markers fill"
         id="rect20831-2"
         width="292.80084"
         height="294.94888"
         x="55.215729"
         y="62.575329" />
    </clipPath>
    <clipPath
       clipPathUnits="userSpaceOnUse"
       id="clipPath20825-3">
      <rect
         style="opacity:0.392018;fill:#ffffff;fill-opacity:1;stroke:none;stroke-width:936.295;stroke-linecap:butt;stroke-linejoin:miter;stroke-miterlimit:4;stroke-dasharray:none;stroke-opacity:1;paint-order:stroke markers fill"
         id="rect20827-6"
         width="1106.6488"
         height="1114.7675"
         x="208.68936"
         y="236.50517" />
    </clipPath>
    <linearGradient
       inkscape:collect="always"
       xlink:href="#linearGradient1915"
       id="linearGradient5297"
       gradientUnits="userSpaceOnUse"
       gradientTransform="matrix(-4.1249703,-3.661573,-3.8870434,3.9313308,305.58697,1243.4673)"
       x1="199.82172"
       y1="-118.95808"
       x2="200.80431"
       y2="-303.72198" />
    <linearGradient
       inkscape:collect="always"
       xlink:href="#linearGradient1789"
       id="linearGradient5299"
       gradientUnits="userSpaceOnUse"
       x1="194.24768"
       y1="309.01398"
       x2="193.70741"
       y2="355.93658" />
    <linearGradient
       inkscape:collect="always"
       xlink:href="#linearGradient1745"
       id="linearGradient5301"
       gradientUnits="userSpaceOnUse"
       x1="1114.6938"
       y1="793.88892"
       x2="1315.3334"
       y2="793.88892" />
    <clipPath
       clipPathUnits="userSpaceOnUse"
       id="clipPath20849-87-6">
      <rect
         style="opacity:0.392018;fill:#ffffff;fill-opacity:1;stroke:none;stroke-width:247.728;stroke-linecap:butt;stroke-linejoin:miter;stroke-miterlimit:4;stroke-dasharray:none;stroke-opacity:1;paint-order:stroke markers fill"
         id="rect20851-9-1"
         width="292.80084"
         height="294.94888"
         x="55.215729"
         y="62.575329"
         transform="scale(1,-1)" />
    </clipPath>
    <clipPath
       clipPathUnits="userSpaceOnUse"
       id="clipPath20829-7-1">
      <rect
         style="opacity:0.392018;fill:#ffffff;fill-opacity:1;stroke:none;stroke-width:247.728;stroke-linecap:butt;stroke-linejoin:miter;stroke-miterlimit:4;stroke-dasharray:none;stroke-opacity:1;paint-order:stroke markers fill"
         id="rect20831-3-9"
         width="292.80084"
         height="294.94888"
         x="55.215729"
         y="62.575329" />
    </clipPath>
    <clipPath
       clipPathUnits="userSpaceOnUse"
       id="clipPath20825-61-4">
      <rect
         style="opacity:0.392018;fill:#ffffff;fill-opacity:1;stroke:none;stroke-width:936.295;stroke-linecap:butt;stroke-linejoin:miter;stroke-miterlimit:4;stroke-dasharray:none;stroke-opacity:1;paint-order:stroke markers fill"
         id="rect20827-2-5"
         width="1106.6488"
         height="1114.7675"
         x="208.68936"
         y="236.50517" />
    </clipPath>
  </defs>
  <g
     inkscape:label="Layer 1"
     inkscape:groupmode="layer"
     id="layer1">
    <path
       style="fill:none;stroke:#000000;stroke-width:0.264583px;stroke-linecap:butt;stroke-linejoin:miter;stroke-opacity:1"
       d="M 351.61511,61.122832 Z"
       id="path3587"
       clip-path="url(#clipPath20845)" />
    <path
       style="fill:none;stroke:#000000;stroke-width:0.264583px;stroke-linecap:butt;stroke-linejoin:miter;stroke-opacity:1"
       d="M 351.61511,361.12283 Z"
       id="path3591"
       clip-path="url(#clipPath20841)" />
    <path
       style="fill:none;fill-opacity:1;stroke:none;stroke-width:3.8;stroke-linecap:butt;stroke-linejoin:miter;stroke-miterlimit:4;stroke-dasharray:none;stroke-opacity:1"
       d="m 54.669569,355.37672 53.199661,-48.29025 h 188.96006 l 49.28595,48.53657 z"
       id="path14311-2"
       clip-path="url(#clipPath20829-6-2)"
       transform="matrix(1.0293514,0,0,1.0305131,373.77659,-320.88071)"
       sodipodi:nodetypes="ccccc" />
    <g
       id="g2595"
       transform="matrix(0.98376382,0,0,1,0.00229375,0)">
      <path
         id="rect2638"
         clip-path="url(#clipPath20849-87)"
         style="fill:url(#linearGradient5297);stroke-width:60.9197;stroke-miterlimit:18.2;paint-order:stroke markers fill"
         d="m 268.24805,-1053.5176 -814.01172,823.28518 195.99414,173.976561 H 80.548828 L 693.41992,-676.10938 Z"
         transform="matrix(-0.78852852,0,0,0.77725222,328.48449,305.97964)" />
      <path
         style="fill:url(#linearGradient5299);fill-opacity:1;stroke:none;stroke-width:3.8;stroke-linecap:butt;stroke-linejoin:miter;stroke-miterlimit:4;stroke-dasharray:none;stroke-opacity:1"
         d="m 54.669569,355.37672 53.199661,-48.29025 h 188.96006 l 49.28595,48.53657 z"
         id="path14311"
         clip-path="url(#clipPath20829-7)"
         transform="matrix(1.0293514,0,0,-1.0305131,-56.695114,367.28733)"
         sodipodi:nodetypes="ccccc" />
      <path
         id="path16368"
         style="fill:url(#linearGradient5301);fill-opacity:1;stroke:none;stroke-width:14.3622;stroke-linecap:butt;stroke-linejoin:miter;stroke-miterlimit:4;stroke-dasharray:none;stroke-opacity:1"
         d="M 1308.1523,243.80273 1121.875,438.46289 v 722.17971 l 186.2773,183.4453 z"
         transform="matrix(0.27415199,0,0,-0.27265659,-58.909014,366.93001)"
         clip-path="url(#clipPath20825-61)" />
    </g>
    <path
       style="fill:none;fill-opacity:1;stroke:none;stroke-width:3.8;stroke-linecap:butt;stroke-linejoin:miter;stroke-miterlimit:4;stroke-dasharray:none;stroke-opacity:1"
       d="m 107.86938,116.00997 0.86419,191.28193 -51.618337,48.33114 V 64.506376 Z"
       id="path7854-9-6"
       clip-path="url(#clipPath20833-7-3)"
       sodipodi:nodetypes="ccccc"
       transform="matrix(1.0608854,0,0,1.0296412,537.57129,-64.44035)" />
    <g
       id="g2590"
       transform="matrix(1.0125061,0,0,1,4.5673448,0)">
      <path
         id="rect2638-8"
         clip-path="url(#clipPath20849-5-2)"
         style="fill:none;stroke-width:11.04;stroke-miterlimit:18.2;paint-order:stroke markers fill"
         transform="matrix(1.0361657,0,0,1.0422321,240.32741,369.65809)"
         d="m 107.86923,-307.08649 h 188.96005 v 188.96001 H 107.86923 Z" />
      <path
         id="path7490-7"
         style="fill:none;fill-opacity:1;stroke:none;stroke-width:14.6079;stroke-linecap:butt;stroke-linejoin:miter;stroke-miterlimit:4;stroke-dasharray:none;stroke-opacity:1"
         transform="matrix(0.27415199,0,0,-0.27265659,240.32751,366.09266)"
         d="M 215.86914,243.80273 407.69531,438.46289 H 1121.875 l 186.2773,-194.66016 z"
         clip-path="url(#clipPath20837-2-2)" />
      <path
         style="fill:none;fill-opacity:1;stroke:none;stroke-width:3.8;stroke-linecap:butt;stroke-linejoin:miter;stroke-miterlimit:4;stroke-dasharray:none;stroke-opacity:1"
         d="m 107.86938,116.00997 0.86419,191.28193 -51.618337,48.33114 V 64.506376 Z"
         id="path7854-9"
         clip-path="url(#clipPath20833-7-7)"
         sodipodi:nodetypes="ccccc"
         transform="matrix(1.0608854,0,0,-1.0296412,238.91561,366.03642)" />
      <path
         id="path16368-0"
         style="fill:none;fill-opacity:1;stroke:none;stroke-width:14.3622;stroke-linecap:butt;stroke-linejoin:miter;stroke-miterlimit:4;stroke-dasharray:none;stroke-opacity:1"
         d="M 1308.1523,243.80273 1121.875,438.46289 v 722.17971 l 186.2773,183.4453 z"
         transform="matrix(0.27415199,0,0,-0.27265659,240.32751,366.09266)"
         clip-path="url(#clipPath20825-6-8)" />
      <path
         id="rect2638-0"
         clip-path="url(#clipPath20849-7)"
         style="fill:url(#linearGradient53510-0);stroke-width:60.9197;stroke-miterlimit:18.2;paint-order:stroke markers fill"
         d="m 268.24805,-1053.5176 -814.01172,823.28518 195.99414,173.976561 H 80.548828 L 693.41992,-676.10938 Z"
         transform="matrix(-0.78852852,0,0,0.77725222,629.21961,306.88487)" />
      <path
         style="fill:url(#linearGradient10449);fill-opacity:1;stroke:none;stroke-width:3.8;stroke-linecap:butt;stroke-linejoin:miter;stroke-miterlimit:4;stroke-dasharray:none;stroke-opacity:1"
         d="m 54.669569,355.37672 53.199661,-48.29025 h 188.96006 l 49.28595,48.53657 z"
         id="path14311-26"
         clip-path="url(#clipPath20829-1)"
         transform="matrix(1.0283059,0,0,-1.0366837,244.40177,370.08744)"
         sodipodi:nodetypes="ccccc" />
      <path
         id="path16368-1"
         style="fill:url(#linearGradient41622-8);fill-opacity:1;stroke:none;stroke-width:14.3622;stroke-linecap:butt;stroke-linejoin:miter;stroke-miterlimit:4;stroke-dasharray:none;stroke-opacity:1"
         d="M 1308.1523,243.80273 1121.875,438.46289 v 722.17971 l 186.2773,183.4453 z"
         transform="matrix(0.27415199,0,0,-0.27265659,241.82611,367.83524)"
         clip-path="url(#clipPath20825-3)" />
      <path
         id="rect1036"
         style="fill:none;stroke:#ffff00;stroke-width:32.4395"
         d="M 584.6897,262.90838 V 17.928035 H 339.90109 Z"
         sodipodi:nodetypes="cccc" />
    </g>
  </g>
</svg>
