{
    "name": "Forest path",
    "author_nickname": "AndyB",
    "notes": "Get the car past the tree.",
    "hint1": "Build a frame around the outside and flip onto a ramp near the exit.",
    "hint2": "",
    "hint3": "",
    "discussion_id": "231",
    "discussion_slug": "231-forest-path",
    "highlight_notes": false,
    "effects": {},
    "zoom": {
        "w": 28.799999999999997,
        "x": -0.0425531914893611,
        "y": 0.10638297872340444
    },
    "shapes": [
        {
            "id": 0,
            "number": -1
        },
        {
            "id": 1,
            "number": -1
        },
        {
            "id": 2,
            "number": -1
        },
        {
            "id": 3,
            "number": -1
        },
        {
            "id": 4,
            "number": -1
        }
    ],
    "win_conditions": [
        {
            "bodyEnteredArea": [
                {
                    "RECT": [
                        {
                            "x": 7,
                            "y": 14
                        },
                        {
                            "x": 9,
                            "y": 16
                        }
                    ]
                },
                "main_car"
            ]
        }
    ],
    "lose_conditions": [
        {
            "greaterThan": [
                "time",
                20000
            ]
        }
    ],
    "blocks": [
        {
            "static_block": {
                "x": 3,
                "y": 16,
                "w": 14,
                "h": 1
            }
        },
        {
            "static_block": {
                "x": 9,
                "y": 11,
                "w": 1,
                "h": 5
            }
        },
        {
            "static_block": {
                "x": 7,
                "y": 11,
                "w": 2,
                "h": 1
            }
        },
        {
            "static_block": {
                "x": 9,
                "y": 10,
                "w": 4,
                "h": 1
            }
        },
        {
            "static_block": {
                "x": 9,
                "y": 8,
                "w": 1,
                "h": 2
            }
        },
        {
            "static_block": {
                "x": 10,
                "y": 8,
                "w": 4,
                "h": 1
            }
        },
        {
            "static_block": {
                "x": 6,
                "y": 8,
                "w": 3,
                "h": 1
            }
        },
        {
            "static_block": {
                "x": 5,
                "y": 9,
                "w": 1,
                "h": 1
            }
        },
        {
            "static_block": {
                "x": 14,
                "y": 9,
                "w": 2,
                "h": 1
            }
        },
        {
            "shape_block": {
                "x": 5,
                "y": 7,
                "id": 3,
                "rotation": 90,
                "reflected": false
            }
        },
        {
            "shape_block": {
                "x": 7,
                "y": 9,
                "id": 3,
                "rotation": 90,
                "reflected": false
            }
        },
        {
            "shape_block": {
                "x": 12,
                "y": 9,
                "id": 3,
                "rotation": 180,
                "reflected": false
            }
        },
        {
            "shape_block": {
                "x": 15,
                "y": 8,
                "id": 3,
                "rotation": 270,
                "reflected": false
            }
        },
        {
            "shape_block": {
                "x": 12,
                "y": 7,
                "id": 3,
                "rotation": 270,
                "reflected": false
            }
        },
        {
            "shape_block": {
                "x": 8,
                "y": 7,
                "id": 3,
                "rotation": 270,
                "reflected": false
            }
        },
        {
            "shape_block": {
                "x": 1,
                "y": 13,
                "id": 4,
                "rotation": 0,
                "reflected": false
            }
        },
        {
            "shape_block": {
                "x": 1,
                "y": 14,
                "id": 4,
                "rotation": 180,
                "reflected": false
            }
        },
        {
            "shape_block": {
                "x": 4,
                "y": 17,
                "id": 3,
                "rotation": 0,
                "reflected": true
            }
        },
        {
            "shape_block": {
                "x": 3,
                "y": 15,
                "id": 4,
                "rotation": 0,
                "reflected": false
            }
        },
        {
            "shape_block": {
                "x": 16,
                "y": 8,
                "id": 2,
                "rotation": 0,
                "reflected": false
            }
        },
        {
            "shape_block": {
                "x": 13,
                "y": 6,
                "id": 2,
                "rotation": 0,
                "reflected": false
            }
        },
        {
            "shape_block": {
                "x": 10,
                "y": 6,
                "id": 2,
                "rotation": 0,
                "reflected": false
            }
        },
        {
            "shape_block": {
                "x": 6,
                "y": 6,
                "id": 2,
                "rotation": 0,
                "reflected": false
            }
        },
        {
            "shape_block": {
                "x": 9,
                "y": 6,
                "id": 3,
                "rotation": 90,
                "reflected": false
            }
        },
        {
            "shape_block": {
                "x": 19,
                "y": 8,
                "id": 2,
                "rotation": 90,
                "reflected": false
            }
        },
        {
            "shape_block": {
                "x": 21,
                "y": 8,
                "id": 2,
                "rotation": 90,
                "reflected": false
            }
        },
        {
            "shape_block": {
                "x": 21,
                "y": 10,
                "id": 2,
                "rotation": 90,
                "reflected": false
            }
        },
        {
            "shape_block": {
                "x": 21,
                "y": 12,
                "id": 2,
                "rotation": 90,
                "reflected": false
            }
        },
        {
            "shape_block": {
                "x": 21,
                "y": 14,
                "id": 2,
                "rotation": 90,
                "reflected": false
            }
        },
        {
            "shape_block": {
                "x": 21,
                "y": 16,
                "id": 2,
                "rotation": 90,
                "reflected": false
            }
        },
        {
            "shape_block": {
                "x": 21,
                "y": 18,
                "id": 2,
                "rotation": 90,
                "reflected": false
            }
        },
        {
            "shape_block": {
                "x": 21,
                "y": 20,
                "id": 2,
                "rotation": 90,
                "reflected": false
            }
        },
        {
            "shape_block": {
                "x": 21,
                "y": 22,
                "id": 2,
                "rotation": 90,
                "reflected": false
            }
        },
        {
            "shape_block": {
                "x": 19,
                "y": 22,
                "id": 2,
                "rotation": 90,
                "reflected": false
            }
        },
        {
            "shape_block": {
                "x": 17,
                "y": 22,
                "id": 2,
                "rotation": 90,
                "reflected": false
            }
        },
        {
            "shape_block": {
                "x": 15,
                "y": 22,
                "id": 2,
                "rotation": 90,
                "reflected": false
            }
        },
        {
            "shape_block": {
                "x": 13,
                "y": 22,
                "id": 2,
                "rotation": 90,
                "reflected": false
            }
        },
        {
            "shape_block": {
                "x": 11,
                "y": 22,
                "id": 2,
                "rotation": 90,
                "reflected": false
            }
        },
        {
            "shape_block": {
                "x": 9,
                "y": 22,
                "id": 2,
                "rotation": 90,
                "reflected": false
            }
        },
        {
            "shape_block": {
                "x": 7,
                "y": 22,
                "id": 2,
                "rotation": 90,
                "reflected": false
            }
        },
        {
            "shape_block": {
                "x": 5,
                "y": 22,
                "id": 2,
                "rotation": 90,
                "reflected": false
            }
        },
        {
            "shape_block": {
                "x": 3,
                "y": 22,
                "id": 2,
                "rotation": 90,
                "reflected": false
            }
        },
        {
            "shape_block": {
                "x": 1,
                "y": 22,
                "id": 2,
                "rotation": 90,
                "reflected": false
            }
        },
        {
            "shape_block": {
                "x": -1,
                "y": 22,
                "id": 2,
                "rotation": 90,
                "reflected": false
            }
        },
        {
            "shape_block": {
                "x": -3,
                "y": 22,
                "id": 2,
                "rotation": 90,
                "reflected": false
            }
        },
        {
            "shape_block": {
                "x": -5,
                "y": 22,
                "id": 2,
                "rotation": 90,
                "reflected": false
            }
        },
        {
            "shape_block": {
                "x": -5,
                "y": 20,
                "id": 2,
                "rotation": 90,
                "reflected": false
            }
        },
        {
            "shape_block": {
                "x": -5,
                "y": 18,
                "id": 2,
                "rotation": 90,
                "reflected": false
            }
        },
        {
            "shape_block": {
                "x": -5,
                "y": 16,
                "id": 2,
                "rotation": 90,
                "reflected": false
            }
        },
        {
            "shape_block": {
                "x": -5,
                "y": 14,
                "id": 2,
                "rotation": 90,
                "reflected": false
            }
        },
        {
            "shape_block": {
                "x": -5,
                "y": 12,
                "id": 2,
                "rotation": 90,
                "reflected": false
            }
        },
        {
            "shape_block": {
                "x": -5,
                "y": 10,
                "id": 2,
                "rotation": 90,
                "reflected": false
            }
        },
        {
            "shape_block": {
                "x": -5,
                "y": 8,
                "id": 2,
                "rotation": 90,
                "reflected": false
            }
        },
        {
            "shape_block": {
                "x": -5,
                "y": 6,
                "id": 2,
                "rotation": 90,
                "reflected": false
            }
        },
        {
            "shape_block": {
                "x": -3,
                "y": 6,
                "id": 2,
                "rotation": 90,
                "reflected": false
            }
        },
        {
            "shape_block": {
                "x": -1,
                "y": 6,
                "id": 2,
                "rotation": 90,
                "reflected": false
            }
        },
        {
            "shape_block": {
                "x": 1,
                "y": 6,
                "id": 2,
                "rotation": 90,
                "reflected": false
            }
        },
        {
            "shape_block": {
                "x": 3,
                "y": 6,
                "id": 2,
                "rotation": 90,
                "reflected": false
            }
        },
        {
            "shape_block": {
                "x": 15,
                "y": 11,
                "id": 2,
                "rotation": 270,
                "reflected": false
            }
        },
        {
            "shape_block": {
                "x": 1,
                "y": 5,
                "id": 2,
                "rotation": 270,
                "reflected": false
            }
        },
        {
            "shape_block": {
                "x": 4,
                "y": 7,
                "id": 0,
                "rotation": 270,
                "reflected": false
            }
        },
        {
            "shape_block": {
                "x": 7,
                "y": 5,
                "id": 2,
                "rotation": 270,
                "reflected": false
            }
        },
        {
            "shape_block": {
                "x": 9,
                "y": 5,
                "id": 2,
                "rotation": 270,
                "reflected": false
            }
        },
        {
            "shape_block": {
                "x": 11,
                "y": 5,
                "id": 2,
                "rotation": 270,
                "reflected": false
            }
        },
        {
            "shape_block": {
                "x": 13,
                "y": 5,
                "id": 2,
                "rotation": 270,
                "reflected": false
            }
        },
        {
            "shape_block": {
                "x": 5,
                "y": 5,
                "id": 2,
                "rotation": 270,
                "reflected": false
            }
        },
        {
            "shape_block": {
                "x": 16,
                "y": 7,
                "id": 2,
                "rotation": 270,
                "reflected": false
            }
        },
        {
            "shape_block": {
                "x": 15,
                "y": 5,
                "id": 2,
                "rotation": 270,
                "reflected": false
            }
        },
        {
            "shape_block": {
                "x": 3,
                "y": 5,
                "id": 2,
                "rotation": 270,
                "reflected": false
            }
        },
        {
            "shape_block": {
                "x": 5,
                "y": 3,
                "id": 2,
                "rotation": 270,
                "reflected": false
            }
        },
        {
            "shape_block": {
                "x": 8,
                "y": 3,
                "id": 2,
                "rotation": 270,
                "reflected": false
            }
        },
        {
            "shape_block": {
                "x": -1,
                "y": 5,
                "id": 2,
                "rotation": 270,
                "reflected": false
            }
        },
        {
            "shape_block": {
                "x": 2,
                "y": 9,
                "id": 2,
                "rotation": 270,
                "reflected": false
            }
        },
        {
            "shape_block": {
                "x": 8,
                "y": 1,
                "id": 2,
                "rotation": 270,
                "reflected": false
            }
        },
        {
            "shape_block": {
                "x": 6,
                "y": 1,
                "id": 2,
                "rotation": 270,
                "reflected": false
            }
        },
        {
            "shape_block": {
                "x": 3,
                "y": 3,
                "id": 2,
                "rotation": 270,
                "reflected": false
            }
        },
        {
            "shape_block": {
                "x": -2,
                "y": 11,
                "id": 4,
                "rotation": 90,
                "reflected": false
            }
        },
        {
            "shape_block": {
                "x": -4,
                "y": 14,
                "id": 4,
                "rotation": 180,
                "reflected": false
            }
        },
        {
            "shape_block": {
                "x": -3,
                "y": 15,
                "id": 4,
                "rotation": 180,
                "reflected": false
            }
        },
        {
            "shape_block": {
                "x": -2,
                "y": 16,
                "id": 4,
                "rotation": 180,
                "reflected": false
            }
        },
        {
            "shape_block": {
                "x": -1,
                "y": 17,
                "id": 4,
                "rotation": 180,
                "reflected": false
            }
        },
        {
            "shape_block": {
                "x": 0,
                "y": 18,
                "id": 4,
                "rotation": 180,
                "reflected": false
            }
        },
        {
            "shape_block": {
                "x": -2,
                "y": 15,
                "id": 4,
                "rotation": 0,
                "reflected": false
            }
        },
        {
            "shape_block": {
                "x": -1,
                "y": 16,
                "id": 4,
                "rotation": 0,
                "reflected": false
            }
        },
        {
            "shape_block": {
                "x": 0,
                "y": 17,
                "id": 4,
                "rotation": 0,
                "reflected": false
            }
        },
        {
            "shape_block": {
                "x": 1,
                "y": 18,
                "id": 4,
                "rotation": 0,
                "reflected": false
            }
        },
        {
            "shape_block": {
                "x": 2,
                "y": 19,
                "id": 4,
                "rotation": 0,
                "reflected": false
            }
        },
        {
            "shape_block": {
                "x": 3,
                "y": 20,
                "id": 4,
                "rotation": 0,
                "reflected": false
            }
        },
        {
            "shape_block": {
                "x": 4,
                "y": 21,
                "id": 4,
                "rotation": 0,
                "reflected": false
            }
        },
        {
            "shape_block": {
                "x": 3,
                "y": 21,
                "id": 4,
                "rotation": 180,
                "reflected": false
            }
        },
        {
            "shape_block": {
                "x": 2,
                "y": 20,
                "id": 4,
                "rotation": 180,
                "reflected": false
            }
        },
        {
            "shape_block": {
                "x": 1,
                "y": 19,
                "id": 4,
                "rotation": 180,
                "reflected": false
            }
        },
        {
            "shape_block": {
                "x": -3,
                "y": 9,
                "id": 0,
                "rotation": 180,
                "reflected": false
            }
        },
        {
            "shape_block": {
                "x": -3,
                "y": 14,
                "id": 3,
                "rotation": 270,
                "reflected": false
            }
        },
        {
            "shape_block": {
                "x": 10,
                "y": 15,
                "id": 3,
                "rotation": 0,
                "reflected": false
            }
        },
        {
            "shape_block": {
                "x": 12,
                "y": 15,
                "id": 4,
                "rotation": 0,
                "reflected": false
            }
        },
        {
            "shape_block": {
                "x": 11,
                "y": 14,
                "id": 4,
                "rotation": 0,
                "reflected": false
            }
        },
        {
            "shape_block": {
                "x": 4,
                "y": 24,
                "id": 2,
                "rotation": 0,
                "reflected": false
            }
        },
        {
            "shape_block": {
                "x": 6,
                "y": 24,
                "id": 2,
                "rotation": 0,
                "reflected": false
            }
        },
        {
            "shape_block": {
                "x": 2,
                "y": 24,
                "id": 2,
                "rotation": 0,
                "reflected": false
            }
        },
        {
            "shape_block": {
                "x": 2,
                "y": 17,
                "id": 4,
                "rotation": 180,
                "reflected": false
            }
        },
        {
            "shape_block": {
                "x": 2,
                "y": 16,
                "id": 3,
                "rotation": 270,
                "reflected": false
            }
        },
        {
            "shape_block": {
                "x": -3,
                "y": 12,
                "id": 3,
                "rotation": 270,
                "reflected": false
            }
        },
        {
            "shape_block": {
                "x": -4,
                "y": 10,
                "id": 3,
                "rotation": 90,
                "reflected": false
            }
        },
        {
            "shape_block": {
                "x": -4,
                "y": 12,
                "id": 3,
                "rotation": 90,
                "reflected": false
            }
        },
        {
            "shape_block": {
                "x": 19,
                "y": 20,
                "id": 4,
                "rotation": 270,
                "reflected": false
            }
        },
        {
            "shape_block": {
                "x": 2,
                "y": 14,
                "id": 4,
                "rotation": 0,
                "reflected": false
            }
        },
        {
            "shape_block": {
                "x": 0,
                "y": 13,
                "id": 4,
                "rotation": 180,
                "reflected": false
            }
        }
    ],
    "dynamic_objects": [
        {
            "left_car": {
                "x": 15,
                "y": 15,
                "id": "main_car"
            }
        }
    ]
}
