{
    "name": "wack fall you won",
    "author_nickname": "TBE",
    "notes": "Get the box into the green!",
    "hint1": "Try placing some purple blocks below the box.",
    "hint2": "",
    "hint3": "",
    "discussion_id": "191",
    "discussion_slug": "191-wack-fall-you-won",
    "highlight_notes": false,
    "effects": {},
    "zoom": {
        "w": 24.112654320987662,
        "x": -0.8595119042913423,
        "y": -9.655355284135084
    },
    "shapes": [
        {
            "id": 0,
            "number": -1
        },
        {
            "id": 1,
            "number": -1
        },
        {
            "id": 2,
            "number": -1
        },
        {
            "id": 3,
            "number": -1
        },
        {
            "id": 4,
            "number": -1
        }
    ],
    "win_conditions": [
        {
            "bodyEnteredArea": [
                {
                    "RECT": [
                        {
                            "x": 9,
                            "y": 5
                        },
                        {
                            "x": 12,
                            "y": 9
                        }
                    ]
                },
                "main_car"
            ]
        }
    ],
    "lose_conditions": [
        {
            "greaterThan": [
                "time",
                10000
            ]
        }
    ],
    "blocks": [
        {
            "static_block": {
                "x": 4,
                "y": -5,
                "w": 2,
                "h": 10
            }
        },
        {
            "static_block": {
                "x": 6,
                "y": 3,
                "w": 3,
                "h": 2
            }
        },
        {
            "static_block": {
                "x": 12,
                "y": 3,
                "w": 2,
                "h": 2
            }
        },
        {
            "static_block": {
                "x": 12,
                "y": -5,
                "w": 2,
                "h": 9
            }
        },
        {
            "shape_block": {
                "x": 8,
                "y": 2,
                "id": 4,
                "rotation": 0,
                "reflected": false
            }
        },
        {
            "shape_block": {
                "x": 7,
                "y": 1,
                "id": 4,
                "rotation": 0,
                "reflected": false
            }
        },
        {
            "shape_block": {
                "x": 6,
                "y": 2,
                "id": 3,
                "rotation": 0,
                "reflected": false
            }
        }
    ],
    "dynamic_objects": [
        {
            "box": {
                "x": 8,
                "y": -4,
                "id": "main_car"
            }
        }
    ]
}
