{
    "name": "Stairs 2",
    "author_nickname": "AndyB",
    "notes": "Slow down that ball a little.",
    "hint1": "Can you bounce the ball back by placing the yellow block in its path?",
    "hint2": "",
    "hint3": "",
    "discussion_id": "155",
    "discussion_slug": "155-stairs-2",
    "highlight_notes": false,
    "effects": {},
    "zoom": {
        "x": 0,
        "y": 0,
        "w": 20
    },
    "shapes": [
        {
            "id": 3,
            "number": 1
        }
    ],
    "win_conditions": [
        {
            "bodyEnteredArea": [
                {
                    "RECT": [
                        {
                            "x": 9,
                            "y": 15
                        },
                        {
                            "x": 11,
                            "y": 17
                        }
                    ]
                },
                "main_car"
            ]
        }
    ],
    "lose_conditions": [
        {
            "greaterThan": [
                "time",
                10000
            ]
        }
    ],
    "blocks": [
        {
            "static_block": {
                "x": 5,
                "y": 11,
                "w": 2,
                "h": 2
            }
        },
        {
            "static_block": {
                "x": 7,
                "y": 13,
                "w": 2,
                "h": 2
            }
        },
        {
            "static_block": {
                "x": 11,
                "y": 17,
                "w": 2,
                "h": 2
            }
        },
        {
            "static_block": {
                "x": 13,
                "y": 19,
                "w": 4,
                "h": 1
            }
        }
    ],
    "dynamic_objects": [
        {
            "ball": {
                "x": 7,
                "y": 10,
                "id": "main_car"
            }
        }
    ]
}