{
    "name": "Snookered",
    "author_nickname": "AndyB",
    "notes": "Get the left-hand ball into the pocket",
    "hint1": "Try to knock the right-hand ball past the pocket.",
    "hint2": "Hit the left-hand ball at just the right speed to knock the first ball past and the second in.",
    "hint3": "",
    "discussion_id": "285",
    "discussion_slug": "285-snookered",
    "highlight_notes": false,
    "effects": {},
    "zoom": {
        "w": 24,
        "x": -4.255319148936171,
        "y": -0.5744680851063823
    },
    "shapes": [
        {
            "id": 0,
            "number": -1
        },
        {
            "id": 1,
            "number": -1
        },
        {
            "id": 2,
            "number": -1
        },
        {
            "id": 3,
            "number": -1
        },
        {
            "id": 4,
            "number": -1
        }
    ],
    "win_conditions": [
        {
            "bodyEnteredArea": [
                {
                    "RECT": [
                        {
                            "x": 9,
                            "y": 11
                        },
                        {
                            "x": 12,
                            "y": 13
                        }
                    ]
                },
                "main_car"
            ]
        }
    ],
    "lose_conditions": [
        {
            "greaterThan": [
                "time",
                10000
            ]
        }
    ],
    "blocks": [
        {
            "static_block": {
                "x": 8,
                "y": 11,
                "w": 1,
                "h": 2
            }
        },
        {
            "static_block": {
                "x": 9,
                "y": 13,
                "w": 3,
                "h": 1
            }
        },
        {
            "static_block": {
                "x": 12,
                "y": 11,
                "w": 1,
                "h": 2
            }
        },
        {
            "static_block": {
                "x": -1,
                "y": 10,
                "w": 9,
                "h": 1
            }
        }
    ],
    "dynamic_objects": [
        {
            "ball": {
                "x": 1,
                "y": 9,
                "id": "main_car"
            }
        },
        {
            "ball": {
                "x": 6,
                "y": 9,
                "id": "1"
            }
        }
    ]
}