{
    "name": "Ditch",
    "author_nickname": "AndyB",
    "notes": "That box needs to be on the other side",
    "hint1": "Try building a tower that topples.",
    "hint2": "Make your tower stretch to the right.",
    "hint3": "Add a ramp at the edge to launch the box.",
    "discussion_id": "320",
    "discussion_slug": "320-ditch",
    "highlight_notes": false,
    "effects": {},
    "zoom": {
        "w": 20,
        "x": 1.1752136752136755,
        "y": 0.06410256410256351
    },
    "shapes": [
        {
            "id": 0,
            "number": 3
        },
        {
            "id": 4,
            "number": 1
        }
    ],
    "win_conditions": [
        {
            "bodyEnteredArea": [
                {
                    "RECT": [
                        {
                            "x": 15,
                            "y": 12
                        },
                        {
                            "x": 18,
                            "y": 15
                        }
                    ]
                },
                "main_car"
            ]
        }
    ],
    "lose_conditions": [
        {
            "bodyEnteredArea": [
                {
                    "RECT": [
                        {
                            "x": 9,
                            "y": 15
                        },
                        {
                            "x": 13,
                            "y": 16
                        }
                    ]
                },
                "main_car"
            ]
        },
        {
            "greaterThan": [
                "time",
                10000
            ]
        }
    ],
    "blocks": [
        {
            "static_block": {
                "x": 4,
                "y": 15,
                "w": 5,
                "h": 2
            }
        },
        {
            "static_block": {
                "x": 9,
                "y": 16,
                "w": 4,
                "h": 1
            }
        },
        {
            "static_block": {
                "x": 13,
                "y": 15,
                "w": 5,
                "h": 2
            }
        }
    ],
    "dynamic_objects": [
        {
            "box": {
                "x": 5,
                "y": 7,
                "id": "main_car"
            }
        }
    ]
}